mangrove_master/regression/bool/bool_bool.vcd
$date
     May 19, 2016       18:21:20
$end

$version
 SystemC 2.3.1-Accellera --- Jul 30 2015 08:59:58
$end

$scope module SystemC $end
$var wire    1  aaaaa  b01       $end
$var wire    1  aaaab  b02       $end
$var wire    1  aaaac  b03       $end
$var wire    1  aaaad  b04       $end
$var wire    1  aaaae  b05       $end
$var wire    1  aaaaf  b06       $end
$var wire    1  aaaag  b07       $end
$var wire    1  aaaah  b08       $end
$var wire    1  aaaai  b09       $end
$var wire    1  aaaaj  b10       $end
$var wire    1  aaaak  b11       $end
$var wire    1  aaaal  b12       $end
$var wire    1  aaaam  b13       $end
$var wire    1  aaaan  b14       $end
$var wire    1  aaaao  b15       $end
$var wire    1  aaaap  b16       $end
$var wire    1  aaaaq  b17       $end
$var wire    1  aaaar  b18       $end
$var wire    1  aaaas  b19       $end
$var wire    1  aaaat  b20       $end
$var wire    1  aaaau  b21       $end
$var wire    1  aaaav  b22       $end
$var wire    1  aaaaw  b23       $end
$var wire    1  aaaax  b24       $end
$var wire    1  aaaay  u00       $end
$var wire    1  aaaaz  u01       $end
$var wire    1  aaaba  u02       $end
$var wire    1  aaabb  u03       $end
$var wire    1  aaabc  u04       $end
$var wire    1  aaabd  u05       $end
$var wire    1  aaabe  u06       $end
$var wire    1  aaabf  u07       $end
$var wire    1  aaabg  u08       $end
$var wire    1  aaabh  u09       $end
$var wire    1  aaabi  u10       $end
$var wire    1  aaabj  u11       $end
$var wire    1  aaabk  u12       $end
$var wire    1  aaabl  u13       $end
$var wire    1  aaabm  u14       $end
$var wire    1  aaabn  u15       $end
$upscope $end
$enddefinitions  $end

$comment
All initial values are dumped below at time 0 sec = 0 timescale units.
$end

$dumpvars
1aaaaa
1aaaab
1aaaac
0aaaad
0aaaae
0aaaaf
0aaaag
1aaaah
1aaaai
1aaaaj
0aaaak
0aaaal
0aaaam
1aaaan
0aaaao
1aaaap
0aaaaq
0aaaar
0aaaas
0aaaat
1aaaau
0aaaav
1aaaaw
1aaaax
0aaaay
1aaaaz
1aaaba
0aaabb
0aaabc
1aaabd
0aaabe
0aaabf
0aaabg
0aaabh
1aaabi
1aaabj
1aaabk
0aaabl
0aaabm
1aaabn
$end

#1
0aaaaa
0aaaac
1aaaad
1aaaaf
1aaaag
0aaaah
1aaaak
0aaaan
1aaaao
0aaaap
1aaaaq
1aaaas
0aaaau
0aaaax
0aaaaz
0aaaba
0aaabd
1aaabf
1aaabg
0aaabi
0aaabj
1aaabl
1aaabm

#2
1aaaaa
0aaaab
1aaaac
0aaaad
1aaaae
0aaaag
1aaaah
0aaaai
1aaaal
1aaaam
1aaaan
0aaaao
1aaaat
1aaaau
1aaaav
0aaaaw
1aaaax
1aaaba
1aaabb
1aaabd
1aaabe
0aaabg
1aaabh
0aaabk

#3
1aaaab
0aaaae
1aaaag
0aaaaj
0aaaak
0aaaam
1aaaao
1aaaap
0aaaaq
1aaaar
0aaaat
0aaaau
0aaaav
1aaaaw
0aaaax
1aaaaz
0aaabb
0aaabe
1aaabi
1aaabj
1aaabk

#4
0aaaab
0aaaac
0aaaaf
0aaaag
0aaaah
0aaaan
0aaaap
1aaaaq
0aaaar
0aaaas
1aaaat
1aaaau
0aaaaz
0aaaba
0aaabd
1aaabg
0aaabh
0aaabi
0aaabk
0aaabl

#5
0aaaaa
1aaaac
1aaaad
1aaaae
1aaaag
1aaaai
1aaaak
0aaaal
1aaaam
0aaaao
0aaaaq
1aaaar
1aaaas
0aaaau
1aaaav
0aaaaw
1aaaax
1aaabb
1aaabc
1aaabe
0aaabg
1aaabh
1aaabi
1aaabl

#6
1aaaaa
1aaaab
0aaaae
1aaaaf
0aaaag
0aaaai
0aaaak
1aaaal
1aaaap
0aaaar
0aaaat
1aaaau
0aaaav
0aaaax
1aaaaz
0aaabb
0aaabc
0aaabe
0aaabh
0aaabj
1aaabk
0aaabl

#7
0aaaaa
0aaaab
0aaaaf
1aaaag
1aaaai
1aaaaj
0aaaal
0aaaam
1aaaan
1aaaao
1aaaaq
1aaaar
1aaaat
0aaaau
1aaaax
0aaaaz
1aaabc
0aaabf
1aaabh
0aaabi
1aaabj
0aaabk
1aaabl

#8
1aaaaa
0aaaad
1aaaae
1aaaam
0aaaao
0aaaas
0aaaat
1aaaav
1aaaaw
0aaaax
1aaaba
1aaabb
0aaabh
1aaabk

#9
1aaaab
0aaaac
1aaaaf
1aaaah
0aaaai
0aaaam
1aaaao
0aaaap
1aaaas
1aaaat
1aaaau
0aaaav
1aaaax
1aaaaz
0aaaba
0aaabc
1aaabd
1aaabe
0aaabk
0aaabl
0aaabm

#10
1aaaac
1aaaai
0aaaaj
1aaaal
1aaaam
0aaaan
0aaaao
0aaaaq
0aaaas
0aaaaw
0aaaax
1aaaba
1aaabf
1aaabh
1aaabi
1aaabm

#11
0aaaaa
0aaaac
0aaaae
0aaaah
1aaaaj
1aaaak
1aaaan
1aaaao
1aaaap
1aaaaq
0aaaar
0aaaau
1aaaav
1aaaax
0aaaaz
0aaaba
0aaabb
0aaabd
0aaabe
0aaabi
1aaabl

#12
1aaaaa
1aaaae
0aaaaj
0aaaak
0aaaam
0aaaan
0aaaao
0aaaap
0aaaaq
1aaaar
0aaaat
1aaaau
0aaaav
1aaaaz
1aaabb
1aaabe
1aaabg
1aaabi
1aaabk
0aaabl

#13
0aaaaa
1aaaac
1aaaad
1aaaak
1aaaam
1aaaan
1aaaao
1aaaap
0aaaar
1aaaas
1aaaav
1aaaaw
0aaaax
0aaaaz
0aaabg
0aaabj
1aaabl

#14
1aaaaa
0aaaae
0aaaaf
0aaaag
1aaaah
0aaaam
0aaaan
0aaaao
1aaaaq
1aaaat
0aaaau
0aaaaw
1aaaaz
0aaabb
1aaabd
1aaabg
0aaabh
0aaabi
0aaabk

#15
0aaaaa
0aaaab
0aaaad
1aaaaf
1aaaag
0aaaah
1aaaaj
1aaaam
1aaaao
1aaaau
1aaaaw
1aaaax
0aaaaz
1aaaba
0aaabd
0aaabe
0aaabg
1aaabh
0aaabm

#16
1aaaab
0aaaac
1aaaah
0aaaai
0aaaal
1aaaan
0aaaap
0aaaaq
1aaaar
0aaaas
0aaaat
0aaaau
0aaaav
0aaaaw
0aaaba
1aaabd
1aaabe
0aaabh
1aaabi
1aaabj
1aaabk
1aaabm

#17
1aaaaa
0aaaab
1aaaac
1aaaad
0aaaag
0aaaah
1aaaai
1aaaaq
1aaaas
1aaaat
1aaaau
0aaaax
0aaabd
0aaabe
0aaabi
0aaabk
0aaabl

#18
0aaaaa
1aaaab
0aaaad
1aaaae
0aaaaf
1aaaah
0aaaai
0aaaaj
0aaaak
1aaaal
0aaaam
0aaaao
0aaaar
0aaaas
0aaaau
1aaaba
1aaabb
1aaabd
1aaabh
1aaabl

#19
0aaaae
1aaaai
1aaaao
1aaaap
0aaaaq
1aaaas
1aaaav
1aaaaw
0aaabb
1aaabe
1aaabi
0aaabj

#20
0aaaab
0aaaac
1aaaae
1aaaag
0aaaah
0aaaai
1aaaaj
1aaaak
1aaaam
0aaaan
1aaaar
1aaaau
1aaaax
0aaaba
1aaabb
1aaabc
0aaabd
1aaabj
0aaabm

#21
1aaaaa
1aaaab
1aaaac
1aaaaf
0aaaag
1aaaah
0aaaak
0aaaal
0aaaam
1aaaaq
0aaaar
0aaaav
0aaaax
1aaaaz
1aaaba
0aaabc
1aaabd
0aaabf
1aaabg
0aaabi
0aaabj
0aaabl
1aaabm

#22
0aaaaa
0aaaac
0aaaaf
1aaaai
1aaaak
1aaaal
1aaaam
0aaaaq
0aaaas
0aaaat
0aaaau
1aaaav
0aaaaw
0aaaaz
0aaaba
0aaabe
1aaabf
0aaabg
1aaabi
1aaabj
1aaabk
1aaabl

#23
0aaaae
0aaaai
0aaaak
0aaaal
1aaaar
1aaaas
0aaaav
1aaaax
0aaabb
1aaabe
0aaabf

#24
1aaaaa
0aaaab
1aaaag
0aaaaj
1aaaal
1aaaan
0aaaap
0aaaar
0aaaas
1aaaau
0aaaax
1aaabc
0aaabe
1aaabf
0aaabh
0aaabl

#25
0aaaaa
1aaaad
1aaaae
1aaaaf
0aaaah
1aaaaj
1aaaak
0aaaam
0aaaan
1aaaap
1aaaaq
1aaaar
1aaaas
1aaaav
1aaaaw
1aaabb
0aaabc
0aaabd
1aaabe
1aaabg
1aaabh
0aaabi
1aaabl

#26
1aaaac
0aaaaf
0aaaag
0aaaak
0aaaal
1aaaan
0aaaar
0aaaas
0aaaav
0aaaaw
1aaaax
0aaabf
0aaabg
0aaabl

#27
0aaaac
0aaaae
1aaaaf
1aaaah
1aaaak
1aaaal
0aaaao
1aaaas
0aaaau
1aaaav
1aaaaw
0aaaax
0aaabb
1aaabd
1aaabf
0aaabh
0aaabj
1aaabl

#28
1aaaac
0aaaad
1aaaae
0aaaaf
1aaaag
1aaaai
0aaaaj
0aaaal
0aaaan
0aaaap
0aaaaq
1aaaar
0aaaas
1aaaau
0aaaaw
1aaaax
1aaaba
1aaabb
1aaabc
1aaabg
1aaabh
1aaabi
1aaabj

#29
1aaaad
1aaaaf
0aaaag
0aaaah
0aaaai
0aaaak
1aaaam
1aaaap
1aaaaq
0aaaar
1aaaat
0aaaau
0aaaav
0aaaba
0aaabc
0aaabd
0aaabe
0aaabf
0aaabg
0aaabh
0aaabi
0aaabk

#30
1aaaab
0aaaac
0aaaad
0aaaaf
1aaaah
1aaaai
1aaaak
1aaaal
0aaaam
1aaaan
1aaaao
0aaaaq
1aaaas
1aaaau
1aaaaw
1aaabd
1aaabe
1aaabf
1aaabh
1aaabi
0aaabj
0aaabl
0aaabm

#31
1aaaac
1aaaad
0aaaae
1aaaag
0aaaai
1aaaaj
0aaaak
0aaaap
1aaaaq
1aaaar
0aaaat
1aaaav
0aaabb
1aaabc
0aaabh
0aaabi
1aaabj
1aaabk
1aaabl

#32
0aaaad
1aaaaf
0aaaag
1aaaai
1aaaak
0aaaal
0aaaan
0aaaao
0aaaaq
0aaaas
1aaaat
0aaaau
0aaaav
0aaaaw
0aaaax
1aaaba
0aaabc
0aaabe
1aaabg
1aaabh
1aaabi
0aaabk
1aaabm

#33
0aaaab
1aaaad
1aaaag
0aaaak
1aaaal
1aaaam
1aaaao
0aaaar
1aaaas
1aaaau
1aaaav
0aaaba
0aaabg
0aaabh
0aaabj

#34
1aaaaa
1aaaab
0aaaac
0aaaad
0aaaah
0aaaaj
0aaaal
0aaaam
1aaaap
0aaaat
1aaaaw
1aaaaz
0aaabd
1aaabe
0aaabf
1aaabg
1aaabh
1aaabk

#35
0aaaaa
0aaaab
1aaaac
0aaaaf
1aaaam
1aaaaq
0aaaas
1aaaat
0aaaav
0aaaaz
1aaaba
1aaabc
0aaabg
0aaabi
1aaabj
0aaabk
0aaabl

#36
1aaaab
0aaaac
1aaaae
0aaaag
1aaaah
1aaaan
0aaaao
0aaaaq
1aaaar
1aaaas
0aaaat
0aaaau
1aaaav
0aaaaw
1aaaax
0aaaba
1aaabb
0aaabc
1aaabd
0aaabh
1aaabi
1aaabk
1aaabl

#37
1aaaaa
0aaaab
1aaaac
1aaaad
1aaaaf
1aaaag
0aaaah
1aaaal
1aaaao
0aaaap
1aaaau
0aaaav
1aaaaw
0aaaax
0aaabd
1aaabf
0aaabl

#38
0aaaaa
1aaaab
0aaaac
0aaaad
0aaaag
1aaaah
0aaaai
0aaaam
0aaaan
0aaaao
1aaaaq
0aaaas
1aaaat
1aaaav
0aaaaw
1aaabd
0aaabe
1aaabg
1aaabh
0aaabi
0aaabk
1aaabl

#39
1aaaaa
1aaaad
0aaaae
0aaaaf
0aaaah
1aaaaj
1aaaak
0aaaal
1aaaao
1aaaap
0aaaar
1aaaas
0aaaat
1aaaaw
1aaaax
1aaaaz
0aaabb
0aaabd
1aaabe
0aaabj
1aaabk
0aaabm

#40
0aaaab
1aaaac
0aaaad
1aaaaf
1aaaag
1aaaai
0aaaaj
0aaaak
1aaaam
0aaaap
0aaaaq
1aaaar
0aaaas
1aaaat
0aaaau
0aaaav
0aaaaw
0aaaax
0aaaaz
1aaaba
0aaabf
0aaabg
0aaabh
1aaabi
1aaabj
0aaabk
1aaabm

#41
1aaaad
1aaaah
1aaaaj
0aaaao
1aaaap
1aaaas
0aaaat
1aaaav
0aaaba
1aaabd
0aaabe
1aaabk

#42
0aaaaa
1aaaab
0aaaac
0aaaah
0aaaam
0aaaap
1aaaat
1aaaau
0aaaav
1aaaaw
0aaabd
1aaabg
1aaabh
0aaabk
0aaabl

#43
1aaaaa
1aaaac
0aaaad
0aaaaf
1aaaah
0aaaai
1aaaak
1aaaal
1aaaam
1aaaan
1aaaap
0aaaau
0aaaaw
1aaaaz
1aaaba
1aaabc
1aaabd
1aaabe
1aaabf
0aaabg
0aaabh
1aaabl

#44
0aaaab
0aaaac
1aaaad
0aaaag
0aaaah
1aaaai
0aaaaj
0aaaal
0aaaam
0aaaan
0aaaar
0aaaas
0aaaat
1aaaau
1aaaav
1aaaaw
0aaaaz
0aaaba
0aaabc
0aaabd
1aaabg
1aaabk

#45
0aaaaa
1aaaab
1aaaaf
0aaaai
1aaaaj
0aaaak
1aaaal
1aaaam
1aaaan
1aaaaq
1aaaar
0aaaau
0aaaaw
1aaaax
0aaabg
0aaabi

#46
0aaaad
0aaaaf
1aaaag
1aaaah
0aaaaj
1aaaak
0aaaal
0aaaam
1aaaao
0aaaap
1aaaat
1aaaau
0aaaav
1aaaaw
1aaabc
1aaabd
0aaabe
0aaabk
0aaabl
0aaabm

#47
0aaaab
1aaaad
0aaaah
1aaaal
0aaaan
1aaaap
0aaaar
0aaaau
1aaaav
0aaaaw
0aaaax
0aaabd
1aaabg
1aaabh
1aaabl
1aaabm

#48
1aaaaa
1aaaab
1aaaac
1aaaaf
0aaaag
1aaaah
1aaaai
1aaaaj
0aaaal
1aaaan
0aaaap
0aaaat
1aaaau
1aaaax
1aaaaz
0aaabc
1aaabd
0aaabg
0aaabh
1aaabk

#49
0aaaaa
0aaaab
0aaaaf
0aaaah
0aaaaj
0aaaak
1aaaam
1aaaap
0aaaaq
1aaaar
1aaaat
0aaaau
0aaaax
0aaaaz
0aaabd
1aaabe
0aaabf
1aaabh
1aaabi
0aaabk

#50
0aaaad
1aaaah
1aaaaj
1aaaak
0aaaam
0aaaan
0aaaap
0aaaat
1aaaau
0aaaav
1aaaba
1aaabd
0aaabe
1aaabf
1aaabg
0aaabh
1aaabk
0aaabl

#51
1aaaab
1aaaad
1aaaae
0aaaah
0aaaaj
1aaaan
0aaaao
1aaaaq
0aaaar
0aaaau
1aaaax
0aaaba
1aaabb
0aaabd
1aaabe
0aaabg
1aaabh
0aaabi
1aaabl

#52
0aaaac
0aaaae
1aaaaf
1aaaah
0aaaak
1aaaao
1aaaav
1aaaaw
0aaaax
0aaabb
1aaabd
0aaabf
0aaabh

#53
1aaaaa
0aaaab
1aaaac
0aaaad
0aaaaf
0aaaai
1aaaaj
1aaaak
1aaaal
1aaaam
0aaaao
1aaaap
0aaaaq
1aaaar
1aaaat
1aaaau
1aaaax
1aaaba
1aaabf
1aaabi
0aaabk
0aaabm

#54
0aaaaa
0aaaac
1aaaad
1aaaaf
0aaaah
0aaaaj
0aaaam
0aaaan
0aaaar
0aaaat
0aaaau
0aaaax
0aaaba
0aaabd
0aaabe
1aaabg
1aaabk
1aaabm

#55
1aaaaa
0aaaaf
1aaaah
1aaaai
1aaaaj
1aaaam
1aaaar
1aaaas
1aaaat
0aaaav
1aaabd
0aaabg
0aaabk

#56
0aaaaa
1aaaac
1aaaaf
0aaaah
0aaaaj
0aaaal
1aaaao
0aaaap
0aaaas
1aaaau
1aaaav
0aaabd
1aaabe

#57
1aaaaa
1aaaab
0aaaac
1aaaae
0aaaaf
0aaaai
0aaaak
1aaaal
1aaaap
1aaaaq
0aaaau
0aaaav
0aaaaw
1aaaax
1aaaaz
1aaabb
0aaabe
1aaabh
0aaabi

#58
1aaaac
0aaaae
1aaaaf
1aaaaj
0aaaal
0aaaam
1aaaan
0aaaar
1aaaau
1aaaaw
0aaabb
1aaabe
0aaabf
0aaabl
0aaabm

#59
0aaaaa
0aaaab
0aaaac
1aaaag
0aaaaj
1aaaal
0aaaao
0aaaat
0aaaau
0aaaax
0aaaaz
0aaabe
1aaabf
0aaabh
1aaabk
1aaabl
1aaabm

#60
0aaaad
1aaaae
0aaaaf
0aaaan
1aaaar
1aaaas
1aaaat
1aaaau
1aaaav
1aaaax
1aaabb
1aaabc
1aaabg
0aaabk
0aaabm

#61
1aaaab
1aaaad
0aaaae
1aaaah
1aaaai
1aaaak
1aaaan
0aaaaq
0aaaav
0aaaaw
0aaabb
1aaabd
1aaabe
0aaabg
1aaabi
0aaabl
1aaabm

#62
0aaaab
1aaaac
0aaaad
0aaaag
0aaaai
1aaaaj
0aaaak
1aaaam
0aaaan
1aaaaq
0aaaar
0aaaas
0aaaat
0aaaau
1aaaav
1aaaba
0aaabc
0aaabi
1aaabk
1aaabl

#63
1aaaae
0aaaah
1aaaak
0aaaam
1aaaar
1aaaas
1aaaat
0aaaav
1aaaaw
0aaaax
1aaabb
0aaabd
1aaabg
0aaabk

#64
1aaaaa
0aaaac
1aaaaf
1aaaai
1aaaao
0aaaaq
0aaaas
1aaaau
1aaaav
1aaaax
0aaaba
0aaabe
1aaabh
1aaabi
0aaabm

#65
1aaaac
1aaaag
0aaaaj
1aaaam
1aaaan
0aaaao
1aaaaq
0aaaar
1aaaas
0aaaat
1aaaba
1aaabe
0aaabg
0aaabh
0aaabi
0aaabj
1aaabk

#66
0aaaaa
0aaaae
0aaaaf
0aaaag
0aaaam
0aaaap
1aaaar
0aaaas
1aaaat
0aaabb
1aaabh
1aaabj
0aaabk

#67
1aaaab
0aaaac
1aaaad
1aaaag
1aaaah
1aaaaj
0aaaak
0aaaal
1aaaao
0aaaaq
1aaaas
0aaaau
0aaaav
0aaaax
0aaaba
1aaabc
1aaabd
0aaabe
0aaabf
0aaabh
1aaabi
1aaabm

#68
0aaaab
0aaaad
1aaaae
0aaaag
0aaaah
0aaaai
0aaaaj
1aaaal
1aaaam
0aaaan
1aaaaq
0aaaar
0aaaat
0aaaaw
1aaaax
1aaabb
0aaabc
0aaabd
1aaabf
0aaabi
0aaabj
1aaabk

#69
1aaaad
1aaaah
1aaaai
1aaaaj
0aaaam
0aaaas
1aaaat
1aaaav
0aaaax
1aaabd
1aaabg
1aaabj
0aaabk

#70
1aaaab
1aaaac
0aaaad
0aaaae
0aaaal
1aaaan
0aaaao
1aaaap
0aaaaq
1aaaar
1aaaas
1aaaba
0aaabb
0aaabf
0aaabg
1aaabi

#71
1aaaaa
0aaaab
1aaaag
0aaaai
1aaaal
1aaaam
0aaaan
0aaaas
0aaaat
1aaaau
1aaabc
1aaabe
1aaabf
1aaabk

#72
0aaaaa
1aaaad
1aaaae
1aaaai
0aaaal
0aaaam
1aaaao
0aaaap
0aaaar
1aaaaw
1aaaax
0aaaba
1aaabb
0aaabe
0aaabf
1aaabg
0aaabm

#73
1aaaaa
0aaaac
0aaaad
1aaaaf
0aaaah
0aaaai
1aaaam
0aaaao
1aaaap
1aaaar
1aaaas
0aaaau
0aaaax
0aaabc
0aaabd
1aaabe
0aaabg
1aaabm

#74
0aaaaa
1aaaac
1aaaad
1aaaah
1aaaai
0aaaaj
1aaaal
0aaaam
1aaaan
1aaaaq
1aaaat
1aaaau
0aaaav
0aaaaw
1aaabd
1aaabf
0aaabi
0aaabk
0aaabl

#75
1aaaaa
0aaaad
0aaaae
1aaaak
1aaaao
0aaaap
0aaaaq
0aaaas
1aaaav
1aaaax
1aaaba
0aaabb
1aaabi
1aaabl

#76
0aaaaa
0aaaac
1aaaae
0aaaai
0aaaar
0aaaat
0aaaau
1aaaaw
0aaaax
0aaaba
1aaabb
0aaabe
1aaabk

#77
1aaaaa
1aaaab
1aaaad
0aaaah
0aaaan
1aaaap
1aaaaq
1aaaar
1aaaas
0aaaav
0aaaaw
1aaaax
1aaaaz
0aaabd
1aaabg
1aaabh
0aaabi

#78
0aaaad
1aaaah
1aaaai
1aaaaj
1aaaam
1aaaat
1aaaav
1aaaaw
0aaaax
1aaabd
0aaabg
0aaabk

#79
0aaaaa
0aaaab
1aaaad
0aaaak
0aaaal
1aaaan
0aaaao
0aaaaz
0aaabf
0aaabh

#80
1aaaab
0aaaae
0aaaai
0aaaaj
1aaaak
0aaaam
0aaaap
1aaaau
1aaaax
0aaabb
1aaabf
1aaabh
0aaabm

#81
1aaaaa
0aaaab
0aaaad
0aaaaf
1aaaai
1aaaaj
0aaaak
1aaaam
0aaaan
0aaaar
0aaaat
0aaaau
0aaaav
1aaabc
0aaabf
0aaabj
1aaabk

#82
0aaaaa
1aaaac
1aaaad
0aaaah
0aaaaj
1aaaak
0aaaam
1aaaan
1aaaao
1aaaat
1aaaau
0aaaaw
0aaabd
1aaabe
1aaabf
0aaabh
0aaabk
0aaabl
1aaabm

#83
1aaaaa
0aaaac
0aaaad
1aaaae
0aaaag
1aaaah
1aaaaj
1aaaar
0aaaat
0aaaau
1aaaav
1aaaaw
0aaaax
1aaabb
0aaabc
1aaabd
0aaabe
1aaabj
1aaabk
1aaabl

#84
0aaaaa
1aaaab
1aaaac
0aaaae
0aaaah
0aaaai
1aaaam
0aaaao
1aaaap
0aaaar
1aaaau
1aaaax
1aaaba
0aaabb
0aaabd
1aaabe
0aaabj
0aaabm

#85
0aaaac
1aaaad
1aaaah
0aaaaj
1aaaal
0aaaam
0aaaan
0aaaas
1aaaat
0aaaau
0aaaav
0aaaax
0aaaba
1aaabd
0aaabe
1aaabg
1aaabj
0aaabk
1aaabm

#86
1aaaaa
1aaaac
1aaaaf
1aaaag
1aaaam
1aaaao
0aaaap
0aaaaq
1aaaar
1aaaau
1aaaav
1aaaax
1aaaaz
0aaabg
1aaabi
0aaabm

#87
0aaaab
0aaaad
1aaaae
0aaaag
0aaaah
0aaaak
1aaaan
0aaaau
0aaaav
0aaaaw
0aaaaz
1aaaba
1aaabb
0aaabd
1aaabm

#88
1aaaad
0aaaae
1aaaag
1aaaai
1aaaaj
0aaaao
0aaaar
0aaaat
1aaaaw
0aaaba
0aaabb
1aaabh
1aaabk
0aaabm

#89
0aaaaa
0aaaad
0aaaag
0aaaai
0aaaan
1aaaao
1aaaap
1aaaav
0aaaaw
1aaaba
1aaabe
1aaabm

#90
1aaaab
1aaaad
1aaaae
1aaaai
0aaaaj
1aaaak
0aaaal
0aaaam
1aaaan
1aaaaq
1aaaat
1aaaau
0aaaav
0aaaax
0aaaba
1aaabb
0aaabi
0aaabk
0aaabl

#91
1aaaaa
0aaaad
0aaaaf
1aaaah
1aaaal
1aaaam
0aaaan
0aaaao
0aaaaq
1aaaar
1aaaax
1aaaaz
1aaaba
1aaabd
0aaabh
1aaabi

#92
1aaaad
0aaaae
0aaaah
0aaaai
0aaaam
1aaaao
0aaaap
0aaaat
1aaaav
0aaaax
0aaaba
0aaabb
0aaabd
0aaabe
1aaabg
1aaabk
1aaabl

#93
0aaaac
1aaaaf
1aaaag
1aaaai
0aaaak
0aaaal
1aaaam
1aaaan
1aaaap
1aaaas
1aaaat
1aaabe
0aaabf
0aaabg
1aaabh
0aaabk

#94
1aaaac
0aaaaf
0aaaag
0aaaai
1aaaak
1aaaal
0aaaam
0aaaao
0aaaas
1aaaaw
0aaabe
1aaabf
0aaabh

#95
1aaaae
1aaaah
1aaaai
0aaaak
0aaaal
1aaaam
1aaaao
0aaaap
0aaaat
0aaaau
0aaaaw
1aaaax
1aaabb
1aaabd
1aaabe
0aaabf
1aaabk

#96
1aaaaf
1aaaag
0aaaah
1aaaaj
1aaaal
0aaaam
0aaaan
0aaaao
1aaaaq
1aaaas
1aaaau
0aaaav
1aaaaw
0aaabd
0aaabe
1aaabf
1aaabg
1aaabh
0aaabi
0aaabl
0aaabm

#97
0aaaaa
0aaaac
0aaaag
0aaaaj
0aaaal
1aaaam
1aaaao
1aaaap
0aaaaq
0aaaar
0aaaas
1aaaav
0aaaax
0aaaaz
1aaabe
0aaabf
0aaabg
1aaabi
1aaabl
1aaabm

#98
1aaaaa
0aaaab
1aaaac
1aaaag
1aaaak
0aaaam
1aaaaq
1aaaat
0aaaau
0aaaav
0aaaaw
1aaaax
1aaabf
1aaabg
0aaabi
0aaabk

#99
1aaaab
0aaaac
0aaaad
1aaaah
0aaaai
1aaaaj
1aaaam
0aaaap
1aaaar
1aaaas
1aaaav
1aaaaw
1aaaaz
1aaabd
0aaabg
0aaabh
0aaabm

#100
0aaaaa
0aaaab
1aaaac
1aaaad
0aaaaf
0aaaag
0aaaak
0aaaao
0aaaaq
0aaaav
0aaaaw
0aaaax
0aaaaz
0aaabf
1aaabh
1aaabi
1aaabm

#101
0aaaac
0aaaad
0aaaae
1aaaai
0aaaaj
1aaaal
0aaaam
1aaaan
1aaaap
1aaaaq
0aaaat
1aaaau
1aaaaw
0aaabb
1aaabf
0aaabh
0aaabi
1aaabk
0aaabl

#102
1aaaad
1aaaae
1aaaaf
1aaaag
0aaaah
0aaaai
1aaaak
0aaaan
0aaaap
0aaaaq
1aaaat
1aaaax
1aaabb
0aaabd
0aaabe
1aaabg
1aaabh
1aaabi
0aaabk
0aaabm

#103
1aaaab
0aaaad
0aaaag
1aaaaj
0aaaal
1aaaan
1aaaao
1aaaap
0aaaar
0aaaas
1aaaav
0aaaax
1aaabe
0aaabg
1aaabl
1aaabm

#104
1aaaaa
1aaaad
0aaaae
1aaaag
1aaaah
1aaaai
1aaaal
1aaaam
0aaaan
0aaaap
1aaaar
1aaaas
0aaaaw
1aaaaz
0aaabb
1aaabd
0aaabe
0aaabh

#105
0aaaaa
1aaaac
1aaaae
0aaaag
0aaaaj
0aaaal
0aaaam
1aaaan
0aaaao
1aaaaq
0aaaar
1aaaax
0aaaaz
1aaabb
1aaabe
1aaabh
0aaabi
0aaabj

#106
1aaaaa
0aaaab
0aaaaf
0aaaah
0aaaai
0aaaak
0aaaan
0aaaat
1aaaaw
0aaabd
0aaabe
0aaabf
1aaabg
1aaabk
0aaabm

#107
0aaaaa
1aaaab
0aaaac
1aaaaf
1aaaag
1aaaah
1aaaai
1aaaaj
1aaaak
1aaaal
1aaaam
1aaaan
0aaaaq
0aaaas
1aaabd
1aaabf
0aaabg
1aaabi
1aaabj

#108
1aaaaa
0aaaab
0aaaae
0aaaaf
0aaaaj
1aaaap
1aaaas
0aaaau
0aaaav
0aaaax
0aaabb
1aaabc
1aaabe
0aaabh
0aaabj
1aaabm

#109
1aaaac
1aaaae
1aaaaf
0aaaai
0aaaam
0aaaap
1aaaaq
0aaaas
1aaaat
1aaaau
1aaaav
1aaabb
0aaabc
0aaabe
1aaabh
0aaabi
1aaabj
0aaabk

#110
1aaaab
0aaaad
0aaaae
1aaaai
1aaaaj
0aaaan
1aaaao
1aaaap
1aaaar
0aaaat
1aaaax
1aaaaz
1aaaba
0aaabb
1aaabg
1aaabk
0aaabm

#111
0aaaaa
1aaaae
1aaaan
0aaaap
0aaaaq
1aaaat
0aaaau
0aaaav
0aaaaz
1aaabb
0aaabg
0aaabh
1aaabi
0aaabk

#112
0aaaab
0aaaac
0aaaae
0aaaah
0aaaan
0aaaao
0aaaar
0aaaaw
0aaaba
0aaabb
0aaabd
1aaabg
1aaabh
1aaabm

#113
1aaaaa
1aaaab
1aaaac
0aaaaf
0aaaag
1aaaah
0aaaaj
1aaaan
1aaaaq
0aaaat
1aaaau
1aaaav
1aaaaz
1aaaba
1aaabd
1aaabe
0aaabg
0aaabi
1aaabk

#114
0aaaaa
1aaaae
1aaaaf
1aaaaj
0aaaak
0aaaan
1aaaao
1aaaar
1aaaaw
0aaaax
0aaaaz
1aaabb
0aaabe
1aaabg
0aaabh

#115
1aaaaa
0aaaab
1aaaad
0aaaaf
1aaaag
0aaaah
0aaaaj
1aaaak
1aaaan
0aaaar
1aaaax
0aaaba
1aaabc
0aaabd
1aaabe
0aaabg
0aaabm

#116
1aaaab
0aaaac
0aaaad
1aaaah
0aaaai
1aaaaj
0aaaak
0aaaal
1aaaam
0aaaan
1aaaap
1aaaas
0aaaau
0aaaaw
0aaaax
1aaaaz
1aaabd
0aaabf
1aaabh
0aaabj
1aaabm

#117
0aaaaa
1aaaac
1aaaad
1aaaaf
0aaaah
1aaaai
1aaaak
0aaaam
1aaaan
0aaaao
1aaaar
0aaaas
1aaaat
1aaaau
1aaaaw
1aaaax
0aaaaz
0aaabc
0aaabd
0aaabe
1aaabf
0aaabh
1aaabj
0aaabk
0aaabm

#118
0aaaaf
0aaaag
1aaaah
0aaaai
0aaaaj
1aaaal
0aaaar
0aaaau
0aaaax
1aaabd
1aaabm

#119
0aaaad
1aaaaf
0aaaah
0aaaak
0aaaal
1aaaam
0aaaaq
1aaaas
1aaaau
0aaaav
1aaaax
1aaaba
0aaabd
0aaabf
1aaabi
0aaabj
0aaabl
0aaabm

#120
1aaaaa
0aaaab
0aaaaf
1aaaag
1aaaaj
1aaaak
0aaaam
0aaaan
1aaaao
0aaaas
0aaaat
0aaaau
0aaaaw
1aaabc
1aaabe
1aaabf
1aaabg
1aaabh
1aaabj
1aaabk
1aaabl
1aaabm

#121
1aaaad
0aaaag
1aaaah
1aaaai
0aaaaj
0aaaak
1aaaal
1aaaam
1aaaan
0aaaao
0aaaap
1aaaaq
1aaaas
1aaaav
0aaaba
0aaabc
1aaabd
0aaabg
0aaabi
0aaabj

#122
0aaaaa
0aaaac
1aaaag
0aaaal
1aaaap
0aaaaq
0aaaas
1aaaat
0aaaax
1aaabc
0aaabf
0aaabh
1aaabi
1aaabj
0aaabk

