mangrove_master/regression/jpeg_zig/jpeg_zig_bool.vcd
$date
     May 19, 2016       19:32:26
$end

$version
              SystemC 2.3.0-ASI --- Jan 21 2013 09:04:20
$end

$timescale
     100 ps
$end

$scope module SystemC $end
$var wire    1  aaa  jpeg_enc.fdct_zigzag.doe       $end
$var wire    1  aab  jpeg_enc.fdct_zigzag.dct_mod.go_r       $end
$var wire    1  aac  jpeg_enc.fdct_zigzag.dct_mod.go_w       $end
$var wire    1  aad  jpeg_enc.fdct_zigzag.dct_mod.dgo_r       $end
$var wire    1  aae  jpeg_enc.fdct_zigzag.dct_mod.dgo_w       $end
$var wire    1  aaf  jpeg_enc.fdct_zigzag.dct_mod.ddgo       $end
$var wire    1  aag  jpeg_enc.fdct_zigzag.dct_mod.ddcnt_r       $end
$var wire    1  aah  jpeg_enc.fdct_zigzag.dct_mod.ddcnt_w       $end
$var wire    1  aai  jpeg_enc.fdct_zigzag.dct_mod.dddcnt_r       $end
$var wire    1  aaj  jpeg_enc.fdct_zigzag.dct_mod.dddcnt_w       $end
$var wire    1  aak  jpeg_enc.fdct_zigzag.dct_mod.dcnt       $end
$var wire    1  aal  jpeg_enc.fdct_zigzag.dct_mod.ddin_X       $end
$var wire    1  aam  jpeg_enc.fdct_zigzag.zigzag_mod.ld_zigzag       $end
$var wire    1  aan  jpeg_enc.fdct_zigzag.zigzag_mod.douten       $end
$var wire    1  aao  jpeg_enc.fdct_zigzag.zigzag_mod.dstrb       $end
$var wire    1  aap  jpeg_enc.fdct_zigzag.zigzag_mod.ena       $end
$var wire    1  aaq  jpeg_enc.fdct_zigzag.dct_mod.douten       $end
$var wire    1  aar  jpeg_enc.fdct_zigzag.dct_mod.din_X       $end
$var wire    1  aas  jpeg_enc.fdct_zigzag.dct_mod.dstrb       $end
$var wire    1  aat  jpeg_enc.fdct_zigzag.dct_mod.rst       $end
$var wire    1  aau  jpeg_enc.fdct_zigzag.dct_mod.ena       $end
$var wire    1  aav  jpeg_enc.fdct_zigzag.douten       $end
$var wire    1  aaw  jpeg_enc.fdct_zigzag.din_X       $end
$var wire    1  aax  jpeg_enc.fdct_zigzag.dstrb       $end
$var wire    1  aay  jpeg_enc.fdct_zigzag.rst       $end
$var wire    1  aaz  jpeg_enc.fdct_zigzag.ena       $end
$upscope $end
$enddefinitions  $end

$comment
All initial values are dumped below at time 0 sec = 0 timescale units.
$end

$dumpvars
0aaa
0aab
0aac
0aad
0aae
0aaf
1aag
1aah
1aai
1aaj
0aak
1aal
0aam
0aan
0aao
1aap
0aaq
1aar
0aas
0aat
1aau
0aav
1aaw
0aax
0aay
1aaz
$end

#120
1aat
1aay

#180
0aag
0aah

#240
0aai
0aaj

#1320
1aas
1aax

#1380
1aab
1aac
0aar
0aas
0aaw
0aax

#1440
0aab
0aac
1aad
1aae
0aal

#1500
0aad
0aae
1aaf

#1560
0aaf

#5160
1aak

#5220
1aag
1aah

#5280
1aaa
1aai
1aaj
1aao
1aaq

#5340
0aaa
1aam
1aan
0aao
0aaq
1aav

#5400
0aam
0aan
0aav

#11160
1aas
1aax

#11220
1aab
1aac
0aak
0aas
0aax

#11280
0aab
0aac
1aad
1aae
0aag
0aah

#11340
0aad
0aae
1aaf
0aai
0aaj

#11400
0aaf

#15000
1aak

#15060
1aag
1aah

#15120
1aaa
1aai
1aaj
1aao
1aaq

#15180
0aaa
1aam
1aan
0aao
0aaq
1aav

#15240
0aam
0aan
0aav

#21000
1aas
1aax

#21060
1aab
1aac
0aak
0aas
0aax

#21120
0aab
0aac
1aad
1aae
0aag
0aah

#21180
0aad
0aae
1aaf
0aai
0aaj

#21240
0aaf

#24840
1aak

#24900
1aag
1aah

#24960
1aaa
1aai
1aaj
1aao
1aaq

#25020
0aaa
1aam
1aan
0aao
0aaq
1aav

#25080
0aam
0aan
0aav

#30840
1aas
1aax

#30900
1aab
1aac
0aak
0aas
0aax

#30960
0aab
0aac
1aad
1aae
0aag
0aah

#31020
0aad
0aae
1aaf
0aai
0aaj

#31080
0aaf

#34680
1aak

#34740
1aag
1aah

#34800
1aaa
1aai
1aaj
1aao
1aaq

#34860
0aaa
1aam
1aan
0aao
0aaq
1aav

#34920
0aam
0aan
0aav

#40680
1aas
1aax

#40740
1aab
1aac
0aak
0aas
0aax

#40800
0aab
0aac
1aad
1aae
0aag
0aah

#40860
0aad
0aae
1aaf
0aai
0aaj

#40920
0aaf

#44520
1aak

#44580
1aag
1aah

#44640
1aaa
1aai
1aaj
1aao
1aaq

#44700
0aaa
1aam
1aan
0aao
0aaq
1aav

#44760
0aam
0aan
0aav

#50520
1aas
1aax

#50580
1aab
1aac
0aak
0aas
0aax

#50640
0aab
0aac
1aad
1aae
0aag
0aah

#50700
0aad
0aae
1aaf
0aai
0aaj

#50760
0aaf

#54360
1aak

#54420
1aag
1aah

#54480
1aaa
1aai
1aaj
1aao
1aaq

#54540
0aaa
1aam
1aan
0aao
0aaq
1aav

#54600
0aam
0aan
0aav

#60360
1aas
1aax

#60420
1aab
1aac
0aak
0aas
0aax

#60480
0aab
0aac
1aad
1aae
0aag
0aah

#60540
0aad
0aae
1aaf
0aai
0aaj

#60600
0aaf

#64200
1aak

#64260
1aag
1aah

#64320
1aaa
1aai
1aaj
1aao
1aaq

#64380
0aaa
1aam
1aan
0aao
0aaq
1aav

#64440
0aam
0aan
0aav

#70200
1aas
1aax

#70260
1aab
1aac
0aak
0aas
0aax

#70320
0aab
0aac
1aad
1aae
0aag
0aah

#70380
0aad
0aae
1aaf
0aai
0aaj

#70440
0aaf

#74040
1aak

#74100
1aag
1aah

#74160
1aaa
1aai
1aaj
1aao
1aaq

#74220
0aaa
1aam
1aan
0aao
0aaq
1aav

#74280
0aam
0aan
0aav

#80040
1aas
1aax

#80100
1aab
1aac
0aak
0aas
0aax

#80160
0aab
0aac
1aad
1aae
0aag
0aah

#80220
0aad
0aae
1aaf
0aai
0aaj

#80280
0aaf

#83880
1aak

#83940
1aag
1aah

#84000
1aaa
1aai
1aaj
1aao
1aaq

#84060
0aaa
1aam
1aan
0aao
0aaq
1aav

#84120
0aam
0aan
0aav

#89880
1aas
1aax

#89940
1aab
1aac
0aak
0aas
0aax

#90000
0aab
0aac
1aad
1aae
0aag
0aah

#90060
0aad
0aae
1aaf
0aai
0aaj

#90120
0aaf

#93720
1aak

#93780
1aag
1aah

#93840
1aaa
1aai
1aaj
1aao
1aaq

#93900
0aaa
1aam
1aan
0aao
0aaq
1aav

#93960
0aam
0aan
0aav

#99720
1aas
1aax

#99780
1aab
1aac
0aak
0aas
0aax

#99840
0aab
0aac
1aad
1aae
0aag
0aah

#99900
0aad
0aae
1aaf
0aai
0aaj

#99960
0aaf

#103560
1aak

#103620
1aag
1aah

#103680
1aaa
1aai
1aaj
1aao
1aaq

#103740
0aaa
1aam
1aan
0aao
0aaq
1aav

#103800
0aam
0aan
0aav

#109560
1aas
1aax

#109620
1aab
1aac
0aak
0aas
0aax

#109680
0aab
0aac
1aad
1aae
0aag
0aah

#109740
0aad
0aae
1aaf
0aai
0aaj

#109800
0aaf

#113400
1aak

#113460
1aag
1aah

#113520
1aaa
1aai
1aaj
1aao
1aaq

#113580
0aaa
1aam
1aan
0aao
0aaq
1aav

#113640
0aam
0aan
0aav

#119400
1aas
1aax

#119460
1aab
1aac
0aak
0aas
0aax

#119520
0aab
0aac
1aad
1aae
0aag
0aah

#119580
0aad
0aae
1aaf
0aai
0aaj

#119640
0aaf

#123240
1aak

#123300
1aag
1aah

#123360
1aaa
1aai
1aaj
1aao
1aaq

#123420
0aaa
1aam
1aan
0aao
0aaq
1aav

#123480
0aam
0aan
0aav

#129240
1aas
1aax

#129300
1aab
1aac
0aak
0aas
0aax

#129360
0aab
0aac
1aad
1aae
0aag
0aah

#129420
0aad
0aae
1aaf
0aai
0aaj

#129480
0aaf

#133080
1aak

#133140
1aag
1aah

#133200
1aaa
1aai
1aaj
1aao
1aaq

#133260
0aaa
1aam
1aan
0aao
0aaq
1aav

#133320
0aam
0aan
0aav

#139080
1aas
1aax

#139140
1aab
1aac
0aak
0aas
0aax

#139200
0aab
0aac
1aad
1aae
0aag
0aah

#139260
0aad
0aae
1aaf
0aai
0aaj

#139320
0aaf

#142920
1aak

#142980
1aag
1aah

#143040
1aaa
1aai
1aaj
1aao
1aaq

#143100
0aaa
1aam
1aan
0aao
0aaq
1aav

#143160
0aam
0aan
0aav

#148920
1aas
1aax

#148980
1aab
1aac
0aak
0aas
0aax

#149040
0aab
0aac
1aad
1aae
0aag
0aah

#149100
0aad
0aae
1aaf
0aai
0aaj

#149160
0aaf

#152760
1aak

#152820
1aag
1aah

#152880
1aaa
1aai
1aaj
1aao
1aaq

#152940
0aaa
1aam
1aan
0aao
0aaq
1aav

#153000
0aam
0aan
0aav

#158760
1aas
1aax

#158820
1aab
1aac
0aak
0aas
0aax

#158880
0aab
0aac
1aad
1aae
0aag
0aah

#158940
0aad
0aae
1aaf
0aai
0aaj

#159000
0aaf

#162600
1aak

#162660
1aag
1aah

#162720
1aaa
1aai
1aaj
1aao
1aaq

#162780
0aaa
1aam
1aan
0aao
0aaq
1aav

#162840
0aam
0aan
0aav

#168600
1aas
1aax

#168660
1aab
1aac
0aak
0aas
0aax

#168720
0aab
0aac
1aad
1aae
0aag
0aah

#168780
0aad
0aae
1aaf
0aai
0aaj

#168840
0aaf

#172440
1aak

#172500
1aag
1aah

#172560
1aaa
1aai
1aaj
1aao
1aaq

#172620
0aaa
1aam
1aan
0aao
0aaq
1aav

#172680
0aam
0aan
0aav

#178440
1aas
1aax

#178500
1aab
1aac
0aak
0aas
0aax

#178560
0aab
0aac
1aad
1aae
0aag
0aah

#178620
0aad
0aae
1aaf
0aai
0aaj

#178680
0aaf

#182280
1aak

#182340
1aag
1aah

#182400
1aaa
1aai
1aaj
1aao
1aaq

#182460
0aaa
1aam
1aan
0aao
0aaq
1aav

#182520
0aam
0aan
0aav

#188280
1aas
1aax

#188340
1aab
1aac
0aak
0aas
0aax

#188400
0aab
0aac
1aad
1aae
0aag
0aah

#188460
0aad
0aae
1aaf
0aai
0aaj

#188520
0aaf

#192120
1aak

#192180
1aag
1aah

#192240
1aaa
1aai
1aaj
1aao
1aaq

#192300
0aaa
1aam
1aan
0aao
0aaq
1aav

#192360
0aam
0aan
0aav

#198120
1aas
1aax

#198180
1aab
1aac
0aak
0aas
0aax

#198240
0aab
0aac
1aad
1aae
0aag
0aah

#198300
0aad
0aae
1aaf
0aai
0aaj

#198360
0aaf

#201960
1aak

#202020
1aag
1aah

#202080
1aaa
1aai
1aaj
1aao
1aaq

#202140
0aaa
1aam
1aan
0aao
0aaq
1aav

#202200
0aam
0aan
0aav

#207960
1aas
1aax

#208020
1aab
1aac
0aak
0aas
0aax

#208080
0aab
0aac
1aad
1aae
0aag
0aah

#208140
0aad
0aae
1aaf
0aai
0aaj

#208200
0aaf

#211800
1aak

#211860
1aag
1aah

#211920
1aaa
1aai
1aaj
1aao
1aaq

#211980
0aaa
1aam
1aan
0aao
0aaq
1aav

#212040
0aam
0aan
0aav

#217800
1aas
1aax

#217860
1aab
1aac
0aak
0aas
0aax

#217920
0aab
0aac
1aad
1aae
0aag
0aah

#217980
0aad
0aae
1aaf
0aai
0aaj

#218040
0aaf

#221640
1aak

#221700
1aag
1aah

#221760
1aaa
1aai
1aaj
1aao
1aaq

#221820
0aaa
1aam
1aan
0aao
0aaq
1aav

#221880
0aam
0aan
0aav

#227640
1aas
1aax

#227700
1aab
1aac
0aak
0aas
0aax

#227760
0aab
0aac
1aad
1aae
0aag
0aah

#227820
0aad
0aae
1aaf
0aai
0aaj

#227880
0aaf

#231480
1aak

#231540
1aag
1aah

#231600
1aaa
1aai
1aaj
1aao
1aaq

#231660
0aaa
1aam
1aan
0aao
0aaq
1aav

#231720
0aam
0aan
0aav

#237480
1aas
1aax

#237540
1aab
1aac
0aak
0aas
0aax

#237600
0aab
0aac
1aad
1aae
0aag
0aah

#237660
0aad
0aae
1aaf
0aai
0aaj

#237720
0aaf

#241320
1aak

#241380
1aag
1aah

#241440
1aaa
1aai
1aaj
1aao
1aaq

#241500
0aaa
1aam
1aan
0aao
0aaq
1aav

#241560
0aam
0aan
0aav

#247320
1aas
1aax

#247380
1aab
1aac
0aak
0aas
0aax

#247440
0aab
0aac
1aad
1aae
0aag
0aah

#247500
0aad
0aae
1aaf
0aai
0aaj

#247560
0aaf

#251160
1aak

#251220
1aag
1aah

#251280
1aaa
1aai
1aaj
1aao
1aaq

#251340
0aaa
1aam
1aan
0aao
0aaq
1aav

#251400
0aam
0aan
0aav

#257160
1aas
1aax

#257220
1aab
1aac
0aak
0aas
0aax

#257280
0aab
0aac
1aad
1aae
0aag
0aah

#257340
0aad
0aae
1aaf
0aai
0aaj

#257400
0aaf

#261000
1aak

#261060
1aag
1aah

#261120
1aaa
1aai
1aaj
1aao
1aaq

#261180
0aaa
1aam
1aan
0aao
0aaq
1aav

#261240
0aam
0aan
0aav

#267000
1aas
1aax

#267060
1aab
1aac
0aak
0aas
0aax

#267120
0aab
0aac
1aad
1aae
0aag
0aah

#267180
0aad
0aae
1aaf
0aai
0aaj

#267240
0aaf

#270840
1aak

#270900
1aag
1aah

#270960
1aaa
1aai
1aaj
1aao
1aaq

#271020
0aaa
1aam
1aan
0aao
0aaq
1aav

#271080
0aam
0aan
0aav

#276840
1aas
1aax

#276900
1aab
1aac
0aak
0aas
0aax

#276960
0aab
0aac
1aad
1aae
0aag
0aah

#277020
0aad
0aae
1aaf
0aai
0aaj

#277080
0aaf

#280680
1aak

#280740
1aag
1aah

#280800
1aaa
1aai
1aaj
1aao
1aaq

#280860
0aaa
1aam
1aan
0aao
0aaq
1aav

#280920
0aam
0aan
0aav

#286680
1aas
1aax

#286740
1aab
1aac
0aak
0aas
0aax

#286800
0aab
0aac
1aad
1aae
0aag
0aah

#286860
0aad
0aae
1aaf
0aai
0aaj

#286920
0aaf

#290520
1aak

#290580
1aag
1aah

#290640
1aaa
1aai
1aaj
1aao
1aaq

#290700
0aaa
1aam
1aan
0aao
0aaq
1aav

#290760
0aam
0aan
0aav

#296520
1aas
1aax

#296580
1aab
1aac
0aak
0aas
0aax

#296640
0aab
0aac
1aad
1aae
0aag
0aah

#296700
0aad
0aae
1aaf
0aai
0aaj

#296760
0aaf

#300360
1aak

#300420
1aag
1aah

#300480
1aaa
1aai
1aaj
1aao
1aaq

#300540
0aaa
1aam
1aan
0aao
0aaq
1aav

#300600
0aam
0aan
0aav

#306360
1aas
1aax

#306420
1aab
1aac
0aak
0aas
0aax

#306480
0aab
0aac
1aad
1aae
0aag
0aah

#306540
0aad
0aae
1aaf
0aai
0aaj

#306600
0aaf

#310200
1aak

#310260
1aag
1aah

#310320
1aaa
1aai
1aaj
1aao
1aaq

#310380
0aaa
1aam
1aan
0aao
0aaq
1aav

#310440
0aam
0aan
0aav

#316200
1aas
1aax

#316260
1aab
1aac
0aak
0aas
0aax

#316320
0aab
0aac
1aad
1aae
0aag
0aah

#316380
0aad
0aae
1aaf
0aai
0aaj

#316440
0aaf

#320040
1aak

#320100
1aag
1aah

#320160
1aaa
1aai
1aaj
1aao
1aaq

#320220
0aaa
1aam
1aan
0aao
0aaq
1aav

#320280
0aam
0aan
0aav

#326040
1aas
1aax

#326100
1aab
1aac
0aak
0aas
0aax

#326160
0aab
0aac
1aad
1aae
0aag
0aah

#326220
0aad
0aae
1aaf
0aai
0aaj

#326280
0aaf

#329880
1aak

#329940
1aag
1aah

#330000
1aaa
1aai
1aaj
1aao
1aaq

#330060
0aaa
1aam
1aan
0aao
0aaq
1aav

#330120
0aam
0aan
0aav

#335880
1aas
1aax

#335940
1aab
1aac
0aak
0aas
0aax

#336000
0aab
0aac
1aad
1aae
0aag
0aah

#336060
0aad
0aae
1aaf
0aai
0aaj

#336120
0aaf

#339720
1aak

#339780
1aag
1aah

#339840
1aaa
1aai
1aaj
1aao
1aaq

#339900
0aaa
1aam
1aan
0aao
0aaq
1aav

#339960
0aam
0aan
0aav

#345720
1aas
1aax

#345780
1aab
1aac
0aak
0aas
0aax

#345840
0aab
0aac
1aad
1aae
0aag
0aah

#345900
0aad
0aae
1aaf
0aai
0aaj

#345960
0aaf

#349560
1aak

#349620
1aag
1aah

#349680
1aaa
1aai
1aaj
1aao
1aaq

#349740
0aaa
1aam
1aan
0aao
0aaq
1aav

#349800
0aam
0aan
0aav

#355560
1aas
1aax

#355620
1aab
1aac
0aak
0aas
0aax

#355680
0aab
0aac
1aad
1aae
0aag
0aah

#355740
0aad
0aae
1aaf
0aai
0aaj

#355800
0aaf

#359400
1aak

#359460
1aag
1aah

#359520
1aaa
1aai
1aaj
1aao
1aaq

#359580
0aaa
1aam
1aan
0aao
0aaq
1aav

#359640
0aam
0aan
0aav

#365400
1aas
1aax

#365460
1aab
1aac
0aak
0aas
0aax

#365520
0aab
0aac
1aad
1aae
0aag
0aah

#365580
0aad
0aae
1aaf
0aai
0aaj

#365640
0aaf

#369240
1aak

#369300
1aag
1aah

#369360
1aaa
1aai
1aaj
1aao
1aaq

#369420
0aaa
1aam
1aan
0aao
0aaq
1aav

#369480
0aam
0aan
0aav

#375240
1aas
1aax

#375300
1aab
1aac
0aak
0aas
0aax

#375360
0aab
0aac
1aad
1aae
0aag
0aah

#375420
0aad
0aae
1aaf
0aai
0aaj

#375480
0aaf

#379080
1aak

#379140
1aag
1aah

#379200
1aaa
1aai
1aaj
1aao
1aaq

#379260
0aaa
1aam
1aan
0aao
0aaq
1aav

#379320
0aam
0aan
0aav

#385080
1aas
1aax

#385140
1aab
1aac
0aak
0aas
0aax

#385200
0aab
0aac
1aad
1aae
0aag
0aah

#385260
0aad
0aae
1aaf
0aai
0aaj

#385320
0aaf

#388920
1aak

#388980
1aag
1aah

#389040
1aaa
1aai
1aaj
1aao
1aaq

#389100
0aaa
1aam
1aan
0aao
0aaq
1aav

#389160
0aam
0aan
0aav

#394920
1aas
1aax

#394980
1aab
1aac
0aak
0aas
0aax

#395040
0aab
0aac
1aad
1aae
0aag
0aah

#395100
0aad
0aae
1aaf
0aai
0aaj

#395160
0aaf

#398760
1aak

#398820
1aag
1aah

#398880
1aaa
1aai
1aaj
1aao
1aaq

#398940
0aaa
1aam
1aan
0aao
0aaq
1aav

#399000
0aam
0aan
0aav

#404760
1aas
1aax

#404820
1aab
1aac
0aak
0aas
0aax

#404880
0aab
0aac
1aad
1aae
0aag
0aah

#404940
0aad
0aae
1aaf
0aai
0aaj

#405000
0aaf

#408600
1aak

#408660
1aag
1aah

#408720
1aaa
1aai
1aaj
1aao
1aaq

#408780
0aaa
1aam
1aan
0aao
0aaq
1aav

#408840
0aam
0aan
0aav

#414600
1aas
1aax

#414660
1aab
1aac
0aak
0aas
0aax

#414720
0aab
0aac
1aad
1aae
0aag
0aah

#414780
0aad
0aae
1aaf
0aai
0aaj

#414840
0aaf

#418440
1aak

#418500
1aag
1aah

#418560
1aaa
1aai
1aaj
1aao
1aaq

#418620
0aaa
1aam
1aan
0aao
0aaq
1aav

#418680
0aam
0aan
0aav

#424440
1aas
1aax

#424500
1aab
1aac
0aak
0aas
0aax

#424560
0aab
0aac
1aad
1aae
0aag
0aah

#424620
0aad
0aae
1aaf
0aai
0aaj

#424680
0aaf

#428280
1aak

#428340
1aag
1aah

#428400
1aaa
1aai
1aaj
1aao
1aaq

#428460
0aaa
1aam
1aan
0aao
0aaq
1aav

#428520
0aam
0aan
0aav

#434280
1aas
1aax

#434340
1aab
1aac
0aak
0aas
0aax

#434400
0aab
0aac
1aad
1aae
0aag
0aah

#434460
0aad
0aae
1aaf
0aai
0aaj

#434520
0aaf

#438120
1aak

#438180
1aag
1aah

#438240
1aaa
1aai
1aaj
1aao
1aaq

#438300
0aaa
1aam
1aan
0aao
0aaq
1aav

#438360
0aam
0aan
0aav

#444120
1aas
1aax

#444180
1aab
1aac
0aak
0aas
0aax

#444240
0aab
0aac
1aad
1aae
0aag
0aah

#444300
0aad
0aae
1aaf
0aai
0aaj

#444360
0aaf

#447960
1aak

#448020
1aag
1aah

#448080
1aaa
1aai
1aaj
1aao
1aaq

#448140
0aaa
1aam
1aan
0aao
0aaq
1aav

#448200
0aam
0aan
0aav

#453960
1aas
1aax

#454020
1aab
1aac
0aak
0aas
0aax

#454080
0aab
0aac
1aad
1aae
0aag
0aah

#454140
0aad
0aae
1aaf
0aai
0aaj

#454200
0aaf

#457800
1aak

#457860
1aag
1aah

#457920
1aaa
1aai
1aaj
1aao
1aaq

#457980
0aaa
1aam
1aan
0aao
0aaq
1aav

#458040
0aam
0aan
0aav

#463800
1aas
1aax

#463860
1aab
1aac
0aak
0aas
0aax

#463920
0aab
0aac
1aad
1aae
0aag
0aah

#463980
0aad
0aae
1aaf
0aai
0aaj

#464040
0aaf

#467640
1aak

#467700
1aag
1aah

#467760
1aaa
1aai
1aaj
1aao
1aaq

#467820
0aaa
1aam
1aan
0aao
0aaq
1aav

#467880
0aam
0aan
0aav

#473640
1aas
1aax

#473700
1aab
1aac
0aak
0aas
0aax

#473760
0aab
0aac
1aad
1aae
0aag
0aah

#473820
0aad
0aae
1aaf
0aai
0aaj

#473880
0aaf

#477480
1aak

#477540
1aag
1aah

#477600
1aaa
1aai
1aaj
1aao
1aaq

#477660
0aaa
1aam
1aan
0aao
0aaq
1aav

#477720
0aam
0aan
0aav

#483480
1aas
1aax

#483540
1aab
1aac
0aak
0aas
0aax

#483600
0aab
0aac
1aad
1aae
0aag
0aah

#483660
0aad
0aae
1aaf
0aai
0aaj

#483720
0aaf

#487320
1aak

#487380
1aag
1aah

#487440
1aaa
1aai
1aaj
1aao
1aaq

#487500
0aaa
1aam
1aan
0aao
0aaq
1aav

#487560
0aam
0aan
0aav

#493320
1aas
1aax

#493380
1aab
1aac
0aak
0aas
0aax

#493440
0aab
0aac
1aad
1aae
0aag
0aah

#493500
0aad
0aae
1aaf
0aai
0aaj

#493560
0aaf

#497160
1aak

#497220
1aag
1aah

#497280
1aaa
1aai
1aaj
1aao
1aaq

#497340
0aaa
1aam
1aan
0aao
0aaq
1aav

#497400
0aam
0aan
0aav

#503160
1aas
1aax

#503220
1aab
1aac
0aak
0aas
0aax

#503280
0aab
0aac
1aad
1aae
0aag
0aah

#503340
0aad
0aae
1aaf
0aai
0aaj

#503400
0aaf

#507000
1aak

#507060
1aag
1aah

#507120
1aaa
1aai
1aaj
1aao
1aaq

#507180
0aaa
1aam
1aan
0aao
0aaq
1aav

#507240
0aam
0aan
0aav

#513000
1aas
1aax

#513060
1aab
1aac
0aak
0aas
0aax

#513120
0aab
0aac
1aad
1aae
0aag
0aah

#513180
0aad
0aae
1aaf
0aai
0aaj

#513240
0aaf

#516840
1aak

#516900
1aag
1aah

#516960
1aaa
1aai
1aaj
1aao
1aaq

#517020
0aaa
1aam
1aan
0aao
0aaq
1aav

#517080
0aam
0aan
0aav

#522840
1aas
1aax

#522900
1aab
1aac
0aak
0aas
0aax

#522960
0aab
0aac
1aad
1aae
0aag
0aah

#523020
0aad
0aae
1aaf
0aai
0aaj

#523080
0aaf

#526680
1aak

#526740
1aag
1aah

#526800
1aaa
1aai
1aaj
1aao
1aaq

#526860
0aaa
1aam
1aan
0aao
0aaq
1aav

#526920
0aam
0aan
0aav

#532680
1aas
1aax

#532740
1aab
1aac
0aak
0aas
0aax

#532800
0aab
0aac
1aad
1aae
0aag
0aah

#532860
0aad
0aae
1aaf
0aai
0aaj

#532920
0aaf

#536520
1aak

#536580
1aag
1aah

#536640
1aaa
1aai
1aaj
1aao
1aaq

#536700
0aaa
1aam
1aan
0aao
0aaq
1aav

#536760
0aam
0aan
0aav

#542520
1aas
1aax

#542580
1aab
1aac
0aak
0aas
0aax

#542640
0aab
0aac
1aad
1aae
0aag
0aah

#542700
0aad
0aae
1aaf
0aai
0aaj

#542760
0aaf

#546360
1aak

#546420
1aag
1aah

#546480
1aaa
1aai
1aaj
1aao
1aaq

#546540
0aaa
1aam
1aan
0aao
0aaq
1aav

#546600
0aam
0aan
0aav

#552360
1aas
1aax

#552420
1aab
1aac
0aak
0aas
0aax

#552480
0aab
0aac
1aad
1aae
0aag
0aah

#552540
0aad
0aae
1aaf
0aai
0aaj

#552600
0aaf

#556200
1aak

#556260
1aag
1aah

#556320
1aaa
1aai
1aaj
1aao
1aaq

#556380
0aaa
1aam
1aan
0aao
0aaq
1aav

#556440
0aam
0aan
0aav

#562200
1aas
1aax

#562260
1aab
1aac
0aak
0aas
0aax

#562320
0aab
0aac
1aad
1aae
0aag
0aah

#562380
0aad
0aae
1aaf
0aai
0aaj

#562440
0aaf

#566040
1aak

#566100
1aag
1aah

#566160
1aaa
1aai
1aaj
1aao
1aaq

#566220
0aaa
1aam
1aan
0aao
0aaq
1aav

#566280
0aam
0aan
0aav

#572040
1aas
1aax

#572100
1aab
1aac
0aak
0aas
0aax

#572160
0aab
0aac
1aad
1aae
0aag
0aah

#572220
0aad
0aae
1aaf
0aai
0aaj

#572280
0aaf

#575880
1aak

#575940
1aag
1aah

#576000
1aaa
1aai
1aaj
1aao
1aaq

#576060
0aaa
1aam
1aan
0aao
0aaq
1aav

#576120
0aam
0aan
0aav

#581880
1aas
1aax

#581940
1aab
1aac
0aak
0aas
0aax

#582000
0aab
0aac
1aad
1aae
0aag
0aah

#582060
0aad
0aae
1aaf
0aai
0aaj

#582120
0aaf

#585720
1aak

#585780
1aag
1aah

#585840
1aaa
1aai
1aaj
1aao
1aaq

#585900
0aaa
1aam
1aan
0aao
0aaq
1aav

#585960
0aam
0aan
0aav

#591720
1aas
1aax

#591780
1aab
1aac
0aak
0aas
0aax

#591840
0aab
0aac
1aad
1aae
0aag
0aah

#591900
0aad
0aae
1aaf
0aai
0aaj

#591960
0aaf

#595560
1aak

#595620
1aag
1aah

#595680
1aaa
1aai
1aaj
1aao
1aaq

#595740
0aaa
1aam
1aan
0aao
0aaq
1aav

#595800
0aam
0aan
0aav

#601560
1aas
1aax

#601620
1aab
1aac
0aak
0aas
0aax

#601680
0aab
0aac
1aad
1aae
0aag
0aah

#601740
0aad
0aae
1aaf
0aai
0aaj

#601800
0aaf

#605400
1aak

#605460
1aag
1aah

#605520
1aaa
1aai
1aaj
1aao
1aaq

#605580
0aaa
1aam
1aan
0aao
0aaq
1aav

#605640
0aam
0aan
0aav

#611400
1aas
1aax

#611460
1aab
1aac
0aak
0aas
0aax

#611520
0aab
0aac
1aad
1aae
0aag
0aah

#611580
0aad
0aae
1aaf
0aai
0aaj

#611640
0aaf

#615240
1aak

#615300
1aag
1aah

#615360
1aaa
1aai
1aaj
1aao
1aaq

#615420
0aaa
1aam
1aan
0aao
0aaq
1aav

#615480
0aam
0aan
0aav

#621240
1aas
1aax

#621300
1aab
1aac
0aak
0aas
0aax

#621360
0aab
0aac
1aad
1aae
0aag
0aah

#621420
0aad
0aae
1aaf
0aai
0aaj

#621480
0aaf

#625080
1aak

#625140
1aag
1aah

#625200
1aaa
1aai
1aaj
1aao
1aaq

#625260
0aaa
1aam
1aan
0aao
0aaq
1aav

#625320
0aam
0aan
0aav

#631080
1aas
1aax

#631140
1aab
1aac
0aak
0aas
0aax

#631200
0aab
0aac
1aad
1aae
0aag
0aah

#631260
0aad
0aae
1aaf
0aai
0aaj

#631320
0aaf

#634920
1aak

#634980
1aag
1aah

#635040
1aaa
1aai
1aaj
1aao
1aaq

#635100
0aaa
1aam
1aan
0aao
0aaq
1aav

#635160
0aam
0aan
0aav

#640920
1aas
1aax

#640980
1aab
1aac
0aak
0aas
0aax

#641040
0aab
0aac
1aad
1aae
0aag
0aah

#641100
0aad
0aae
1aaf
0aai
0aaj

#641160
0aaf

#644760
1aak

#644820
1aag
1aah

#644880
1aaa
1aai
1aaj
1aao
1aaq

#644940
0aaa
1aam
1aan
0aao
0aaq
1aav

#645000
0aam
0aan
0aav

#650760
1aas
1aax

#650820
1aab
1aac
0aak
0aas
0aax

#650880
0aab
0aac
1aad
1aae
0aag
0aah

#650940
0aad
0aae
1aaf
0aai
0aaj

#651000
0aaf

#654600
1aak

#654660
1aag
1aah

#654720
1aaa
1aai
1aaj
1aao
1aaq

#654780
0aaa
1aam
1aan
0aao
0aaq
1aav

#654840
0aam
0aan
0aav

#660600
1aas
1aax

#660660
1aab
1aac
0aak
0aas
0aax

#660720
0aab
0aac
1aad
1aae
0aag
0aah

#660780
0aad
0aae
1aaf
0aai
0aaj

#660840
0aaf

#664440
1aak

#664500
1aag
1aah

#664560
1aaa
1aai
1aaj
1aao
1aaq

#664620
0aaa
1aam
1aan
0aao
0aaq
1aav

#664680
0aam
0aan
0aav

#670440
1aas
1aax

#670500
1aab
1aac
0aak
0aas
0aax

#670560
0aab
0aac
1aad
1aae
0aag
0aah

#670620
0aad
0aae
1aaf
0aai
0aaj

#670680
0aaf

#674280
1aak

#674340
1aag
1aah

#674400
1aaa
1aai
1aaj
1aao
1aaq

#674460
0aaa
1aam
1aan
0aao
0aaq
1aav

#674520
0aam
0aan
0aav

#680280
1aas
1aax

#680340
1aab
1aac
0aak
0aas
0aax

#680400
0aab
0aac
1aad
1aae
0aag
0aah

#680460
0aad
0aae
1aaf
0aai
0aaj

#680520
0aaf

#684120
1aak

#684180
1aag
1aah

#684240
1aaa
1aai
1aaj
1aao
1aaq

#684300
0aaa
1aam
1aan
0aao
0aaq
1aav

#684360
0aam
0aan
0aav

#690120
1aas
1aax

#690180
1aab
1aac
0aak
0aas
0aax

#690240
0aab
0aac
1aad
1aae
0aag
0aah

#690300
0aad
0aae
1aaf
0aai
0aaj

#690360
0aaf

#693960
1aak

#694020
1aag
1aah

#694080
1aaa
1aai
1aaj
1aao
1aaq

#694140
0aaa
1aam
1aan
0aao
0aaq
1aav

#694200
0aam
0aan
0aav

#699960
1aas
1aax

