mangrove_master/regression/jpeg_qnr/jpeg_qnr_bool.vcd
$date
     May 19, 2016       19:32:26
$end

$version
              SystemC 2.3.0-ASI --- Jan 21 2013 09:04:20
$end

$timescale
     100 ps
$end

$scope module SystemC $end
$var wire    1  aaa  jpeg_enc.qnr.dcnt       $end
$var wire    1  aab  jpeg_enc.qnr.div0_open       $end
$var wire    1  aac  jpeg_enc.qnr.ovf_open       $end
$var wire    1  aad  jpeg_enc.qnr.divider.idiv0       $end
$var wire    1  aae  jpeg_enc.qnr.divider.iovf       $end
$var wire    1  aaf  jpeg_enc.qnr.divider.divider.s_pipe_X_0       $end
$var wire    1  aag  jpeg_enc.qnr.divider.divider.s_pipe_X_1       $end
$var wire    1  aah  jpeg_enc.qnr.divider.divider.s_pipe_X_2       $end
$var wire    1  aai  jpeg_enc.qnr.divider.divider.s_pipe_X_3       $end
$var wire    1  aaj  jpeg_enc.qnr.divider.divider.s_pipe_X_4       $end
$var wire    1  aak  jpeg_enc.qnr.divider.divider.s_pipe_X_5       $end
$var wire    1  aal  jpeg_enc.qnr.divider.divider.s_pipe_X_6       $end
$var wire    1  aam  jpeg_enc.qnr.divider.divider.s_pipe_X_7       $end
$var wire    1  aan  jpeg_enc.qnr.divider.divider.s_pipe_X_8       $end
$var wire    1  aao  jpeg_enc.qnr.divider.divider.s_pipe_X_9       $end
$var wire    1  aap  jpeg_enc.qnr.divider.divider.s_pipe_X_10       $end
$var wire    1  aaq  jpeg_enc.qnr.divider.divider.s_pipe_X_11       $end
$var wire    1  aar  jpeg_enc.qnr.divider.divider.s_pipe_X_12       $end
$var wire    1  aas  jpeg_enc.qnr.divider.divider.div0_pipe_X_0       $end
$var wire    1  aat  jpeg_enc.qnr.divider.divider.div0_pipe_X_1       $end
$var wire    1  aau  jpeg_enc.qnr.divider.divider.div0_pipe_X_2       $end
$var wire    1  aav  jpeg_enc.qnr.divider.divider.div0_pipe_X_3       $end
$var wire    1  aaw  jpeg_enc.qnr.divider.divider.div0_pipe_X_4       $end
$var wire    1  aax  jpeg_enc.qnr.divider.divider.div0_pipe_X_5       $end
$var wire    1  aay  jpeg_enc.qnr.divider.divider.div0_pipe_X_6       $end
$var wire    1  aaz  jpeg_enc.qnr.divider.divider.div0_pipe_X_7       $end
$var wire    1  aba  jpeg_enc.qnr.divider.divider.div0_pipe_X_8       $end
$var wire    1  abb  jpeg_enc.qnr.divider.divider.div0_pipe_X_9       $end
$var wire    1  abc  jpeg_enc.qnr.divider.divider.div0_pipe_X_10       $end
$var wire    1  abd  jpeg_enc.qnr.divider.divider.div0_pipe_X_11       $end
$var wire    1  abe  jpeg_enc.qnr.divider.divider.div0_pipe_X_12       $end
$var wire    1  abf  jpeg_enc.qnr.divider.divider.ovf       $end
$var wire    1  abg  jpeg_enc.qnr.divider.divider.div0       $end
$var wire    1  abh  jpeg_enc.qnr.divider.divider.ena       $end
$var wire    1  abi  jpeg_enc.qnr.divider.ovf       $end
$var wire    1  abj  jpeg_enc.qnr.divider.div0       $end
$var wire    1  abk  jpeg_enc.qnr.divider.ena       $end
$var wire    1  abl  jpeg_enc.qnr.douten       $end
$var wire    1  abm  jpeg_enc.qnr.qnt_val_X       $end
$var wire    1  abn  jpeg_enc.qnr.dstrb       $end
$var wire    1  abo  jpeg_enc.qnr.rst       $end
$var wire    1  abp  jpeg_enc.qnr.ena       $end
$upscope $end
$enddefinitions  $end

$comment
All initial values are dumped below at time 0 sec = 0 timescale units.
$end

$dumpvars
0aaa
0aab
0aac
0aad
0aae
1aaf
1aag
1aah
1aai
1aaj
1aak
1aal
1aam
1aan
1aao
1aap
1aaq
1aar
1aas
1aat
1aau
1aav
1aaw
1aax
1aay
1aaz
1aba
1abb
1abc
1abd
1abe
0abf
0abg
1abh
0abi
0abj
1abk
0abl
1abm
0abn
0abo
1abp
$end

#60
0abm

#120
0aas
1abo

#180
0aat

#240
0aau

#300
0aav

#360
0aaw

#420
0aax

#480
0aay

#540
0aaz

#600
0aba

#660
0abb

#720
0abc

#780
0abd

#840
0abe

#3900
1aaa

#3960
0aaa

#5340
1abn

#5400
0abn

#5520
0aaf

#5580
0aag

#5640
0aah

#5700
0aai

#5760
0aaj

#5820
0aak

#5880
0aal

#5940
0aam

#6000
0aan

#6060
0aao

#6120
0aap

#6180
0aaq

#6240
0aar

#6300
1abl

#6360
0abl

#9180
1aaa

#9240
0aaa

#13020
1aaa

#13080
0aaa

#15180
1abn

#15240
0abn

#16140
1abl

#16200
0abl

#19020
1aaa

#19080
0aaa

#22860
1aaa

#22920
0aaa

#25020
1abn

#25080
0abn

#25980
1abl

#26040
0abl

#28860
1aaa

#28920
0aaa

#32700
1aaa

#32760
0aaa

#34860
1abn

#34920
0abn

#35820
1abl

#35880
0abl

#38700
1aaa

#38760
0aaa

#42540
1aaa

#42600
0aaa

#44700
1abn

#44760
0abn

#45660
1abl

#45720
0abl

#48540
1aaa

#48600
0aaa

#52380
1aaa

#52440
0aaa

#54540
1abn

#54600
0abn

#55500
1abl

#55560
0abl

#58380
1aaa

#58440
0aaa

#62220
1aaa

#62280
0aaa

#64380
1abn

#64440
0abn

#65340
1abl

#65400
0abl

#68220
1aaa

#68280
0aaa

#72060
1aaa

#72120
0aaa

#74220
1abn

#74280
0abn

#75180
1abl

#75240
0abl

#78060
1aaa

#78120
0aaa

#81900
1aaa

#81960
0aaa

#84060
1abn

#84120
0abn

#85020
1abl

#85080
0abl

#87900
1aaa

#87960
0aaa

#91740
1aaa

#91800
0aaa

#93900
1abn

#93960
0abn

#94860
1abl

#94920
0abl

#97740
1aaa

#97800
0aaa

#101580
1aaa

#101640
0aaa

#103740
1abn

#103800
0abn

#104700
1abl

#104760
0abl

#107580
1aaa

#107640
0aaa

#111420
1aaa

#111480
0aaa

#113580
1abn

#113640
0abn

#114540
1abl

#114600
0abl

#117420
1aaa

#117480
0aaa

#121260
1aaa

#121320
0aaa

#123420
1abn

#123480
0abn

#124380
1abl

#124440
0abl

#127260
1aaa

#127320
0aaa

#131100
1aaa

#131160
0aaa

#133260
1abn

#133320
0abn

#134220
1abl

#134280
0abl

#137100
1aaa

#137160
0aaa

#140940
1aaa

#141000
0aaa

#143100
1abn

#143160
0abn

#144060
1abl

#144120
0abl

#146940
1aaa

#147000
0aaa

#150780
1aaa

#150840
0aaa

#152940
1abn

#153000
0abn

#153900
1abl

#153960
0abl

#156780
1aaa

#156840
0aaa

#160620
1aaa

#160680
0aaa

#162780
1abn

#162840
0abn

#163740
1abl

#163800
0abl

#166620
1aaa

#166680
0aaa

#170460
1aaa

#170520
0aaa

#172620
1abn

#172680
0abn

#173580
1abl

#173640
0abl

#176460
1aaa

#176520
0aaa

#180300
1aaa

#180360
0aaa

#182460
1abn

#182520
0abn

#183420
1abl

#183480
0abl

#186300
1aaa

#186360
0aaa

#190140
1aaa

#190200
0aaa

#192300
1abn

#192360
0abn

#193260
1abl

#193320
0abl

#196140
1aaa

#196200
0aaa

#199980
1aaa

#200040
0aaa

#202140
1abn

#202200
0abn

#203100
1abl

#203160
0abl

#205980
1aaa

#206040
0aaa

#209820
1aaa

#209880
0aaa

#211980
1abn

#212040
0abn

#212940
1abl

#213000
0abl

#215820
1aaa

#215880
0aaa

#219660
1aaa

#219720
0aaa

#221820
1abn

#221880
0abn

#222780
1abl

#222840
0abl

#225660
1aaa

#225720
0aaa

#229500
1aaa

#229560
0aaa

#231660
1abn

#231720
0abn

#232620
1abl

#232680
0abl

#235500
1aaa

#235560
0aaa

#239340
1aaa

#239400
0aaa

#241500
1abn

#241560
0abn

#242460
1abl

#242520
0abl

#245340
1aaa

#245400
0aaa

#249180
1aaa

#249240
0aaa

#251340
1abn

#251400
0abn

#252300
1abl

#252360
0abl

#255180
1aaa

#255240
0aaa

#259020
1aaa

#259080
0aaa

#261180
1abn

#261240
0abn

#262140
1abl

#262200
0abl

#265020
1aaa

#265080
0aaa

#268860
1aaa

#268920
0aaa

#271020
1abn

#271080
0abn

#271980
1abl

#272040
0abl

#274860
1aaa

#274920
0aaa

#278700
1aaa

#278760
0aaa

#280860
1abn

#280920
0abn

#281820
1abl

#281880
0abl

#284700
1aaa

#284760
0aaa

#288540
1aaa

#288600
0aaa

#290700
1abn

#290760
0abn

#291660
1abl

#291720
0abl

#294540
1aaa

#294600
0aaa

#298380
1aaa

#298440
0aaa

#300540
1abn

#300600
0abn

#301500
1abl

#301560
0abl

#304380
1aaa

#304440
0aaa

#308220
1aaa

#308280
0aaa

#310380
1abn

#310440
0abn

#311340
1abl

#311400
0abl

#314220
1aaa

#314280
0aaa

#318060
1aaa

#318120
0aaa

#320220
1abn

#320280
0abn

#321180
1abl

#321240
0abl

#324060
1aaa

#324120
0aaa

#327900
1aaa

#327960
0aaa

#330060
1abn

#330120
0abn

#331020
1abl

#331080
0abl

#333900
1aaa

#333960
0aaa

#337740
1aaa

#337800
0aaa

#339900
1abn

#339960
0abn

#340860
1abl

#340920
0abl

#343740
1aaa

#343800
0aaa

#347580
1aaa

#347640
0aaa

#349740
1abn

#349800
0abn

#350700
1abl

#350760
0abl

#353580
1aaa

#353640
0aaa

#357420
1aaa

#357480
0aaa

#359580
1abn

#359640
0abn

#360540
1abl

#360600
0abl

#363420
1aaa

#363480
0aaa

#367260
1aaa

#367320
0aaa

#369420
1abn

#369480
0abn

#370380
1abl

#370440
0abl

#373260
1aaa

#373320
0aaa

#377100
1aaa

#377160
0aaa

#379260
1abn

#379320
0abn

#380220
1abl

#380280
0abl

#383100
1aaa

#383160
0aaa

#386940
1aaa

#387000
0aaa

#389100
1abn

#389160
0abn

#390060
1abl

#390120
0abl

#392940
1aaa

#393000
0aaa

#396780
1aaa

#396840
0aaa

#398940
1abn

#399000
0abn

#399900
1abl

#399960
0abl

#402780
1aaa

#402840
0aaa

#406620
1aaa

#406680
0aaa

#408780
1abn

#408840
0abn

#409740
1abl

#409800
0abl

#412620
1aaa

#412680
0aaa

#416460
1aaa

#416520
0aaa

#418620
1abn

#418680
0abn

#419580
1abl

#419640
0abl

#422460
1aaa

#422520
0aaa

#426300
1aaa

#426360
0aaa

#428460
1abn

#428520
0abn

#429420
1abl

#429480
0abl

#432300
1aaa

#432360
0aaa

#436140
1aaa

#436200
0aaa

#438300
1abn

#438360
0abn

#439260
1abl

#439320
0abl

#442140
1aaa

#442200
0aaa

#445980
1aaa

#446040
0aaa

#448140
1abn

#448200
0abn

#449100
1abl

#449160
0abl

#451980
1aaa

#452040
0aaa

#455820
1aaa

#455880
0aaa

#457980
1abn

#458040
0abn

#458940
1abl

#459000
0abl

#461820
1aaa

#461880
0aaa

#465660
1aaa

#465720
0aaa

#467820
1abn

#467880
0abn

#468780
1abl

#468840
0abl

#471660
1aaa

#471720
0aaa

#475500
1aaa

#475560
0aaa

#477660
1abn

#477720
0abn

#478620
1abl

#478680
0abl

#481500
1aaa

#481560
0aaa

#485340
1aaa

#485400
0aaa

#487500
1abn

#487560
0abn

#488460
1abl

#488520
0abl

#491340
1aaa

#491400
0aaa

#495180
1aaa

#495240
0aaa

#497340
1abn

#497400
0abn

#498300
1abl

#498360
0abl

#501180
1aaa

#501240
0aaa

#505020
1aaa

#505080
0aaa

#507180
1abn

#507240
0abn

#508140
1abl

#508200
0abl

#511020
1aaa

#511080
0aaa

#514860
1aaa

#514920
0aaa

#517020
1abn

#517080
0abn

#517980
1abl

#518040
0abl

#520860
1aaa

#520920
0aaa

#524700
1aaa

#524760
0aaa

#526860
1abn

#526920
0abn

#527820
1abl

#527880
0abl

#530700
1aaa

#530760
0aaa

#534540
1aaa

#534600
0aaa

#536700
1abn

#536760
0abn

#537660
1abl

#537720
0abl

#540540
1aaa

#540600
0aaa

#544380
1aaa

#544440
0aaa

#546540
1abn

#546600
0abn

#547500
1abl

#547560
0abl

#550380
1aaa

#550440
0aaa

#554220
1aaa

#554280
0aaa

#556380
1abn

#556440
0abn

#557340
1abl

#557400
0abl

#560220
1aaa

#560280
0aaa

#564060
1aaa

#564120
0aaa

#566220
1abn

#566280
0abn

#567180
1abl

#567240
0abl

#570060
1aaa

#570120
0aaa

#573900
1aaa

#573960
0aaa

#576060
1abn

#576120
0abn

#577020
1abl

#577080
0abl

#579900
1aaa

#579960
0aaa

#583740
1aaa

#583800
0aaa

#585900
1abn

#585960
0abn

#586860
1abl

#586920
0abl

#589740
1aaa

#589800
0aaa

#593580
1aaa

#593640
0aaa

#595740
1abn

#595800
0abn

#596700
1abl

#596760
0abl

#599580
1aaa

#599640
0aaa

#603420
1aaa

#603480
0aaa

#605580
1abn

#605640
0abn

#606540
1abl

#606600
0abl

#609420
1aaa

#609480
0aaa

#613260
1aaa

#613320
0aaa

#615420
1abn

#615480
0abn

#616380
1abl

#616440
0abl

#619260
1aaa

#619320
0aaa

#623100
1aaa

#623160
0aaa

#625260
1abn

#625320
0abn

#626220
1abl

#626280
0abl

#629100
1aaa

#629160
0aaa

#632940
1aaa

#633000
0aaa

#635100
1abn

#635160
0abn

#636060
1abl

#636120
0abl

#638940
1aaa

#639000
0aaa

#642780
1aaa

#642840
0aaa

#644940
1abn

#645000
0abn

#645900
1abl

#645960
0abl

#648780
1aaa

#648840
0aaa

#652620
1aaa

#652680
0aaa

#654780
1abn

#654840
0abn

#655740
1abl

#655800
0abl

#658620
1aaa

#658680
0aaa

#662460
1aaa

#662520
0aaa

#664620
1abn

#664680
0abn

#665580
1abl

#665640
0abl

#668460
1aaa

#668520
0aaa

#672300
1aaa

#672360
0aaa

#674460
1abn

#674520
0abn

#675420
1abl

#675480
0abl

#678300
1aaa

#678360
0aaa

#682140
1aaa

#682200
0aaa

#684300
1abn

#684360
0abn

#685260
1abl

#685320
0abl

#688140
1aaa

#688200
0aaa

#691980
1aaa

#692040
0aaa

#694140
1abn

#694200
0abn

#695100
1abl

#695160
0abl

#697980
1aaa

#698040
0aaa

#701820
1aaa

#701880
0aaa

#703980
1abn

#704040
0abn

#704940
1abl

#705000
0abl

#707820
1aaa

#707880
0aaa

#711660
1aaa

#711720
0aaa

#713820
1abn

#713880
0abn

#714780
1abl

#714840
0abl

#717660
1aaa

#717720
0aaa

#721500
1aaa

#721560
0aaa

#723660
1abn

#723720
0abn

#724620
1abl

#724680
0abl

#727500
1aaa

#727560
0aaa

#731340
1aaa

#731400
0aaa

#733500
1abn

#733560
0abn

#734460
1abl

#734520
0abl

#737340
1aaa

#737400
0aaa

#741180
1aaa

#741240
0aaa

#743340
1abn

#743400
0abn

#744300
1abl

#744360
0abl

#747180
1aaa

#747240
0aaa

#751020
1aaa

#751080
0aaa

#753180
1abn

#753240
0abn

#754140
1abl

#754200
0abl

#757020
1aaa

#757080
0aaa

#760860
1aaa

#760920
0aaa

#763020
1abn

#763080
0abn

#763980
1abl

#764040
0abl

#766860
1aaa

#766920
0aaa

#770700
1aaa

#770760
0aaa

#772860
1abn

#772920
0abn

#773820
1abl

#773880
0abl

#776700
1aaa

#776760
0aaa

#780540
1aaa

#780600
0aaa

#782700
1abn

#782760
0abn

#783660
1abl

#783720
0abl

#786540
1aaa

#786600
0aaa

#790380
1aaa

#790440
0aaa

#792540
1abn

#792600
0abn

#793500
1abl

#793560
0abl

#796380
1aaa

#796440
0aaa

#800220
1aaa

#800280
0aaa

#802380
1abn

#802440
0abn

#803340
1abl

#803400
0abl

#806220
1aaa

#806280
0aaa

#810060
1aaa

#810120
0aaa

#812220
1abn

#812280
0abn

#813180
1abl

#813240
0abl

#816060
1aaa

#816120
0aaa

#819900
1aaa

#819960
0aaa

#822060
1abn

#822120
0abn

#823020
1abl

#823080
0abl

#825900
1aaa

#825960
0aaa

#829740
1aaa

#829800
0aaa

#831900
1abn

#831960
0abn

#832860
1abl

#832920
0abl

#835740
1aaa

#835800
0aaa

#839580
1aaa

#839640
0aaa

#841740
1abn

#841800
0abn

#842700
1abl

#842760
0abl

#845580
1aaa

#845640
0aaa

#849420
1aaa

#849480
0aaa

#851580
1abn

#851640
0abn

#852540
1abl

#852600
0abl

#855420
1aaa

#855480
0aaa

#859260
1aaa

#859320
0aaa

#861420
1abn

#861480
0abn

#862380
1abl

#862440
0abl

#865260
1aaa

#865320
0aaa

#869100
1aaa

#869160
0aaa

#871260
1abn

#871320
0abn

#872220
1abl

#872280
0abl

#875100
1aaa

#875160
0aaa

#878940
1aaa

#879000
0aaa

#881100
1abn

#881160
0abn

#882060
1abl

#882120
0abl

#884940
1aaa

#885000
0aaa

#888780
1aaa

#888840
0aaa

#890940
1abn

#891000
0abn

#891900
1abl

#891960
0abl

#894780
1aaa

#894840
0aaa

#898620
1aaa

#898680
0aaa

#900780
1abn

#900840
0abn

#901740
1abl

#901800
0abl

#904620
1aaa

#904680
0aaa

#908460
1aaa

#908520
0aaa

#910620
1abn

#910680
0abn

#911580
1abl

#911640
0abl

#914460
1aaa

#914520
0aaa

#918300
1aaa

#918360
0aaa

#920460
1abn

#920520
0abn

#921420
1abl

#921480
0abl

#924300
1aaa

#924360
0aaa

#928140
1aaa

#928200
0aaa

#930300
1abn

#930360
0abn

#931260
1abl

#931320
0abl

#934140
1aaa

#934200
0aaa

#937980
1aaa

#938040
0aaa

#940140
1abn

#940200
0abn

#941100
1abl

#941160
0abl

#943980
1aaa

#944040
0aaa

#947820
1aaa

#947880
0aaa

#949980
1abn

#950040
0abn

#950940
1abl

#951000
0abl

#953820
1aaa

#953880
0aaa

#957660
1aaa

#957720
0aaa

#959820
1abn

#959880
0abn

#960780
1abl

#960840
0abl

#963660
1aaa

#963720
0aaa

#967500
1aaa

#967560
0aaa

#969660
1abn

#969720
0abn

#970620
1abl

#970680
0abl

#973500
1aaa

#973560
0aaa

#977340
1aaa

#977400
0aaa

#979500
1abn

#979560
0abn

#980460
1abl

#980520
0abl

#983340
1aaa

#983400
0aaa

#987180
1aaa

#987240
0aaa

#989340
1abn

#989400
0abn

#990300
1abl

#990360
0abl

#993180
1aaa

#993240
0aaa

#997020
1aaa

#997080
0aaa

#999180
1abn

#999240
0abn

#1000140
1abl

#1000200
0abl

#1003020
1aaa

#1003080
0aaa

#1006860
1aaa

#1006920
0aaa

#1009020
1abn

#1009080
0abn

#1009980
1abl

#1010040
0abl

#1012860
1aaa

#1012920
0aaa

#1016700
1aaa

#1016760
0aaa

#1018860
1abn

#1018920
0abn

#1019820
1abl

#1019880
0abl

#1022700
1aaa

#1022760
0aaa

#1026540
1aaa

#1026600
0aaa

#1028700
1abn

#1028760
0abn

#1029660
1abl

#1029720
0abl

#1032540
1aaa

#1032600
0aaa

#1036380
1aaa

#1036440
0aaa

#1038540
1abn

#1038600
0abn

#1039500
1abl

#1039560
0abl

#1042380
1aaa

#1042440
0aaa

#1046220
1aaa

#1046280
0aaa

#1048380
1abn

#1048440
0abn

#1049340
1abl

#1049400
0abl

#1052220
1aaa

#1052280
0aaa

#1056060
1aaa

#1056120
0aaa

#1058220
1abn

#1058280
0abn

#1059180
1abl

#1059240
0abl

#1062060
1aaa

#1062120
0aaa

#1065900
1aaa

#1065960
0aaa

#1068060
1abn

#1068120
0abn

#1069020
1abl

#1069080
0abl

#1071900
1aaa

#1071960
0aaa

#1075740
1aaa

#1075800
0aaa

#1077900
1abn

#1077960
0abn

#1078860
1abl

#1078920
0abl

#1081740
1aaa

#1081800
0aaa

#1085580
1aaa

#1085640
0aaa

#1087740
1abn

#1087800
0abn

#1088700
1abl

#1088760
0abl

#1091580
1aaa

#1091640
0aaa

#1095420
1aaa

#1095480
0aaa

#1097580
1abn

#1097640
0abn

#1098540
1abl

#1098600
0abl

#1101420
1aaa

#1101480
0aaa

#1105260
1aaa

#1105320
0aaa

#1107420
1abn

#1107480
0abn

#1108380
1abl

#1108440
0abl

#1111260
1aaa

#1111320
0aaa

#1115100
1aaa

#1115160
0aaa

#1117260
1abn

#1117320
0abn

#1118220
1abl

#1118280
0abl

#1121100
1aaa

#1121160
0aaa

#1124940
1aaa

#1125000
0aaa

#1127100
1abn

#1127160
0abn

#1128060
1abl

#1128120
0abl

#1130940
1aaa

#1131000
0aaa

#1134780
1aaa

#1134840
0aaa

#1136940
1abn

#1137000
0abn

#1137900
1abl

#1137960
0abl

#1140780
1aaa

#1140840
0aaa

#1144620
1aaa

#1144680
0aaa

#1146780
1abn

#1146840
0abn

#1147740
1abl

#1147800
0abl

#1150620
1aaa

#1150680
0aaa

#1154460
1aaa

#1154520
0aaa

#1156620
1abn

#1156680
0abn

#1157580
1abl

#1157640
0abl

#1160460
1aaa

#1160520
0aaa

#1164300
1aaa

#1164360
0aaa

#1166460
1abn

#1166520
0abn

#1167420
1abl

#1167480
0abl

#1170300
1aaa

#1170360
0aaa

#1174140
1aaa

#1174200
0aaa

#1176300
1abn

#1176360
0abn

#1177260
1abl

#1177320
0abl

#1180140
1aaa

#1180200
0aaa

#1183980
1aaa

#1184040
0aaa

#1186140
1abn

#1186200
0abn

#1187100
1abl

#1187160
0abl

#1189980
1aaa

#1190040
0aaa

#1193820
1aaa

#1193880
0aaa

#1195980
1abn

#1196040
0abn

#1196940
1abl

#1197000
0abl

#1199820
1aaa

#1199880
0aaa

#1203660
1aaa

#1203720
0aaa

#1205820
1abn

#1205880
0abn

#1206780
1abl

#1206840
0abl

#1209660
1aaa

#1209720
0aaa

#1213500
1aaa

#1213560
0aaa

#1215660
1abn

#1215720
0abn

#1216620
1abl

#1216680
0abl

#1219500
1aaa

#1219560
0aaa

#1223340
1aaa

#1223400
0aaa

#1225500
1abn

#1225560
0abn

#1226460
1abl

#1226520
0abl

#1229340
1aaa

#1229400
0aaa

#1233180
1aaa

#1233240
0aaa

#1235340
1abn

#1235400
0abn

#1236300
1abl

#1236360
0abl

#1239180
1aaa

#1239240
0aaa

#1243020
1aaa

#1243080
0aaa

#1245180
1abn

#1245240
0abn

#1246140
1abl

#1246200
0abl

#1249020
1aaa

#1249080
0aaa

#1252860
1aaa

#1252920
0aaa

#1255020
1abn

#1255080
0abn

#1255980
1abl

#1256040
0abl

#1258860
1aaa

#1258920
0aaa

#1262700
1aaa

#1262760
0aaa

#1264860
1abn

#1264920
0abn

#1265820
1abl

#1265880
0abl

#1268700
1aaa

#1268760
0aaa

#1272540
1aaa

#1272600
0aaa

#1274700
1abn

#1274760
0abn

#1275660
1abl

#1275720
0abl

#1278540
1aaa

#1278600
0aaa

#1282380
1aaa

#1282440
0aaa

#1284540
1abn

#1284600
0abn

#1285500
1abl

#1285560
0abl

#1288380
1aaa

#1288440
0aaa

#1292220
1aaa

#1292280
0aaa

#1294380
1abn

#1294440
0abn

#1295340
1abl

#1295400
0abl

#1298220
1aaa

#1298280
0aaa

#1302060
1aaa

#1302120
0aaa

#1304220
1abn

#1304280
0abn

#1305180
1abl

#1305240
0abl

#1308060
1aaa

#1308120
0aaa

#1311900
1aaa

#1311960
0aaa

#1314060
1abn

#1314120
0abn

#1315020
1abl

#1315080
0abl

#1317900
1aaa

#1317960
0aaa

#1321740
1aaa

#1321800
0aaa

#1323900
1abn

#1323960
0abn

#1324860
1abl

#1324920
0abl

#1327740
1aaa

#1327800
0aaa

#1331580
1aaa

#1331640
0aaa

#1333740
1abn

#1333800
0abn

#1334700
1abl

#1334760
0abl

#1337580
1aaa

#1337640
0aaa

#1341420
1aaa

#1341480
0aaa

#1343580
1abn

#1343640
0abn

#1344540
1abl

#1344600
0abl

#1347420
1aaa

#1347480
0aaa

#1351260
1aaa

#1351320
0aaa

#1353420
1abn

#1353480
0abn

#1354380
1abl

#1354440
0abl

#1357260
1aaa

#1357320
0aaa

#1361100
1aaa

#1361160
0aaa

#1363260
1abn

#1363320
0abn

#1364220
1abl

#1364280
0abl

#1367100
1aaa

#1367160
0aaa

#1370940
1aaa

#1371000
0aaa

#1373100
1abn

#1373160
0abn

#1374060
1abl

#1374120
0abl

#1376940
1aaa

#1377000
0aaa

#1380780
1aaa

#1380840
0aaa

#1382940
1abn

#1383000
0abn

#1383900
1abl

#1383960
0abl

#1386780
1aaa

#1386840
0aaa

#1390620
1aaa

#1390680
0aaa

#1392780
1abn

#1392840
0abn

#1393740
1abl

#1393800
0abl

#1396620
1aaa

#1396680
0aaa

#1400460
1aaa

#1400520
0aaa

#1402620
1abn

#1402680
0abn

#1403580
1abl

#1403640
0abl

#1406460
1aaa

#1406520
0aaa

#1410300
1aaa

#1410360
0aaa

#1412460
1abn

#1412520
0abn

#1413420
1abl

#1413480
0abl

#1416300
1aaa

#1416360
0aaa

#1420140
1aaa

#1420200
0aaa

#1422300
1abn

#1422360
0abn

#1423260
1abl

#1423320
0abl

#1426140
1aaa

#1426200
0aaa

#1429980
1aaa

#1430040
0aaa

#1432140
1abn

#1432200
0abn

#1433100
1abl

#1433160
0abl

#1435980
1aaa

#1436040
0aaa

#1439820
1aaa

#1439880
0aaa

#1441980
1abn

#1442040
0abn

#1442940
1abl

#1443000
0abl

#1445820
1aaa

#1445880
0aaa

#1449660
1aaa

#1449720
0aaa

#1451820
1abn

#1451880
0abn

#1452780
1abl

#1452840
0abl

#1455660
1aaa

#1455720
0aaa

#1459500
1aaa

#1459560
0aaa

#1461660
1abn

#1461720
0abn

#1462620
1abl

#1462680
0abl

#1465500
1aaa

#1465560
0aaa

#1469340
1aaa

#1469400
0aaa

#1471500
1abn

#1471560
0abn

#1472460
1abl

#1472520
0abl

#1475340
1aaa

#1475400
0aaa

#1479180
1aaa

#1479240
0aaa

#1481340
1abn

#1481400
0abn

#1482300
1abl

#1482360
0abl

#1485180
1aaa

#1485240
0aaa

#1489020
1aaa

#1489080
0aaa

#1491180
1abn

#1491240
0abn

#1492140
1abl

#1492200
0abl

#1495020
1aaa

#1495080
0aaa

#1498860
1aaa

#1498920
0aaa

#1501020
1abn

#1501080
0abn

#1501980
1abl

#1502040
0abl

#1504860
1aaa

#1504920
0aaa

#1508700
1aaa

#1508760
0aaa

#1510860
1abn

#1510920
0abn

#1511820
1abl

#1511880
0abl

#1514700
1aaa

#1514760
0aaa

#1518540
1aaa

#1518600
0aaa

#1520700
1abn

#1520760
0abn

#1521660
1abl

#1521720
0abl

#1524540
1aaa

#1524600
0aaa

#1528380
1aaa

#1528440
0aaa

#1530540
1abn

#1530600
0abn

#1531500
1abl

#1531560
0abl

#1534380
1aaa

#1534440
0aaa

#1538220
1aaa

#1538280
0aaa

#1540380
1abn

#1540440
0abn

#1541340
1abl

#1541400
0abl

#1544220
1aaa

#1544280
0aaa

#1548060
1aaa

#1548120
0aaa

#1550220
1abn

#1550280
0abn

#1551180
1abl

#1551240
0abl

#1554060
1aaa

#1554120
0aaa

#1557900
1aaa

#1557960
0aaa

#1560060
1abn

#1560120
0abn

#1561020
1abl

#1561080
0abl

#1563900
1aaa

#1563960
0aaa

#1567740
1aaa

#1567800
0aaa

#1569900
1abn

#1569960
0abn

#1570860
1abl

#1570920
0abl

#1573740
1aaa

#1573800
0aaa

#1577580
1aaa

#1577640
0aaa

#1579740
1abn

#1579800
0abn

#1580700
1abl

#1580760
0abl

#1583580
1aaa

#1583640
0aaa

#1587420
1aaa

#1587480
0aaa

#1589580
1abn

#1589640
0abn

#1590540
1abl

#1590600
0abl

#1593420
1aaa

#1593480
0aaa

#1597260
1aaa

#1597320
0aaa

#1599420
1abn

#1599480
0abn

#1600380
1abl

#1600440
0abl

#1603260
1aaa

#1603320
0aaa

#1607100
1aaa

#1607160
0aaa

#1609260
1abn

#1609320
0abn

#1610220
1abl

#1610280
0abl

#1613100
1aaa

#1613160
0aaa

#1616940
1aaa

#1617000
0aaa

#1619100
1abn

#1619160
0abn

#1620060
1abl

#1620120
0abl

#1622940
1aaa

#1623000
0aaa

#1626780
1aaa

#1626840
0aaa

#1628940
1abn

#1629000
0abn

#1629900
1abl

#1629960
0abl

#1632780
1aaa

#1632840
0aaa

#1636620
1aaa

#1636680
0aaa

#1638780
1abn

#1638840
0abn

#1639740
1abl

#1639800
0abl

#1642620
1aaa

#1642680
0aaa

#1646460
1aaa

#1646520
0aaa

#1648620
1abn

#1648680
0abn

#1649580
1abl

#1649640
0abl

#1652460
1aaa

#1652520
0aaa

#1656300
1aaa

#1656360
0aaa

#1658460
1abn

#1658520
0abn

#1659420
1abl

#1659480
0abl

#1662300
1aaa

#1662360
0aaa

#1666140
1aaa

#1666200
0aaa

#1668300
1abn

#1668360
0abn

#1669260
1abl

#1669320
0abl

#1672140
1aaa

#1672200
0aaa

#1675980
1aaa

#1676040
0aaa

#1678140
1abn

#1678200
0abn

#1679100
1abl

#1679160
0abl

#1681980
1aaa

#1682040
0aaa

#1685820
1aaa

#1685880
0aaa

#1687980
1abn

#1688040
0abn

#1688940
1abl

#1689000
0abl

#1691820
1aaa

#1691880
0aaa

#1695660
1aaa

#1695720
0aaa

#1697820
1abn

#1697880
0abn

#1698780
1abl

#1698840
0abl

#1701660
1aaa

#1701720
0aaa

#1705500
1aaa

#1705560
0aaa

#1707660
1abn

#1707720
0abn

#1708620
1abl

#1708680
0abl

#1711500
1aaa

#1711560
0aaa

#1715340
1aaa

#1715400
0aaa

#1717500
1abn

#1717560
0abn

#1718460
1abl

#1718520
0abl

#1721340
1aaa

#1721400
0aaa

#1725180
1aaa

#1725240
0aaa

#1727340
1abn

#1727400
0abn

#1728300
1abl

#1728360
0abl

#1731180
1aaa

#1731240
0aaa

#1735020
1aaa

#1735080
0aaa

#1737180
1abn

#1737240
0abn

#1738140
1abl

#1738200
0abl

#1741020
1aaa

#1741080
0aaa

#1744860
1aaa

#1744920
0aaa

#1747020
1abn

#1747080
0abn

#1747980
1abl

#1748040
0abl

#1750860
1aaa

#1750920
0aaa

#1754700
1aaa

#1754760
0aaa

#1756860
1abn

#1756920
0abn

#1757820
1abl

#1757880
0abl

#1760700
1aaa

#1760760
0aaa

#1764540
1aaa

#1764600
0aaa

#1766700
1abn

#1766760
0abn

#1767660
1abl

#1767720
0abl

