mangrove_master/regression/jpeg_qnr/jpeg_qnr_numeric.vcd
$date
     May 19, 2016       19:32:26
$end

$version
              SystemC 2.3.0-ASI --- Jan 21 2013 09:04:20
$end

$timescale
     100 ps
$end

$scope module SystemC $end
$var wire   32  aaa  jpeg_enc.qnr.iz [31:0]  $end
$var wire   16  aab  jpeg_enc.qnr.id [15:0]  $end
$var wire   16  aac  jpeg_enc.qnr.iq [15:0]  $end
$var wire   16  aad  jpeg_enc.qnr.rq [15:0]  $end
$var wire   16  aae  jpeg_enc.qnr.dep [15:0]  $end
$var wire   13  aaaaf  jpeg_enc.qnr.rq_sign [12:0]  $end
$var wire   13  aaaag  jpeg_enc.qnr.iq_sign [12:0]  $end
$var wire   11  aaaah  jpeg_enc.qnr.dout_sign [10:0]  $end
$var wire   16  aai  jpeg_enc.qnr.s_open [15:0]  $end
$var wire   32  aaj  jpeg_enc.qnr.divider.iz [31:0]  $end
$var wire   16  aak  jpeg_enc.qnr.divider.id [15:0]  $end
$var wire   16  aal  jpeg_enc.qnr.divider.spipe [15:0]  $end
$var wire   16  aam  jpeg_enc.qnr.divider.iq [15:0]  $end
$var wire   16  aan  jpeg_enc.qnr.divider.is [15:0]  $end
$var wire   14  aaaao  jpeg_enc.qnr.divider.spipe_cp [13:0]  $end
$var wire   13  aaaap  jpeg_enc.qnr.divider.q_cp [12:0]  $end
$var wire   12  aaaaq  jpeg_enc.qnr.divider.s_cp [11:0]  $end
$var wire   12  aaaar  jpeg_enc.qnr.divider.id_cp [11:0]  $end
$var wire   32  aas  jpeg_enc.qnr.divider.divider.d [31:0]  $end
$var wire   12  aaaat  jpeg_enc.qnr.divider.divider.q_sign [11:0]  $end
$var wire   12  aaaau  jpeg_enc.qnr.divider.divider.s_sign [11:0]  $end
$var wire   32  aav  jpeg_enc.qnr.divider.divider.n0 [31:0]  $end
$var wire   32  aaw  jpeg_enc.qnr.divider.divider.n1 [31:0]  $end
$var wire   32  aax  jpeg_enc.qnr.divider.divider.n2 [31:0]  $end
$var wire   32  aay  jpeg_enc.qnr.divider.divider.n3 [31:0]  $end
$var wire   16  aaz  jpeg_enc.qnr.divider.divider.ovf_pipe [15:0]  $end
$var wire   25  aaaba  jpeg_enc.qnr.divider.divider.s_pipe_0 [24:0]  $end
$var wire   25  aaabb  jpeg_enc.qnr.divider.divider.s_pipe_1 [24:0]  $end
$var wire   25  aaabc  jpeg_enc.qnr.divider.divider.s_pipe_2 [24:0]  $end
$var wire   25  aaabd  jpeg_enc.qnr.divider.divider.s_pipe_3 [24:0]  $end
$var wire   25  aaabe  jpeg_enc.qnr.divider.divider.s_pipe_4 [24:0]  $end
$var wire   25  aaabf  jpeg_enc.qnr.divider.divider.s_pipe_5 [24:0]  $end
$var wire   25  aaabg  jpeg_enc.qnr.divider.divider.s_pipe_6 [24:0]  $end
$var wire   25  aaabh  jpeg_enc.qnr.divider.divider.s_pipe_7 [24:0]  $end
$var wire   25  aaabi  jpeg_enc.qnr.divider.divider.s_pipe_8 [24:0]  $end
$var wire   25  aaabj  jpeg_enc.qnr.divider.divider.s_pipe_9 [24:0]  $end
$var wire   25  aaabk  jpeg_enc.qnr.divider.divider.s_pipe_10 [24:0]  $end
$var wire   25  aaabl  jpeg_enc.qnr.divider.divider.s_pipe_11 [24:0]  $end
$var wire   25  aaabm  jpeg_enc.qnr.divider.divider.s_pipe_12 [24:0]  $end
$var wire   25  aaabn  jpeg_enc.qnr.divider.divider.d_pipe_0 [24:0]  $end
$var wire   25  aaabo  jpeg_enc.qnr.divider.divider.d_pipe_1 [24:0]  $end
$var wire   25  aaabp  jpeg_enc.qnr.divider.divider.d_pipe_2 [24:0]  $end
$var wire   25  aaabq  jpeg_enc.qnr.divider.divider.d_pipe_3 [24:0]  $end
$var wire   25  aaabr  jpeg_enc.qnr.divider.divider.d_pipe_4 [24:0]  $end
$var wire   25  aaabs  jpeg_enc.qnr.divider.divider.d_pipe_5 [24:0]  $end
$var wire   25  aaabt  jpeg_enc.qnr.divider.divider.d_pipe_6 [24:0]  $end
$var wire   25  aaabu  jpeg_enc.qnr.divider.divider.d_pipe_7 [24:0]  $end
$var wire   25  aaabv  jpeg_enc.qnr.divider.divider.d_pipe_8 [24:0]  $end
$var wire   25  aaabw  jpeg_enc.qnr.divider.divider.d_pipe_9 [24:0]  $end
$var wire   25  aaabx  jpeg_enc.qnr.divider.divider.d_pipe_10 [24:0]  $end
$var wire   25  aaaby  jpeg_enc.qnr.divider.divider.d_pipe_11 [24:0]  $end
$var wire   25  aaabz  jpeg_enc.qnr.divider.divider.d_pipe_12 [24:0]  $end
$var wire   12  aaaca  jpeg_enc.qnr.divider.divider.q_pipe_0 [11:0]  $end
$var wire   12  aaacb  jpeg_enc.qnr.divider.divider.q_pipe_1 [11:0]  $end
$var wire   12  aaacc  jpeg_enc.qnr.divider.divider.q_pipe_2 [11:0]  $end
$var wire   12  aaacd  jpeg_enc.qnr.divider.divider.q_pipe_3 [11:0]  $end
$var wire   12  aaace  jpeg_enc.qnr.divider.divider.q_pipe_4 [11:0]  $end
$var wire   12  aaacf  jpeg_enc.qnr.divider.divider.q_pipe_5 [11:0]  $end
$var wire   12  aaacg  jpeg_enc.qnr.divider.divider.q_pipe_6 [11:0]  $end
$var wire   12  aaach  jpeg_enc.qnr.divider.divider.q_pipe_7 [11:0]  $end
$var wire   12  aaaci  jpeg_enc.qnr.divider.divider.q_pipe_8 [11:0]  $end
$var wire   12  aaacj  jpeg_enc.qnr.divider.divider.q_pipe_9 [11:0]  $end
$var wire   12  aaack  jpeg_enc.qnr.divider.divider.q_pipe_10 [11:0]  $end
$var wire   12  aaacl  jpeg_enc.qnr.divider.divider.q_pipe_11 [11:0]  $end
$var wire   13  aaacm  jpeg_enc.qnr.divider.divider.div0_pipe [12:0]  $end
$var wire   16  acn  jpeg_enc.qnr.divider.divider.s [15:0]  $end
$var wire   16  aco  jpeg_enc.qnr.divider.divider.q [15:0]  $end
$var wire   32  acp  jpeg_enc.qnr.divider.divider.z [31:0]  $end
$var wire   16  acq  jpeg_enc.qnr.divider.s [15:0]  $end
$var wire   16  acr  jpeg_enc.qnr.divider.q [15:0]  $end
$var wire   16  acs  jpeg_enc.qnr.divider.d [15:0]  $end
$var wire   32  act  jpeg_enc.qnr.divider.z [31:0]  $end
$var wire   16  acu  jpeg_enc.qnr.dout [15:0]  $end
$var wire    8  acv  jpeg_enc.qnr.qnt_cnt [7:0]  $end
$var wire    8  acw  jpeg_enc.qnr.qnt_val [7:0]  $end
$var wire   16  acx  jpeg_enc.qnr.din [15:0]  $end
$upscope $end
$enddefinitions  $end

$comment
All initial values are dumped below at time 0 sec = 0 timescale units.
$end

$dumpvars
b10000000000000000000000000000000 aaa
b1000000000000000 aab
b1000000000000000 aac
b1000000000000000 aad
b0 aae
bXXXXXXXXXXXXX aaaaf
b0 aaaag
bXXXXXXXXXXX aaaah
b1000000000000000 aai
b10000000000000000000000000000000 aaj
b1000000000000000 aak
b0 aal
b1000000000000000 aam
b1000000000000000 aan
b0 aaaao
b0 aaaap
b0 aaaaq
bXXXXXXXXXXXX aaaar
b1000000000000000 aas
bXXXXXXXXXXXX aaaat
bXXXXXXXXXXXX aaaau
b1101 aav
b0 aaw
b1100 aax
b1101 aay
b0 aaz
b0 aaaba
b0 aaabb
b0 aaabc
b0 aaabd
b0 aaabe
b0 aaabf
b0 aaabg
b0 aaabh
b0 aaabi
b0 aaabj
b0 aaabk
b0 aaabl
b0 aaabm
b0 aaabn
b0 aaabo
b0 aaabp
b0 aaabq
b0 aaabr
b0 aaabs
b0 aaabt
b0 aaabu
b0 aaabv
b0 aaabw
b0 aaabx
b0 aaaby
b0 aaabz
b0 aaaca
b0 aaacb
b0 aaacc
b0 aaacd
b0 aaace
b0 aaacf
b0 aaacg
b0 aaach
b0 aaaci
b0 aaacj
b0 aaack
b0 aaacl
b0 aaacm
b1000000000000000 acn
b1000000000000000 aco
b10000000000000000000000000000000 acp
b1000000000000000 acq
b1000000000000000 acr
b1000000000000000 acs
b10000000000000000000000000000000 act
b1000000000000000 acu
b0 acv
b0 acw
b1000000000000000 acx
$end

#60
b10110110 aab
b10110110 acs
b10110110 acw

#120
b10110110 aak
b10110110 aaaar
b10110110 aas
b10110110000000000000 aaabn

#180
b10110110000000000000 aaabo
b1 acv

#240
b10110110000000000000 aaabp
b10 acv

#300
b10110110000000000000 aaabq
b11 acv

#360
b10110110000000000000 aaabr
b100 acv

#420
b10110110000000000000 aaabs
b101 acv

#480
b10110110000000000000 aaabt
b110 acv

#540
b10110110000000000000 aaabu
b111 acv

#600
b10110110000000000000 aaabv
b1000 acv

#660
b10110110000000000000 aaabw
b1001 acv

#720
b10110110000000000000 aaabx
b1010 acv

#780
b10110110000000000000 aaaby
b1011 acv

#840
b10110110000000000000 aaabz
b1100 acv

#900
b1101 acv

#960
b1110 acv

#1020
b1111 acv

#1080
b10000 acv

#1140
b10001 acv

#1200
b10010 acv

#1260
b10011 acv

#1320
b10100 acv

#1380
b10101 acv

#1440
b10110 acv

#1500
b10111 acv

#1560
b11000 acv

#1620
b11001 acv

#1680
b11010 acv

#1740
b11011 acv

#1800
b11100 acv

#1860
b11101 acv

#1920
b11110 acv

#1980
b11111 acv

#2040
b100000 acv

#2100
b100001 acv

#2160
b100010 acv

#2220
b100011 acv

#2280
b100100 acv

#2340
b100101 acv

#2400
b100110 acv

#2460
b100111 acv

#2520
b101000 acv

#2580
b101001 acv

#2640
b101010 acv

#2700
b101011 acv

#2760
b101100 acv

#2820
b101101 acv

#2880
b101110 acv

#2940
b101111 acv

#3000
b110000 acv

#3060
b110001 acv

#3120
b110010 acv

#3180
b110011 acv

#3240
b110100 acv

#3300
b110101 acv

#3360
b110110 acv

#3420
b110111 acv

#3480
b111000 acv

#3540
b111001 acv

#3600
b111010 acv

#3660
b111011 acv

#3720
b111100 acv

#3780
b111101 acv

#3840
b111110 acv

#3900
b111111 acv

#3960
b0 acv

#4020
b1 acv

#4080
b10 acv

#4140
b11 acv

#4200
b100 acv

#4260
b101 acv

#4320
b110 acv

#4380
b111 acv

#4440
b1000 acv

#4500
b1001 acv

#4560
b1010 acv

#4620
b1011 acv

#4680
b1100 acv

#4740
b1101 acv

#4800
b1110 acv

#4860
b1111 acv

#4920
b10000 acv

#4980
b10001 acv

#5040
b10010 acv

#5100
b10011 acv

#5160
b10100 acv

#5220
b10101 acv

#5280
b10110 acv

#5340
b10111 acv

#5400
b1 aae
b0 acv

#5460
b11111011 aaa
b10 aae
b11111011 act
b1 acv
b11111011 acx

#5520
b111111111111111111110011 aaa
b100 aae
b11111011 aaj
b11111011 aaaba
b11111011 acp
b111111111111111111110011 act
b10 acv
b111111110011 acx

#5580
b10000000 aaa
b1000 aae
b1101 aaj
b1 aal
b1 aaaao
b1101 aaw
b1101 aaaba
b1111101001010000111110110 aaabb
b1101 acp
b10000000 act
b11 acv
b10000000 acx

#5640
b111111111111111101011100 aaa
b10000 aae
b10000000 aaj
b10 aal
b10 aaaao
b10000000 aaaba
b1111101001010000000011010 aaabb
b1111101001010001111101100 aaabc
b10000000 acp
b111111111111111101011100 act
b100 acv
b111101011100 acx

#5700
b111111111111111111010011 aaa
b100000 aae
b10100100 aaj
b101 aal
b101 aaaao
b10100100 aaaba
b1111101001010000100000000 aaabb
b1111101001010000000110100 aaabc
b1111101001010011111011000 aaabd
b10100100 acp
b111111111111111111010011 act
b101 acv
b111111010011 acx

#5760
b111111111111111111111000 aaa
b1000000 aae
b101101 aaj
b1011 aal
b1011 aaaao
b101101 aaaba
b1111101001010000101001000 aaabb
b1111101001010001000000000 aaabc
b1111101001010000001101000 aaabd
b1111101001010111110110000 aaabe
b101101 acp
b111111111111111111111000 act
b110 acv
b111111111000 acx

#5820
b111111111111111110110001 aaa
b10000000 aae
b1000 aaj
b10111 aal
b10111 aaaao
b1000 aaaba
b1111101001010000001011010 aaabb
b1111101001010001010010000 aaabc
b1111101001010010000000000 aaabd
b1111101001010000011010000 aaabe
b1111101001011111101100000 aaabf
b1000 acp
b111111111111111110110001 act
b111 acv
b111110110001 acx

#5880
b101010000 aaa
b100000000 aae
b1001111 aaj
b101111 aal
b101111 aaaao
b1001111 aaaba
b1111101001010000000010000 aaabb
b1111101001010000010110100 aaabc
b1111101001010010100100000 aaabd
b1111101001010100000000000 aaabe
b1111101001010000110100000 aaabf
b1111101001101111011000000 aaabg
b1001111 acp
b101010000 act
b1000 acv
b101010000 acx

#5940
b111111111111111101111100 aaa
b1000000000 aae
b101010000 aaj
b1011110 aal
b1011110 aaaao
b101010000 aaaba
b1111101001010000010011110 aaabb
b1111101001010000000100000 aaabc
b1111101001010000101101000 aaabd
b1111101001010101001000000 aaabe
b1111101001011000000000000 aaabf
b1111101001010001101000000 aaabg
b1111101010001110110000000 aaabh
b101010000 acp
b111111111111111101111100 act
b1001 acv
b111101111100 acx

#6000
b1001011 aaa
b10000000000 aae
b10000100 aaj
b10111101 aal
b10111101 aaaao
b10000100 aaaba
b1111101001010001010100000 aaabb
b1111101001010000100111100 aaabc
b1111101001010000001000000 aaabd
b1111101001010001011010000 aaabe
b1111101001011010010000000 aaabf
b1111101001100000000000000 aaabg
b1111101001010011010000000 aaabh
b1111101011001101100000000 aaabi
b10000100 acp
b1001011 act
b1010 acv
b1001011 acx

#6060
b111111111111111111101101 aaa
b100000000000 aae
b1001011 aaj
b101111010 aal
b101111010 aaaao
b1001011 aaaba
b1111101001010000100001000 aaabb
b1111101001010010101000000 aaabc
b1111101001010001001111000 aaabd
b1111101001010000010000000 aaabe
b1111101001010010110100000 aaabf
b1111101001100100100000000 aaabg
b1111101001110000000000000 aaabh
b1111101001010110100000000 aaabi
b1111101101001011000000000 aaabj
b1001011 acp
b111111111111111111101101 act
b1011 acv
b111111101101 acx

#6120
b1101001 aaa
b1000000000000 aae
b10011 aaj
b1011110101 aal
b1011110101 aaaao
b10011 aaaba
b1111101001010000010010110 aaabb
b1111101001010001000010000 aaabc
b1111101001010101010000000 aaabd
b1111101001010010011110000 aaabe
b1111101001010000100000000 aaabf
b1111101001010101101000000 aaabg
b1111101001111001000000000 aaabh
b1111101010010000000000000 aaabi
b1111101001011101000000000 aaabj
b1111110001000110000000000 aaabk
b10011 acp
b1101001 act
b1100 acv
b1101001 acx

#6180
b111111111111111111000001 aaa
b10000000000000 aae
b1101001 aaj
b10111101010 aal
b10111101010 aaaao
b1101001 aaaba
b1111101001010000000100110 aaabb
b1111101001010000100101100 aaabc
b1111101001010010000100000 aaabd
b1111101001011010100000000 aaabe
b1111101001010100111100000 aaabf
b1111101001010001000000000 aaabg
b1111101001011011010000000 aaabh
b1111101010100010000000000 aaabi
b1111101011010000000000000 aaabj
b1111101001101010000000000 aaabk
b1111111000111100000000000 aaabl
b1101001 acp
b111111111111111111000001 act
b1101 acv
b111111000001 acx

#6240
b11111 aaa
b100000000000000 aae
b111111 aaj
b101111010101 aal
b101111010101 aaaao
b111111 aaaba
b1111101001010000011010010 aaabb
b1111101001010000001001100 aaabc
b1111101001010001001011000 aaabd
b1111101001010100001000000 aaabe
b1111101001100101000000000 aaabf
b1111101001011001111000000 aaabg
b1111101001010010000000000 aaabh
b1111101001100110100000000 aaabi
b1111101011110100000000000 aaabj
b1111101101010000000000000 aaabk
b1111101010000100000000000 aaabl
b1000101000000000000 aaabm
b111111 acp
b11111 act
b1110 acv
b11111 acx

#6300
b10010111 aaa
b1000000000000000 aae
b11111 aaj
b1011110101010 aal
b1 aam
b0 aan
b1011110101010 aaaao
b1 aaaat
b0 aaaau
b11111 aaaba
b1111101001010000001111110 aaabb
b1111101001010000110100100 aaabc
b1111101001010000010011000 aaabd
b1111101001010010010110000 aaabe
b1111101001011000010000000 aaabf
b1111101001111010000000000 aaabg
b1111101001100011110000000 aaabh
b1111101001010100000000000 aaabi
b1111101001111101000000000 aaabj
b1111101110011000000000000 aaabk
b1111110001010000000000000 aaabl
b1111101010111000000000000 aaabm
b0 acn
b1 aco
b11111 acp
b10010111 act
b1111 acv
b10010111 acx

#6360
b110111110 aaa
b1 aac
b0 aae
b1 aaaag
b0 aai
b10010111 aaj
b10111101010100 aal
b0 aam
b10111101010100 aaaao
b1 aaaap
b0 aaaat
b10010111 aaaba
b1111101001010000000111110 aaabb
b1111101001010000011111100 aaabc
b1111101001010001101001000 aaabd
b1111101001010000100110000 aaabe
b1111101001010100101100000 aaabf
b1111101001100000100000000 aaabg
b1111101010100100000000000 aaabh
b1111101001110111100000000 aaabi
b1111101001011000000000000 aaabj
b1111101010101010000000000 aaabk
b1111110011100000000000000 aaabl
b1111111001010000000000000 aaabm
b0 aco
b10010111 acp
b0 acq
b1 acr
b110111110 act
b10000 acv
b110111110 acx

#6420
b11011011 aaa
b0 aac
b10 aad
b10 aaaaf
b0 aaaag
b1 aaaah
b110111110 aaj
b1111010101000 aal
b1111010101000 aaaao
b0 aaaap
b110111110 aaaba
b1111101001010000100101110 aaabb
b1111101001010000001111100 aaabc
b1111101001010000111111000 aaabd
b1111101001010011010010000 aaabe
b1111101001010001001100000 aaabf
b1111101001011001011000000 aaabg
b1111101001110001000000000 aaabh
b1111101011111000000000000 aaabi
b1111101010011111000000000 aaabj
b1111101001100000000000000 aaabk
b1111101100000100000000000 aaabl
b1111111101110000000000000 aaabm
b110111110 acp
b0 acr
b11011011 act
b1 acu
b10001 acv
b11011011 acx

#6480
b100100000 aaa
b0 aad
b0 aaaaf
b0 aaaah
b11011011 aaj
b11110101010000 aal
b11110101010000 aaaao
b11011011 aaaba
b1111101001010001101111100 aaabb
b1111101001010001001011100 aaabc
b1111101001010000011111000 aaabd
b1111101001010001111110000 aaabe
b1111101001010110100100000 aaabf
b1111101001010010011000000 aaabg
b1111101001100010110000000 aaabh
b1111101010010010000000000 aaabi
b1111101110100000000000000 aaabj
b1111101011101110000000000 aaabk
b1111101001110000000000000 aaabl
b1111101110111000000000000 aaabm
b11011011 acp
b100100000 act
b0 acu
b10010 acv
b100100000 acx

#6540
b111111111111111111010111 aaa
b100100000 aaj
b11101010100000 aal
b11101010100000 aaaao
b100100000 aaaba
b1111101001010000110110110 aaabb
b1111101001010011011111000 aaabc
b1111101001010010010111000 aaabd
b1111101001010000111110000 aaabe
b1111101001010011111100000 aaabf
b1111101001011101001000000 aaabg
b1111101001010100110000000 aaabh
b1111101001110101100000000 aaabi
b1111101011010100000000000 aaabj
b1111110011110000000000000 aaabk
b1111101110001100000000000 aaabl
b1111101010010000000000000 aaabm
b100100000 acp
b111111111111111111010111 act
b10011 acv
b111111010111 acx

#6600
b111111111111111111110101 aaa
b101001 aaj
b11010101000001 aal
b11010101000001 aaaao
b101001 aaaba
b1111101001010001001000000 aaabb
b1111101001010001101101100 aaabc
b1111101001010110111110000 aaabd
b1111101001010100101110000 aaabe
b1111101001010001111100000 aaabf
b1111101001010111111000000 aaabg
b1111101001101010010000000 aaabh
b1111101001011001100000000 aaabi
b1111101010011011000000000 aaabj
b1111101101011000000000000 aaabk
b1111111110010000000000000 aaabl
b1111110011001000000000000 aaabm
b101001 acp
b111111111111111111110101 act
b10100 acv
b111111110101 acx

#6660
b111111111111111011010001 aaa
b1011 aaj
b10101010000011 aal
b10101010000011 aaaao
b1011 aaaba
b1111101001010000001010010 aaabb
b1111101001010010010000000 aaabc
b1111101001010011011011000 aaabd
b1111101001011101111100000 aaabe
b1111101001011001011100000 aaabf
b1111101001010011111000000 aaabg
b1111101001011111110000000 aaabh
b1111101010000100100000000 aaabi
b1111101001100011000000000 aaabj
b1111101011100110000000000 aaabk
b1111110001100000000000000 aaabl
b10011010000000000000 aaabm
b1011 acp
b111111111111111011010001 act
b10101 acv
b111011010001 acx

#6720
b111111111111111111011110 aaa
b100101111 aaj
b1010100000111 aal
b1 aam
b1010100000111 aaaao
b1 aaaat
b100101111 aaaba
b1111101001010000000010110 aaabb
b1111101001010000010100100 aaabc
b1111101001010100100000000 aaabd
b1111101001010110110110000 aaabe
b1111101001101011111000000 aaabf
b1111101001100010111000000 aaabg
b1111101001010111110000000 aaabh
b1111101001101111100000000 aaabi
b1111101010111001000000000 aaabj
b1111101001110110000000000 aaabk
b1111101101111100000000000 aaabl
b1111111001110000000000000 aaabm
b1 aco
b100101111 acp
b111111111111111111011110 act
b10110 acv
b111111011110 acx

#6780
b10000111 aaa
b1 aac
b1 aaaag
b100010 aaj
b10101000001111 aal
b0 aam
b10101000001111 aaaao
b1 aaaap
b0 aaaat
b100010 aaaba
b1111101001010001001011110 aaabb
b1111101001010000000101100 aaabc
b1111101001010000101001000 aaabd
b1111101001011001000000000 aaabe
b1111101001011101101100000 aaabf
b1111101010000111110000000 aaabg
b1111101001110101110000000 aaabh
b1111101001011111100000000 aaabi
b1111101010001111000000000 aaabj
b1111101100100010000000000 aaabk
b1111101010011100000000000 aaabl
b1111110010101000000000000 aaabm
b0 aco
b100010 acp
b1 acr
b10000111 act
b10111 acv
b10000111 acx

#6840
b111111111111111001000100 aaa
b0 aac
b10 aad
b10 aaaaf
b0 aaaag
b1 aaaah
b10000111 aaj
b1010000011110 aal
b1010000011110 aaaao
b0 aaaap
b10000111 aaaba
b1111101001010000001000100 aaabb
b1111101001010010010111100 aaabc
b1111101001010000001011000 aaabd
b1111101001010001010010000 aaabe
b1111101001100010000000000 aaabf
b1111101001101011011000000 aaabg
b1111101010111111100000000 aaabh
b1111101010011011100000000 aaabi
b1111101001101111000000000 aaabj
b1111101011001110000000000 aaabk
b1111101111110100000000000 aaabl
b1111101011101000000000000 aaabm
b10000111 acp
b0 acr
b111111111111111001000100 act
b1 acu
b11000 acv
b111001000100 acx

#6900
b11100110 aaa
b0 aad
b0 aaaaf
b0 aaaah
b110111100 aaj
b10100000111101 aal
b10100000111101 aaaao
b110111100 aaaba
b1111101001010000100001110 aaabb
b1111101001010000010001000 aaabc
b1111101001010100101111000 aaabd
b1111101001010000010110000 aaabe
b1111101001010010100100000 aaabf
b1111101001110100000000000 aaabg
b1111101010000110110000000 aaabh
b1111101100101111000000000 aaabi
b1111101011100111000000000 aaabj
b1111101010001110000000000 aaabk
b1111101101001100000000000 aaabl
b1111110110011000000000000 aaabm
b110111100 acp
b11100110 act
b0 acu
b11001 acv
b11100110 acx

#6960
b111111111111111110010110 aaa
b11100110 aaj
b1000001111010 aal
b1000001111010 aaaao
b11100110 aaaba
b1111101001010001101111000 aaabb
b1111101001010001000011100 aaabc
b1111101001010000100010000 aaabd
b1111101001011001011110000 aaabe
b1111101001010000101100000 aaabf
b1111101001010101001000000 aaabg
b1111101010011000000000000 aaabh
b1111101010111101100000000 aaabi
b1111110000001110000000000 aaabj
b1111101101111110000000000 aaabk
b1111101011001100000000000 aaabl
b1111110001001000000000000 aaabm
b11100110 acp
b111111111111111110010110 act
b11010 acv
b111110010110 acx

#7020
b1000101 aaa
b1101010 aaj
b10000011110101 aal
b10000011110101 aaaao
b1101010 aaaba
b1111101001010000111001100 aaabb
b1111101001010011011110000 aaabc
b1111101001010010000111000 aaabd
b1111101001010001000100000 aaabe
b1111101001100010111100000 aaabf
b1111101001010001011000000 aaabg
b1111101001011010010000000 aaabh
b1111101011100000000000000 aaabi
b1111101100101011000000000 aaabj
b1111110111001100000000000 aaabk
b1111110010101100000000000 aaabl
b1111101101001000000000000 aaabm
b1101010 acp
b1000101 act
b11011 acv
b1000101 acx

#7080
b111111111111111110110101 aaa
b1000101 aaj
b111101010 aal
b111101010 aaaao
b1000101 aaaba
b1111101001010000011010100 aaabb
b1111101001010001110011000 aaabc
b1111101001010110111100000 aaabd
b1111101001010100001110000 aaabe
b1111101001010010001000000 aaabf
b1111101001110101111000000 aaabg
b1111101001010010110000000 aaabh
b1111101001100100100000000 aaabi
b1111101101110000000000000 aaabj
b1111110000000110000000000 aaabk
b101001000000000000 aaabl
b1111111100001000000000000 aaabm
b1000101 acp
b111111111111111110110101 act
b11100 acv
b111110110101 acx

#7140
b10001111 aaa
b1001011 aaj
b1111010101 aal
b1111010101 aaaao
b1001011 aaaba
b1111101001010000010001010 aaabb
b1111101001010000110101000 aaabc
b1111101001010011100110000 aaabd
b1111101001011101111000000 aaabe
b1111101001011000011100000 aaabf
b1111101001010100010000000 aaabg
b1111101010011011110000000 aaabh
b1111101001010101100000000 aaabi
b1111101001111001000000000 aaabj
b1111110010010000000000000 aaabk
b1111110110111100000000000 aaabl
b1111110011100000000000000 aaabm
b1 aaacl
b1001011 acp
b10001111 act
b11101 acv
b10001111 acx

#7200
b111111111111111110000110 aaa
b10001111 aaj
b11110101010 aal
b10 aam
b11110101010 aaaao
b10 aaaat
b10001111 aaaba
b1111101001010000010010110 aaabb
b1111101001010000100010100 aaabc
b1111101001010001101010000 aaabd
b1111101001010111001100000 aaabe
b1111101001101011110000000 aaabf
b1111101001100000111000000 aaabg
b1111101001011000100000000 aaabh
b1111101011100111100000000 aaabi
b1111101001011011000000000 aaabj
b1111101010100010000000000 aaabk
b1111111011010000000000000 aaabl
b100101000000000000 aaabm
b0 aaacl
b10 aco
b10001111 acp
b111111111111111110000110 act
b11110 acv
b111110000110 acx

#7260
b1010011 aaa
b10 aac
b10 aaaag
b1111010 aaj
b111101010101 aal
b1 aam
b111101010101 aaaao
b10 aaaap
b1 aaaat
b1111010 aaaba
b1111101001010000100011110 aaabb
b1111101001010000100101100 aaabc
b1111101001010001000101000 aaabd
b1111101001010011010100000 aaabe
b1111101001011110011000000 aaabf
b1111101010000111100000000 aaabg
b1111101001110001110000000 aaabh
b1111101001100001000000000 aaabi
b1111101101111111000000000 aaabj
b1111101001100110000000000 aaabk
b1111101011110100000000000 aaabl
b1101010000000000000 aaabm
b1 aco
b1111010 acp
b10 acr
b1010011 act
b11111 acv
b1010011 acx

#7320
b11000110 aaa
b1 aac
b10 aad
b10 aaaaf
b1 aaaag
b1 aaaah
b1010011 aaj
b1111010101010 aal
b1111010101010 aaaao
b1 aaaap
b1010011 aaaba
b1111101001010000011110100 aaabb
b1111101001010001000111100 aaabc
b1111101001010001001011000 aaabd
b1111101001010010001010000 aaabe
b1111101001010110101000000 aaabf
b1111101001101100110000000 aaabg
b1111101010111111000000000 aaabh
b1111101010010011100000000 aaabi
b1111101001110010000000000 aaabj
b1111110010101110000000000 aaabk
b1111101001111100000000000 aaabl
b1111101110011000000000000 aaabm
b1010011 acp
b1 acr
b11000110 act
b1 acu
b100000 acv
b11000110 acx

#7380
b101011 aaa
b11000110 aaj
b11110101010100 aal
b0 aam
b11110101010100 aaaao
b0 aaaat
b11000110 aaaba
b1111101001010000010100110 aaabb
b1111101001010000111101000 aaabc
b1111101001010010001111000 aaabd
b1111101001010010010110000 aaabe
b1111101001010100010100000 aaabf
b1111101001011101010000000 aaabg
b1111101010001001100000000 aaabh
b1111101100101110000000000 aaabi
b1111101011010111000000000 aaabj
b1111101010010100000000000 aaabk
b1111111100001100000000000 aaabl
b1111101010101000000000000 aaabm
b0 aco
b11000110 acp
b101011 act
b100001 acv
b101011 acx

#7440
b1000101 aaa
b0 aac
b0 aaaag
b101011 aaj
b11101010101000 aal
b11101010101000 aaaao
b0 aaaap
b101011 aaaba
b1111101001010000110001100 aaabb
b1111101001010000101001100 aaabc
b1111101001010001111010000 aaabd
b1111101001010100011110000 aaabe
b1111101001010100101100000 aaabf
b1111101001011000101000000 aaabg
b1111101001101010100000000 aaabh
b1111101011000011000000000 aaabi
b1111110000001100000000000 aaabj
b1111101101011110000000000 aaabk
b1111101011011000000000000 aaabl
b1111001000000000000 aaabm
b101011 acp
b0 acr
b1000101 act
b100010 acv
b1000101 acx

#7500
b111111111111111101100010 aaa
b0 aad
b0 aaaaf
b0 aaaah
b1000101 aaj
b11010101010000 aal
b1 aam
b11010101010000 aaaao
b1 aaaat
b1000101 aaaba
b1111101001010000001010110 aaabb
b1111101001010001100011000 aaabc
b1111101001010001010011000 aaabd
b1111101001010011110100000 aaabe
b1111101001011000111100000 aaabf
b1111101001011001011000000 aaabg
b1111101001100001010000000 aaabh
b1111101010000101000000000 aaabi
b1111101100110110000000000 aaabj
b1111110111001000000000000 aaabk
b1111110001101100000000000 aaabl
b1111101101100000000000000 aaabm
b1 aco
b1000101 acp
b111111111111111101100010 act
b0 acu
b100011 acv
b111101100010 acx

#7560
b111111111111111110101111 aaa
b1111111111111 aac
b1111111111111 aaaag
b10011110 aaj
b10101010100001 aal
b0 aam
b10101010100001 aaaao
b1111111111111 aaaap
b0 aaaat
b10011110 aaaba
b1111101001010000010001010 aaabb
b1111101001010000010101100 aaabc
b1111101001010011000110000 aaabd
b1111101001010010100110000 aaabe
b1111101001010111101000000 aaabf
b1111101001100001111000000 aaabg
b1111101001100010110000000 aaabh
b1111101001110010100000000 aaabi
b1111101010111010000000000 aaabj
b1111110000011100000000000 aaabk
b101000000000000000 aaabl
b1111111010001000000000000 aaabm
b0 aco
b10011110 acp
b1111111111111 acr
b111111111111111110101111 act
b100100 acv
b111110101111 acx

#7620
b101 aaa
b0 aac
b1111111111110 aad
b1111111111110 aaaaf
b0 aaaag
b11111111111 aaaah
b1010001 aaj
b1010101000011 aal
b1010101000011 aaaao
b0 aaaap
b1010001 aaaba
b1111101001010000100111100 aaabb
b1111101001010000100010100 aaabc
b1111101001010000101011000 aaabd
b1111101001010110001100000 aaabe
b1111101001010101001100000 aaabf
b1111101001011111010000000 aaabg
b1111101001110011110000000 aaabh
b1111101001110101100000000 aaabi
b1111101010010101000000000 aaabj
b1111101100100100000000000 aaabk
b1111110111101000000000000 aaabl
b1111110011010000000000000 aaabm
b1 aaacl
b1010001 acp
b0 acr
b101 act
b11111111111 acu
b100101 acv
b101 acx

