mangrove_master/regression/jpeg_dct/jpeg_dct_bool.vcd
$date
     May 19, 2016       19:32:26
$end

$version
              SystemC 2.3.0-ASI --- Jan 21 2013 09:04:20
$end

$timescale
     100 ps
$end

$scope module SystemC $end
$var wire    1  aaa  jpeg_enc.fdct_zigzag.dct_mod.go_r       $end
$var wire    1  aab  jpeg_enc.fdct_zigzag.dct_mod.go_w       $end
$var wire    1  aac  jpeg_enc.fdct_zigzag.dct_mod.dgo_r       $end
$var wire    1  aad  jpeg_enc.fdct_zigzag.dct_mod.dgo_w       $end
$var wire    1  aae  jpeg_enc.fdct_zigzag.dct_mod.ddgo       $end
$var wire    1  aaf  jpeg_enc.fdct_zigzag.dct_mod.ddcnt_r       $end
$var wire    1  aag  jpeg_enc.fdct_zigzag.dct_mod.ddcnt_w       $end
$var wire    1  aah  jpeg_enc.fdct_zigzag.dct_mod.dddcnt_r       $end
$var wire    1  aai  jpeg_enc.fdct_zigzag.dct_mod.dddcnt_w       $end
$var wire    1  aaj  jpeg_enc.fdct_zigzag.dct_mod.ddin_X       $end
$var wire    1  aak  jpeg_enc.fdct_zigzag.dct_mod.dcnt       $end
$var wire    1  aal  jpeg_enc.fdct_zigzag.dct_mod.dct_block_7.ddin_X       $end
$var wire    1  aam  jpeg_enc.fdct_zigzag.dct_mod.dct_block_7.ddgo       $end
$var wire    1  aan  jpeg_enc.fdct_zigzag.dct_mod.dct_block_7.ena       $end
$var wire    1  aao  jpeg_enc.fdct_zigzag.dct_mod.dct_block_6.ddin_X       $end
$var wire    1  aap  jpeg_enc.fdct_zigzag.dct_mod.dct_block_6.ddgo       $end
$var wire    1  aaq  jpeg_enc.fdct_zigzag.dct_mod.dct_block_6.ena       $end
$var wire    1  aar  jpeg_enc.fdct_zigzag.dct_mod.dct_block_5.ddin_X       $end
$var wire    1  aas  jpeg_enc.fdct_zigzag.dct_mod.dct_block_5.ddgo       $end
$var wire    1  aat  jpeg_enc.fdct_zigzag.dct_mod.dct_block_5.ena       $end
$var wire    1  aau  jpeg_enc.fdct_zigzag.dct_mod.dct_block_4.ddin_X       $end
$var wire    1  aav  jpeg_enc.fdct_zigzag.dct_mod.dct_block_4.ddgo       $end
$var wire    1  aaw  jpeg_enc.fdct_zigzag.dct_mod.dct_block_4.ena       $end
$var wire    1  aax  jpeg_enc.fdct_zigzag.dct_mod.dct_block_3.ddin_X       $end
$var wire    1  aay  jpeg_enc.fdct_zigzag.dct_mod.dct_block_3.ddgo       $end
$var wire    1  aaz  jpeg_enc.fdct_zigzag.dct_mod.dct_block_3.ena       $end
$var wire    1  aba  jpeg_enc.fdct_zigzag.dct_mod.dct_block_2.ddin_X       $end
$var wire    1  abb  jpeg_enc.fdct_zigzag.dct_mod.dct_block_2.ddgo       $end
$var wire    1  abc  jpeg_enc.fdct_zigzag.dct_mod.dct_block_2.ena       $end
$var wire    1  abd  jpeg_enc.fdct_zigzag.dct_mod.dct_block_1.ddin_X       $end
$var wire    1  abe  jpeg_enc.fdct_zigzag.dct_mod.dct_block_1.ddgo       $end
$var wire    1  abf  jpeg_enc.fdct_zigzag.dct_mod.dct_block_1.ena       $end
$var wire    1  abg  jpeg_enc.fdct_zigzag.dct_mod.dct_block_0.ddin_X       $end
$var wire    1  abh  jpeg_enc.fdct_zigzag.dct_mod.dct_block_0.ddgo       $end
$var wire    1  abi  jpeg_enc.fdct_zigzag.dct_mod.dct_block_0.ena       $end
$var wire    1  abj  jpeg_enc.fdct_zigzag.dct_mod.douten       $end
$var wire    1  abk  jpeg_enc.fdct_zigzag.dct_mod.din_X       $end
$var wire    1  abl  jpeg_enc.fdct_zigzag.dct_mod.dstrb       $end
$var wire    1  abm  jpeg_enc.fdct_zigzag.dct_mod.rst       $end
$var wire    1  abn  jpeg_enc.fdct_zigzag.dct_mod.ena       $end
$upscope $end
$enddefinitions  $end

$comment
All initial values are dumped below at time 0 sec = 0 timescale units.
$end

$dumpvars
0aaa
0aab
0aac
0aad
0aae
1aaf
1aag
1aah
1aai
1aaj
0aak
1aal
0aam
1aan
1aao
0aap
1aaq
1aar
0aas
1aat
1aau
0aav
1aaw
1aax
0aay
1aaz
1aba
0abb
1abc
1abd
0abe
1abf
1abg
0abh
1abi
0abj
1abk
0abl
0abm
1abn
$end

#120
1abm

#180
0aaf
0aag

#240
0aah
0aai

#1320
1abl

#1380
1aaa
1aab
0abk
0abl

#1440
0aaa
0aab
1aac
1aad
0aaj
0aal
0aao
0aar
0aau
0aax
0aba
0abd
0abg

#1500
0aac
0aad
1aae
1aam
1aap
1aas
1aav
1aay
1abb
1abe
1abh

#1560
0aae
0aam
0aap
0aas
0aav
0aay
0abb
0abe
0abh

#5160
1aak

#5220
1aaf
1aag

#5280
1aah
1aai
1abj

#5340
0abj

#11160
1abl

#11220
1aaa
1aab
0aak
0abl

#11280
0aaa
0aab
1aac
1aad
0aaf
0aag

#11340
0aac
0aad
1aae
0aah
0aai
1aam
1aap
1aas
1aav
1aay
1abb
1abe
1abh

#11400
0aae
0aam
0aap
0aas
0aav
0aay
0abb
0abe
0abh

#15000
1aak

#15060
1aaf
1aag

#15120
1aah
1aai
1abj

#15180
0abj

#21000
1abl

#21060
1aaa
1aab
0aak
0abl

#21120
0aaa
0aab
1aac
1aad
0aaf
0aag

#21180
0aac
0aad
1aae
0aah
0aai
1aam
1aap
1aas
1aav
1aay
1abb
1abe
1abh

#21240
0aae
0aam
0aap
0aas
0aav
0aay
0abb
0abe
0abh

#24840
1aak

#24900
1aaf
1aag

#24960
1aah
1aai
1abj

#25020
0abj

#30840
1abl

#30900
1aaa
1aab
0aak
0abl

#30960
0aaa
0aab
1aac
1aad
0aaf
0aag

#31020
0aac
0aad
1aae
0aah
0aai
1aam
1aap
1aas
1aav
1aay
1abb
1abe
1abh

#31080
0aae
0aam
0aap
0aas
0aav
0aay
0abb
0abe
0abh

#34680
1aak

#34740
1aaf
1aag

#34800
1aah
1aai
1abj

#34860
0abj

#40680
1abl

#40740
1aaa
1aab
0aak
0abl

#40800
0aaa
0aab
1aac
1aad
0aaf
0aag

#40860
0aac
0aad
1aae
0aah
0aai
1aam
1aap
1aas
1aav
1aay
1abb
1abe
1abh

#40920
0aae
0aam
0aap
0aas
0aav
0aay
0abb
0abe
0abh

#44520
1aak

#44580
1aaf
1aag

#44640
1aah
1aai
1abj

#44700
0abj

#50520
1abl

#50580
1aaa
1aab
0aak
0abl

#50640
0aaa
0aab
1aac
1aad
0aaf
0aag

#50700
0aac
0aad
1aae
0aah
0aai
1aam
1aap
1aas
1aav
1aay
1abb
1abe
1abh

#50760
0aae
0aam
0aap
0aas
0aav
0aay
0abb
0abe
0abh

#54360
1aak

#54420
1aaf
1aag

#54480
1aah
1aai
1abj

#54540
0abj

#60360
1abl

#60420
1aaa
1aab
0aak
0abl

#60480
0aaa
0aab
1aac
1aad
0aaf
0aag

#60540
0aac
0aad
1aae
0aah
0aai
1aam
1aap
1aas
1aav
1aay
1abb
1abe
1abh

#60600
0aae
0aam
0aap
0aas
0aav
0aay
0abb
0abe
0abh

#64200
1aak

#64260
1aaf
1aag

#64320
1aah
1aai
1abj

#64380
0abj

#70200
1abl

#70260
1aaa
1aab
0aak
0abl

#70320
0aaa
0aab
1aac
1aad
0aaf
0aag

#70380
0aac
0aad
1aae
0aah
0aai
1aam
1aap
1aas
1aav
1aay
1abb
1abe
1abh

#70440
0aae
0aam
0aap
0aas
0aav
0aay
0abb
0abe
0abh

#74040
1aak

#74100
1aaf
1aag

#74160
1aah
1aai
1abj

#74220
0abj

#80040
1abl

#80100
1aaa
1aab
0aak
0abl

#80160
0aaa
0aab
1aac
1aad
0aaf
0aag

#80220
0aac
0aad
1aae
0aah
0aai
1aam
1aap
1aas
1aav
1aay
1abb
1abe
1abh

#80280
0aae
0aam
0aap
0aas
0aav
0aay
0abb
0abe
0abh

#83880
1aak

#83940
1aaf
1aag

#84000
1aah
1aai
1abj

#84060
0abj

#89880
1abl

#89940
1aaa
1aab
0aak
0abl

#90000
0aaa
0aab
1aac
1aad
0aaf
0aag

#90060
0aac
0aad
1aae
0aah
0aai
1aam
1aap
1aas
1aav
1aay
1abb
1abe
1abh

#90120
0aae
0aam
0aap
0aas
0aav
0aay
0abb
0abe
0abh

#93720
1aak

#93780
1aaf
1aag

#93840
1aah
1aai
1abj

#93900
0abj

#99720
1abl

#99780
1aaa
1aab
0aak
0abl

#99840
0aaa
0aab
1aac
1aad
0aaf
0aag

#99900
0aac
0aad
1aae
0aah
0aai
1aam
1aap
1aas
1aav
1aay
1abb
1abe
1abh

#99960
0aae
0aam
0aap
0aas
0aav
0aay
0abb
0abe
0abh

#103560
1aak

#103620
1aaf
1aag

#103680
1aah
1aai
1abj

#103740
0abj

#109560
1abl

#109620
1aaa
1aab
0aak
0abl

#109680
0aaa
0aab
1aac
1aad
0aaf
0aag

#109740
0aac
0aad
1aae
0aah
0aai
1aam
1aap
1aas
1aav
1aay
1abb
1abe
1abh

#109800
0aae
0aam
0aap
0aas
0aav
0aay
0abb
0abe
0abh

#113400
1aak

#113460
1aaf
1aag

#113520
1aah
1aai
1abj

#113580
0abj

#119400
1abl

#119460
1aaa
1aab
0aak
0abl

#119520
0aaa
0aab
1aac
1aad
0aaf
0aag

#119580
0aac
0aad
1aae
0aah
0aai
1aam
1aap
1aas
1aav
1aay
1abb
1abe
1abh

#119640
0aae
0aam
0aap
0aas
0aav
0aay
0abb
0abe
0abh

#123240
1aak

#123300
1aaf
1aag

#123360
1aah
1aai
1abj

#123420
0abj

#129240
1abl

#129300
1aaa
1aab
0aak
0abl

#129360
0aaa
0aab
1aac
1aad
0aaf
0aag

#129420
0aac
0aad
1aae
0aah
0aai
1aam
1aap
1aas
1aav
1aay
1abb
1abe
1abh

#129480
0aae
0aam
0aap
0aas
0aav
0aay
0abb
0abe
0abh

#133080
1aak

#133140
1aaf
1aag

#133200
1aah
1aai
1abj

#133260
0abj

#139080
1abl

#139140
1aaa
1aab
0aak
0abl

#139200
0aaa
0aab
1aac
1aad
0aaf
0aag

#139260
0aac
0aad
1aae
0aah
0aai
1aam
1aap
1aas
1aav
1aay
1abb
1abe
1abh

#139320
0aae
0aam
0aap
0aas
0aav
0aay
0abb
0abe
0abh

#142920
1aak

#142980
1aaf
1aag

#143040
1aah
1aai
1abj

#143100
0abj

#148920
1abl

#148980
1aaa
1aab
0aak
0abl

#149040
0aaa
0aab
1aac
1aad
0aaf
0aag

#149100
0aac
0aad
1aae
0aah
0aai
1aam
1aap
1aas
1aav
1aay
1abb
1abe
1abh

#149160
0aae
0aam
0aap
0aas
0aav
0aay
0abb
0abe
0abh

#152760
1aak

#152820
1aaf
1aag

#152880
1aah
1aai
1abj

#152940
0abj

#158760
1abl

#158820
1aaa
1aab
0aak
0abl

#158880
0aaa
0aab
1aac
1aad
0aaf
0aag

#158940
0aac
0aad
1aae
0aah
0aai
1aam
1aap
1aas
1aav
1aay
1abb
1abe
1abh

#159000
0aae
0aam
0aap
0aas
0aav
0aay
0abb
0abe
0abh

#162600
1aak

#162660
1aaf
1aag

#162720
1aah
1aai
1abj

#162780
0abj

#168600
1abl

#168660
1aaa
1aab
0aak
0abl

#168720
0aaa
0aab
1aac
1aad
0aaf
0aag

#168780
0aac
0aad
1aae
0aah
0aai
1aam
1aap
1aas
1aav
1aay
1abb
1abe
1abh

#168840
0aae
0aam
0aap
0aas
0aav
0aay
0abb
0abe
0abh

#172440
1aak

#172500
1aaf
1aag

#172560
1aah
1aai
1abj

#172620
0abj

#178440
1abl

#178500
1aaa
1aab
0aak
0abl

#178560
0aaa
0aab
1aac
1aad
0aaf
0aag

#178620
0aac
0aad
1aae
0aah
0aai
1aam
1aap
1aas
1aav
1aay
1abb
1abe
1abh

#178680
0aae
0aam
0aap
0aas
0aav
0aay
0abb
0abe
0abh

#182280
1aak

#182340
1aaf
1aag

#182400
1aah
1aai
1abj

#182460
0abj

#188280
1abl

#188340
1aaa
1aab
0aak
0abl

#188400
0aaa
0aab
1aac
1aad
0aaf
0aag

#188460
0aac
0aad
1aae
0aah
0aai
1aam
1aap
1aas
1aav
1aay
1abb
1abe
1abh

#188520
0aae
0aam
0aap
0aas
0aav
0aay
0abb
0abe
0abh

#192120
1aak

#192180
1aaf
1aag

#192240
1aah
1aai
1abj

#192300
0abj

#198120
1abl

#198180
1aaa
1aab
0aak
0abl

#198240
0aaa
0aab
1aac
1aad
0aaf
0aag

#198300
0aac
0aad
1aae
0aah
0aai
1aam
1aap
1aas
1aav
1aay
1abb
1abe
1abh

#198360
0aae
0aam
0aap
0aas
0aav
0aay
0abb
0abe
0abh

#201960
1aak

#202020
1aaf
1aag

#202080
1aah
1aai
1abj

#202140
0abj

#207960
1abl

#208020
1aaa
1aab
0aak
0abl

#208080
0aaa
0aab
1aac
1aad
0aaf
0aag

#208140
0aac
0aad
1aae
0aah
0aai
1aam
1aap
1aas
1aav
1aay
1abb
1abe
1abh

#208200
0aae
0aam
0aap
0aas
0aav
0aay
0abb
0abe
0abh

#211800
1aak

#211860
1aaf
1aag

#211920
1aah
1aai
1abj

#211980
0abj

#217800
1abl

#217860
1aaa
1aab
0aak
0abl

#217920
0aaa
0aab
1aac
1aad
0aaf
0aag

#217980
0aac
0aad
1aae
0aah
0aai
1aam
1aap
1aas
1aav
1aay
1abb
1abe
1abh

#218040
0aae
0aam
0aap
0aas
0aav
0aay
0abb
0abe
0abh

#221640
1aak

#221700
1aaf
1aag

#221760
1aah
1aai
1abj

#221820
0abj

#227640
1abl

#227700
1aaa
1aab
0aak
0abl

#227760
0aaa
0aab
1aac
1aad
0aaf
0aag

#227820
0aac
0aad
1aae
0aah
0aai
1aam
1aap
1aas
1aav
1aay
1abb
1abe
1abh

#227880
0aae
0aam
0aap
0aas
0aav
0aay
0abb
0abe
0abh

#231480
1aak

#231540
1aaf
1aag

#231600
1aah
1aai
1abj

#231660
0abj

#237480
1abl

#237540
1aaa
1aab
0aak
0abl

#237600
0aaa
0aab
1aac
1aad
0aaf
0aag

#237660
0aac
0aad
1aae
0aah
0aai
1aam
1aap
1aas
1aav
1aay
1abb
1abe
1abh

#237720
0aae
0aam
0aap
0aas
0aav
0aay
0abb
0abe
0abh

#241320
1aak

#241380
1aaf
1aag

#241440
1aah
1aai
1abj

#241500
0abj

#247320
1abl

#247380
1aaa
1aab
0aak
0abl

#247440
0aaa
0aab
1aac
1aad
0aaf
0aag

#247500
0aac
0aad
1aae
0aah
0aai
1aam
1aap
1aas
1aav
1aay
1abb
1abe
1abh

#247560
0aae
0aam
0aap
0aas
0aav
0aay
0abb
0abe
0abh

#251160
1aak

#251220
1aaf
1aag

#251280
1aah
1aai
1abj

#251340
0abj

#257160
1abl

#257220
1aaa
1aab
0aak
0abl

#257280
0aaa
0aab
1aac
1aad
0aaf
0aag

#257340
0aac
0aad
1aae
0aah
0aai
1aam
1aap
1aas
1aav
1aay
1abb
1abe
1abh

#257400
0aae
0aam
0aap
0aas
0aav
0aay
0abb
0abe
0abh

#261000
1aak

#261060
1aaf
1aag

#261120
1aah
1aai
1abj

#261180
0abj

#267000
1abl

#267060
1aaa
1aab
0aak
0abl

#267120
0aaa
0aab
1aac
1aad
0aaf
0aag

#267180
0aac
0aad
1aae
0aah
0aai
1aam
1aap
1aas
1aav
1aay
1abb
1abe
1abh

#267240
0aae
0aam
0aap
0aas
0aav
0aay
0abb
0abe
0abh

#270840
1aak

#270900
1aaf
1aag

#270960
1aah
1aai
1abj

#271020
0abj

#276840
1abl

#276900
1aaa
1aab
0aak
0abl

#276960
0aaa
0aab
1aac
1aad
0aaf
0aag

#277020
0aac
0aad
1aae
0aah
0aai
1aam
1aap
1aas
1aav
1aay
1abb
1abe
1abh

#277080
0aae
0aam
0aap
0aas
0aav
0aay
0abb
0abe
0abh

#280680
1aak

#280740
1aaf
1aag

#280800
1aah
1aai
1abj

#280860
0abj

#286680
1abl

#286740
1aaa
1aab
0aak
0abl

#286800
0aaa
0aab
1aac
1aad
0aaf
0aag

#286860
0aac
0aad
1aae
0aah
0aai
1aam
1aap
1aas
1aav
1aay
1abb
1abe
1abh

#286920
0aae
0aam
0aap
0aas
0aav
0aay
0abb
0abe
0abh

#290520
1aak

#290580
1aaf
1aag

#290640
1aah
1aai
1abj

#290700
0abj

#296520
1abl

#296580
1aaa
1aab
0aak
0abl

#296640
0aaa
0aab
1aac
1aad
0aaf
0aag

#296700
0aac
0aad
1aae
0aah
0aai
1aam
1aap
1aas
1aav
1aay
1abb
1abe
1abh

#296760
0aae
0aam
0aap
0aas
0aav
0aay
0abb
0abe
0abh

#300360
1aak

#300420
1aaf
1aag

#300480
1aah
1aai
1abj

#300540
0abj

#306360
1abl

#306420
1aaa
1aab
0aak
0abl

#306480
0aaa
0aab
1aac
1aad
0aaf
0aag

#306540
0aac
0aad
1aae
0aah
0aai
1aam
1aap
1aas
1aav
1aay
1abb
1abe
1abh

#306600
0aae
0aam
0aap
0aas
0aav
0aay
0abb
0abe
0abh

#310200
1aak

#310260
1aaf
1aag

#310320
1aah
1aai
1abj

#310380
0abj

#316200
1abl

#316260
1aaa
1aab
0aak
0abl

#316320
0aaa
0aab
1aac
1aad
0aaf
0aag

#316380
0aac
0aad
1aae
0aah
0aai
1aam
1aap
1aas
1aav
1aay
1abb
1abe
1abh

#316440
0aae
0aam
0aap
0aas
0aav
0aay
0abb
0abe
0abh

#320040
1aak

#320100
1aaf
1aag

#320160
1aah
1aai
1abj

#320220
0abj

#326040
1abl

#326100
1aaa
1aab
0aak
0abl

#326160
0aaa
0aab
1aac
1aad
0aaf
0aag

#326220
0aac
0aad
1aae
0aah
0aai
1aam
1aap
1aas
1aav
1aay
1abb
1abe
1abh

#326280
0aae
0aam
0aap
0aas
0aav
0aay
0abb
0abe
0abh

#329880
1aak

#329940
1aaf
1aag

#330000
1aah
1aai
1abj

#330060
0abj

#335880
1abl

#335940
1aaa
1aab
0aak
0abl

#336000
0aaa
0aab
1aac
1aad
0aaf
0aag

#336060
0aac
0aad
1aae
0aah
0aai
1aam
1aap
1aas
1aav
1aay
1abb
1abe
1abh

#336120
0aae
0aam
0aap
0aas
0aav
0aay
0abb
0abe
0abh

#339720
1aak

#339780
1aaf
1aag

#339840
1aah
1aai
1abj

#339900
0abj

#345720
1abl

#345780
1aaa
1aab
0aak
0abl

#345840
0aaa
0aab
1aac
1aad
0aaf
0aag

#345900
0aac
0aad
1aae
0aah
0aai
1aam
1aap
1aas
1aav
1aay
1abb
1abe
1abh

#345960
0aae
0aam
0aap
0aas
0aav
0aay
0abb
0abe
0abh

#349560
1aak

#349620
1aaf
1aag

#349680
1aah
1aai
1abj

#349740
0abj

#355560
1abl

#355620
1aaa
1aab
0aak
0abl

#355680
0aaa
0aab
1aac
1aad
0aaf
0aag

#355740
0aac
0aad
1aae
0aah
0aai
1aam
1aap
1aas
1aav
1aay
1abb
1abe
1abh

#355800
0aae
0aam
0aap
0aas
0aav
0aay
0abb
0abe
0abh

#359400
1aak

#359460
1aaf
1aag

#359520
1aah
1aai
1abj

#359580
0abj

#365400
1abl

#365460
1aaa
1aab
0aak
0abl

#365520
0aaa
0aab
1aac
1aad
0aaf
0aag

#365580
0aac
0aad
1aae
0aah
0aai
1aam
1aap
1aas
1aav
1aay
1abb
1abe
1abh

#365640
0aae
0aam
0aap
0aas
0aav
0aay
0abb
0abe
0abh

#369240
1aak

#369300
1aaf
1aag

#369360
1aah
1aai
1abj

#369420
0abj

#375240
1abl

#375300
1aaa
1aab
0aak
0abl

#375360
0aaa
0aab
1aac
1aad
0aaf
0aag

#375420
0aac
0aad
1aae
0aah
0aai
1aam
1aap
1aas
1aav
1aay
1abb
1abe
1abh

#375480
0aae
0aam
0aap
0aas
0aav
0aay
0abb
0abe
0abh

#379080
1aak

#379140
1aaf
1aag

#379200
1aah
1aai
1abj

#379260
0abj

#385080
1abl

#385140
1aaa
1aab
0aak
0abl

#385200
0aaa
0aab
1aac
1aad
0aaf
0aag

#385260
0aac
0aad
1aae
0aah
0aai
1aam
1aap
1aas
1aav
1aay
1abb
1abe
1abh

#385320
0aae
0aam
0aap
0aas
0aav
0aay
0abb
0abe
0abh

#388920
1aak

#388980
1aaf
1aag

#389040
1aah
1aai
1abj

#389100
0abj

#394920
1abl

#394980
1aaa
1aab
0aak
0abl

#395040
0aaa
0aab
1aac
1aad
0aaf
0aag

#395100
0aac
0aad
1aae
0aah
0aai
1aam
1aap
1aas
1aav
1aay
1abb
1abe
1abh

#395160
0aae
0aam
0aap
0aas
0aav
0aay
0abb
0abe
0abh

#398760
1aak

#398820
1aaf
1aag

#398880
1aah
1aai
1abj

#398940
0abj

#404760
1abl

#404820
1aaa
1aab
0aak
0abl

#404880
0aaa
0aab
1aac
1aad
0aaf
0aag

#404940
0aac
0aad
1aae
0aah
0aai
1aam
1aap
1aas
1aav
1aay
1abb
1abe
1abh

#405000
0aae
0aam
0aap
0aas
0aav
0aay
0abb
0abe
0abh

#408600
1aak

#408660
1aaf
1aag

#408720
1aah
1aai
1abj

#408780
0abj

#414600
1abl

#414660
1aaa
1aab
0aak
0abl

#414720
0aaa
0aab
1aac
1aad
0aaf
0aag

#414780
0aac
0aad
1aae
0aah
0aai
1aam
1aap
1aas
1aav
1aay
1abb
1abe
1abh

#414840
0aae
0aam
0aap
0aas
0aav
0aay
0abb
0abe
0abh

#418440
1aak

#418500
1aaf
1aag

#418560
1aah
1aai
1abj

#418620
0abj

#424440
1abl

#424500
1aaa
1aab
0aak
0abl

#424560
0aaa
0aab
1aac
1aad
0aaf
0aag

#424620
0aac
0aad
1aae
0aah
0aai
1aam
1aap
1aas
1aav
1aay
1abb
1abe
1abh

#424680
0aae
0aam
0aap
0aas
0aav
0aay
0abb
0abe
0abh

#428280
1aak

#428340
1aaf
1aag

#428400
1aah
1aai
1abj

#428460
0abj

#434280
1abl

#434340
1aaa
1aab
0aak
0abl

#434400
0aaa
0aab
1aac
1aad
0aaf
0aag

#434460
0aac
0aad
1aae
0aah
0aai
1aam
1aap
1aas
1aav
1aay
1abb
1abe
1abh

#434520
0aae
0aam
0aap
0aas
0aav
0aay
0abb
0abe
0abh

#438120
1aak

#438180
1aaf
1aag

#438240
1aah
1aai
1abj

#438300
0abj

#444120
1abl

#444180
1aaa
1aab
0aak
0abl

#444240
0aaa
0aab
1aac
1aad
0aaf
0aag

#444300
0aac
0aad
1aae
0aah
0aai
1aam
1aap
1aas
1aav
1aay
1abb
1abe
1abh

#444360
0aae
0aam
0aap
0aas
0aav
0aay
0abb
0abe
0abh

#447960
1aak

#448020
1aaf
1aag

#448080
1aah
1aai
1abj

#448140
0abj

#453960
1abl

#454020
1aaa
1aab
0aak
0abl

#454080
0aaa
0aab
1aac
1aad
0aaf
0aag

#454140
0aac
0aad
1aae
0aah
0aai
1aam
1aap
1aas
1aav
1aay
1abb
1abe
1abh

#454200
0aae
0aam
0aap
0aas
0aav
0aay
0abb
0abe
0abh

#457800
1aak

#457860
1aaf
1aag

#457920
1aah
1aai
1abj

#457980
0abj

#463800
1abl

#463860
1aaa
1aab
0aak
0abl

#463920
0aaa
0aab
1aac
1aad
0aaf
0aag

#463980
0aac
0aad
1aae
0aah
0aai
1aam
1aap
1aas
1aav
1aay
1abb
1abe
1abh

#464040
0aae
0aam
0aap
0aas
0aav
0aay
0abb
0abe
0abh

#467640
1aak

#467700
1aaf
1aag

#467760
1aah
1aai
1abj

#467820
0abj

#473640
1abl

#473700
1aaa
1aab
0aak
0abl

#473760
0aaa
0aab
1aac
1aad
0aaf
0aag

#473820
0aac
0aad
1aae
0aah
0aai
1aam
1aap
1aas
1aav
1aay
1abb
1abe
1abh

#473880
0aae
0aam
0aap
0aas
0aav
0aay
0abb
0abe
0abh

#477480
1aak

#477540
1aaf
1aag

#477600
1aah
1aai
1abj

#477660
0abj

#483480
1abl

#483540
1aaa
1aab
0aak
0abl

#483600
0aaa
0aab
1aac
1aad
0aaf
0aag

#483660
0aac
0aad
1aae
0aah
0aai
1aam
1aap
1aas
1aav
1aay
1abb
1abe
1abh

#483720
0aae
0aam
0aap
0aas
0aav
0aay
0abb
0abe
0abh

#487320
1aak

#487380
1aaf
1aag

#487440
1aah
1aai
1abj

#487500
0abj

#493320
1abl

#493380
1aaa
1aab
0aak
0abl

#493440
0aaa
0aab
1aac
1aad
0aaf
0aag

#493500
0aac
0aad
1aae
0aah
0aai
1aam
1aap
1aas
1aav
1aay
1abb
1abe
1abh

#493560
0aae
0aam
0aap
0aas
0aav
0aay
0abb
0abe
0abh

#497160
1aak

#497220
1aaf
1aag

#497280
1aah
1aai
1abj

#497340
0abj

#503160
1abl

#503220
1aaa
1aab
0aak
0abl

#503280
0aaa
0aab
1aac
1aad
0aaf
0aag

#503340
0aac
0aad
1aae
0aah
0aai
1aam
1aap
1aas
1aav
1aay
1abb
1abe
1abh

#503400
0aae
0aam
0aap
0aas
0aav
0aay
0abb
0abe
0abh

#507000
1aak

#507060
1aaf
1aag

#507120
1aah
1aai
1abj

#507180
0abj

#513000
1abl

#513060
1aaa
1aab
0aak
0abl

#513120
0aaa
0aab
1aac
1aad
0aaf
0aag

#513180
0aac
0aad
1aae
0aah
0aai
1aam
1aap
1aas
1aav
1aay
1abb
1abe
1abh

#513240
0aae
0aam
0aap
0aas
0aav
0aay
0abb
0abe
0abh

#516840
1aak

#516900
1aaf
1aag

#516960
1aah
1aai
1abj

#517020
0abj

#522840
1abl

#522900
1aaa
1aab
0aak
0abl

#522960
0aaa
0aab
1aac
1aad
0aaf
0aag

#523020
0aac
0aad
1aae
0aah
0aai
1aam
1aap
1aas
1aav
1aay
1abb
1abe
1abh

#523080
0aae
0aam
0aap
0aas
0aav
0aay
0abb
0abe
0abh

#526680
1aak

#526740
1aaf
1aag

#526800
1aah
1aai
1abj

#526860
0abj

#532680
1abl

#532740
1aaa
1aab
0aak
0abl

#532800
0aaa
0aab
1aac
1aad
0aaf
0aag

#532860
0aac
0aad
1aae
0aah
0aai
1aam
1aap
1aas
1aav
1aay
1abb
1abe
1abh

#532920
0aae
0aam
0aap
0aas
0aav
0aay
0abb
0abe
0abh

#536520
1aak

#536580
1aaf
1aag

#536640
1aah
1aai
1abj

#536700
0abj

#542520
1abl

#542580
1aaa
1aab
0aak
0abl

#542640
0aaa
0aab
1aac
1aad
0aaf
0aag

#542700
0aac
0aad
1aae
0aah
0aai
1aam
1aap
1aas
1aav
1aay
1abb
1abe
1abh

#542760
0aae
0aam
0aap
0aas
0aav
0aay
0abb
0abe
0abh

#546360
1aak

#546420
1aaf
1aag

#546480
1aah
1aai
1abj

#546540
0abj

#552360
1abl

#552420
1aaa
1aab
0aak
0abl

#552480
0aaa
0aab
1aac
1aad
0aaf
0aag

#552540
0aac
0aad
1aae
0aah
0aai
1aam
1aap
1aas
1aav
1aay
1abb
1abe
1abh

#552600
0aae
0aam
0aap
0aas
0aav
0aay
0abb
0abe
0abh

#556200
1aak

#556260
1aaf
1aag

#556320
1aah
1aai
1abj

#556380
0abj

#562200
1abl

#562260
1aaa
1aab
0aak
0abl

#562320
0aaa
0aab
1aac
1aad
0aaf
0aag

#562380
0aac
0aad
1aae
0aah
0aai
1aam
1aap
1aas
1aav
1aay
1abb
1abe
1abh

#562440
0aae
0aam
0aap
0aas
0aav
0aay
0abb
0abe
0abh

#566040
1aak

#566100
1aaf
1aag

#566160
1aah
1aai
1abj

#566220
0abj

#572040
1abl

#572100
1aaa
1aab
0aak
0abl

#572160
0aaa
0aab
1aac
1aad
0aaf
0aag

#572220
0aac
0aad
1aae
0aah
0aai
1aam
1aap
1aas
1aav
1aay
1abb
1abe
1abh

#572280
0aae
0aam
0aap
0aas
0aav
0aay
0abb
0abe
0abh

#575880
1aak

#575940
1aaf
1aag

#576000
1aah
1aai
1abj

#576060
0abj

#581880
1abl

#581940
1aaa
1aab
0aak
0abl

#582000
0aaa
0aab
1aac
1aad
0aaf
0aag

#582060
0aac
0aad
1aae
0aah
0aai
1aam
1aap
1aas
1aav
1aay
1abb
1abe
1abh

#582120
0aae
0aam
0aap
0aas
0aav
0aay
0abb
0abe
0abh

#585720
1aak

#585780
1aaf
1aag

#585840
1aah
1aai
1abj

#585900
0abj

#591720
1abl

#591780
1aaa
1aab
0aak
0abl

#591840
0aaa
0aab
1aac
1aad
0aaf
0aag

#591900
0aac
0aad
1aae
0aah
0aai
1aam
1aap
1aas
1aav
1aay
1abb
1abe
1abh

#591960
0aae
0aam
0aap
0aas
0aav
0aay
0abb
0abe
0abh

#595560
1aak

#595620
1aaf
1aag

#595680
1aah
1aai
1abj

#595740
0abj

#601560
1abl

#601620
1aaa
1aab
0aak
0abl

#601680
0aaa
0aab
1aac
1aad
0aaf
0aag

#601740
0aac
0aad
1aae
0aah
0aai
1aam
1aap
1aas
1aav
1aay
1abb
1abe
1abh

#601800
0aae
0aam
0aap
0aas
0aav
0aay
0abb
0abe
0abh

#605400
1aak

#605460
1aaf
1aag

#605520
1aah
1aai
1abj

#605580
0abj

#611400
1abl

#611460
1aaa
1aab
0aak
0abl

#611520
0aaa
0aab
1aac
1aad
0aaf
0aag

#611580
0aac
0aad
1aae
0aah
0aai
1aam
1aap
1aas
1aav
1aay
1abb
1abe
1abh

#611640
0aae
0aam
0aap
0aas
0aav
0aay
0abb
0abe
0abh

#615240
1aak

#615300
1aaf
1aag

#615360
1aah
1aai
1abj

#615420
0abj

#621240
1abl

#621300
1aaa
1aab
0aak
0abl

#621360
0aaa
0aab
1aac
1aad
0aaf
0aag

#621420
0aac
0aad
1aae
0aah
0aai
1aam
1aap
1aas
1aav
1aay
1abb
1abe
1abh

#621480
0aae
0aam
0aap
0aas
0aav
0aay
0abb
0abe
0abh

#625080
1aak

#625140
1aaf
1aag

#625200
1aah
1aai
1abj

