mangrove_master/regression/uart/uart_numeric.vcd
$date
     May 19, 2016       17:59:47
$end

$version
              SystemC 2.3.0-ASI --- Jan 21 2013 09:04:20
$end

$scope module SystemC $end
$var wire    8  aaaaa  ird [7:0]  $end
$var wire    4  aaaab  u1.ier [3:0]  $end
$var wire    8  aaaac  u1.iir [7:0]  $end
$var wire    4  aaaad  u1.iiir [3:0]  $end
$var wire    8  aaaae  u1.fcr [7:0]  $end
$var wire    8  aaaaf  u1.lcr [7:0]  $end
$var wire    5  aaaag  u1.mcr [4:0]  $end
$var wire    8  aaaah  u1.lsr [7:0]  $end
$var wire    8  aaaai  u1.msr [7:0]  $end
$var wire    8  aaaaj  u1.scr [7:0]  $end
$var wire   16  aaaak  u1.rdd [15:0]  $end
$var wire    4  aaaal  u1.imsr [3:0]  $end
$var wire    8  aaaam  u1.ird [7:0]  $end
$var wire    8  aaaan  u1.wr_b [7:0]  $end
$var wire    2  aaaao  u1.wr_dml [1:0]  $end
$var wire   16  aaaap  u1.d16 [15:0]  $end
$var wire   32  aaq  u1.num_bits [31:0]  $end
$var wire    8  aaaar  u1.tf_do [7:0]  $end
$var wire   11  aaaas  u1.rf_di [10:0]  $end
$var wire   11  aaaat  u1.rf_do [10:0]  $end
$var wire   12  aaaau  u1.toi_c_d [11:0]  $end
$var wire   10  aaaav  u1.q_open [9:0]  $end
$var wire    8  aaaaw  u2.q [7:0]  $end
$var wire    8  aaaax  u2.d [7:0]  $end
$var wire    8  aaaay  u1.rd [7:0]  $end
$var wire    8  aaaaz  u1.d [7:0]  $end
$var wire    3  aaaba  u1.add [2:0]  $end
$var wire    8  aaabb  prdata [7:0]  $end
$var wire    8  aaabc  pwdata [7:0]  $end
$var wire    3  aaabd  paddr [2:0]  $end
$upscope $end
$enddefinitions  $end

$comment
All initial values are dumped below at time 0 sec = 0 timescale units.
$end

$dumpvars
b0 aaaaa
b0 aaaab
b11000000 aaaac
b1 aaaad
b0 aaaae
b0 aaaaf
b0 aaaag
b1100000 aaaah
b0 aaaai
b0 aaaaj
b0 aaaak
bXXXX aaaal
bXXXXXXXX aaaam
b0 aaaan
b0 aaaao
bXXXXXXXXXXXXXXXX aaaap
b101 aaq
bXXXXXXXX aaaar
b0 aaaas
bXXXXXXXXXXX aaaat
b111000000 aaaau
b0 aaaav
b0 aaaaw
b0 aaaax
b0 aaaay
bXXXXXXXX aaaaz
bXXX aaaba
b0 aaabb
bXXXXXXXX aaabc
bXXX aaabd
$end

#2
b1000 aaaan
b1000001110000011 aaaap
b10000011 aaaaz
b11 aaaba
b10000011 aaabc
b11 aaabd

#4
b10000011 aaaaa
b10000011 aaaaf
bXXXX0000 aaaai
b0 aaaan
b1000 aaq
b1010000000 aaaau
b111000000 aaaav
b10000011 aaaax
b10000011 aaaay

#6
b0 aaaaa
b11000001 aaaac
b1 aaaan
b1 aaaao
b1000000010 aaaap
b0 aaaax
b0 aaaay
b10 aaaaz
b0 aaaba
b10 aaabc
b0 aaabd

#8
b10 aaaaa
b10 aaaak
b0 aaaan
b0 aaaao
b1010000000 aaaav
b10 aaaax
b10 aaaay

#10
b0 aaaaa
b10 aaaan
b10 aaaao
b0 aaaap
b0 aaaax
b0 aaaay
b0 aaaaz
b1 aaaba
b0 aaabc
b1 aaabd

#12
b0 aaaan
b0 aaaao

#14
b10000011 aaaaa
b1000 aaaan
b1100000011 aaaap
b10000011 aaaax
b10000011 aaaay
b11 aaaaz
b11 aaaba
b11 aaabc
b11 aaabd

#16
b11 aaaaa
b11 aaaaf
b0 aaaan
b10000011 aaaaw
b11 aaaax
b11 aaaay
b10000011 aaabb

#18
b11000001 aaaaa
b100 aaaan
b0 aaaap
b11000001 aaaax
b11000001 aaaay
b0 aaaaz
b10 aaaba
b0 aaabc
b10 aaabd

#20
b0 aaaan
b11000001 aaaaw
b11000001 aaabb

#22
b0 aaaaa
b10 aaaan
b0 aaaax
b0 aaaay
b1 aaaba
b1 aaabd

#24
b0 aaaan
b0 aaaaw
b0 aaabb

#26
bXXXXXXXX aaaaa
bXX11 aaaal
b1 aaaan
bXXXXXXXX aaaax
bXXXXXXXX aaaay
b0 aaaba
b0 aaabd

#28
bXX110000 aaaai
b0 aaaan
b0 aaaar
bXXXXXXXX aaaaw
bXXXXXXXX aaabb

#32
b0 aaaah

#48
b100000 aaaah
bXXXXXXXX aaaar

#1328
b1100000 aaaah

#1340
b1 aaaan
b100000001 aaaap
b1 aaaaz
b1 aaabc

#1342
b0 aaaan
b1 aaaar

#1344
b0 aaaah

#1360
b100000 aaaah
bXXXXXXXX aaaar

#2640
b1100000 aaaah

#2652
b1 aaaan
b1000000010 aaaap
b10 aaaaz
b10 aaabc

#2654
b0 aaaan
b10 aaaar

#2656
b0 aaaah

#2672
b100000 aaaah
bXXXXXXXX aaaar

#3952
b1100000 aaaah

#3964
b1 aaaan
b1100000011 aaaap
b11 aaaaz
b11 aaabc

#3966
b0 aaaan
b11 aaaar

#3968
b0 aaaah

#3984
b100000 aaaah
bXXXXXXXX aaaar

#5264
b1100000 aaaah

#5276
b1 aaaan
b10000000100 aaaap
b100 aaaaz
b100 aaabc

#5278
b0 aaaan
b100 aaaar

#5280
b0 aaaah

#5296
b100000 aaaah
bXXXXXXXX aaaar

#6576
b1100000 aaaah

#6588
b1 aaaan
b10100000101 aaaap
b101 aaaaz
b101 aaabc

#6590
b0 aaaan
b101 aaaar

#6592
b0 aaaah

#6608
b100000 aaaah
bXXXXXXXX aaaar

#7888
b1100000 aaaah

#7900
b1 aaaan
b11000000110 aaaap
b110 aaaaz
b110 aaabc

#7902
b0 aaaan
b110 aaaar

#7904
b0 aaaah

#7920
b100000 aaaah
bXXXXXXXX aaaar

#9200
b1100000 aaaah

#9212
b1 aaaan
b11100000111 aaaap
b111 aaaaz
b111 aaabc

#9214
b0 aaaan
b111 aaaar

#9216
b0 aaaah

#9232
b100000 aaaah
bXXXXXXXX aaaar

#10512
b1100000 aaaah

#10524
b1 aaaan
b100000001000 aaaap
b1000 aaaaz
b1000 aaabc

#10526
b0 aaaan
b1000 aaaar

#10528
b0 aaaah

#10544
b100000 aaaah
bXXXXXXXX aaaar

#11824
b1100000 aaaah

#11836
b1 aaaan
b100100001001 aaaap
b1001 aaaaz
b1001 aaabc

#11838
b0 aaaan
b1001 aaaar

#11840
b0 aaaah

#11856
b100000 aaaah
bXXXXXXXX aaaar

#13136
b1100000 aaaah

#13148
b1 aaaan
b101000001010 aaaap
b1010 aaaaz
b1010 aaabc

#13150
b0 aaaan
b1010 aaaar

#13152
b0 aaaah

#13168
b100000 aaaah
bXXXXXXXX aaaar

#14448
b1100000 aaaah

#14460
b1 aaaan
b101100001011 aaaap
b1011 aaaaz
b1011 aaabc

#14462
b0 aaaan
b1011 aaaar

#14464
b0 aaaah

#14480
b100000 aaaah
bXXXXXXXX aaaar

#15760
b1100000 aaaah

#15772
b1 aaaan
b110000001100 aaaap
b1100 aaaaz
b1100 aaabc

#15774
b0 aaaan
b1100 aaaar

#15776
b0 aaaah

#15792
b100000 aaaah
bXXXXXXXX aaaar

#17072
b1100000 aaaah

#17084
b1 aaaan
b110100001101 aaaap
b1101 aaaaz
b1101 aaabc

#17086
b0 aaaan
b1101 aaaar

#17088
b0 aaaah

#17104
b100000 aaaah
bXXXXXXXX aaaar

#18384
b1100000 aaaah

#18396
b1 aaaan
b111000001110 aaaap
b1110 aaaaz
b1110 aaabc

#18398
b0 aaaan
b1110 aaaar

#18400
b0 aaaah

#18416
b100000 aaaah
bXXXXXXXX aaaar

#19696
b1100000 aaaah

#19708
b0 aaaaa
b10 aaaan
b111100001111 aaaap
b0 aaaax
b0 aaaay
b1111 aaaaz
b1 aaaba
b1111 aaabc
b1 aaabd

#19710
b1111 aaaaa
b1111 aaaab
b0 aaaan
b0 aaaaw
b1111 aaaax
b1111 aaaay
b0 aaabb

#19714
b10 aaaad

#19716
b11000010 aaaac

#21020
b10 aaaan
b1000000010000 aaaap
b10000 aaaaz
b10000 aaabc

#21022
b0 aaaaa
b0 aaaab
b0 aaaan
b1111 aaaaw
b0 aaaax
b0 aaaay
b1111 aaabb

#22332
b10 aaaan
b1000100010001 aaaap
b10001 aaaaz
b10001 aaabc

#22334
b1 aaaaa
b1 aaaab
b0 aaaan
b0 aaaaw
b1 aaaax
b1 aaaay
b0 aaabb

#23644
b10 aaaan
b1001000010010 aaaap
b10010 aaaaz
b10010 aaabc

#23646
b10 aaaaa
b10 aaaab
b0 aaaan
b1 aaaaw
b10 aaaax
b10 aaaay
b1 aaabb

#24956
b10 aaaan
b1001100010011 aaaap
b10011 aaaaz
b10011 aaabc

#24958
b11 aaaaa
b11 aaaab
b0 aaaan
b10 aaaaw
b11 aaaax
b11 aaaay
b10 aaabb

#26268
b10 aaaan
b1010000010100 aaaap
b10100 aaaaz
b10100 aaabc

#26270
b100 aaaaa
b100 aaaab
b0 aaaan
b11 aaaaw
b100 aaaax
b100 aaaay
b11 aaabb

#27580
b10 aaaan
b1010100010101 aaaap
b10101 aaaaz
b10101 aaabc

#27582
b101 aaaaa
b101 aaaab
b0 aaaan
b100 aaaaw
b101 aaaax
b101 aaaay
b100 aaabb

#28892
b10 aaaan
b1011000010110 aaaap
b10110 aaaaz
b10110 aaabc

#28894
b110 aaaaa
b110 aaaab
b0 aaaan
b101 aaaaw
b110 aaaax
b110 aaaay
b101 aaabb

#30204
b10 aaaan
b1011100010111 aaaap
b10111 aaaaz
b10111 aaabc

#30206
b111 aaaaa
b111 aaaab
b0 aaaan
b110 aaaaw
b111 aaaax
b111 aaaay
b110 aaabb

#31516
b10 aaaan
b1100000011000 aaaap
b11000 aaaaz
b11000 aaabc

#31518
b1000 aaaaa
b1000 aaaab
b0 aaaan
b111 aaaaw
b1000 aaaax
b1000 aaaay
b111 aaabb

#32828
b10 aaaan
b1100100011001 aaaap
b11001 aaaaz
b11001 aaabc

#32830
b1001 aaaaa
b1001 aaaab
b0 aaaan
b1000 aaaaw
b1001 aaaax
b1001 aaaay
b1000 aaabb

#34140
b10 aaaan
b1101000011010 aaaap
b11010 aaaaz
b11010 aaabc

#34142
b1010 aaaaa
b1010 aaaab
b0 aaaan
b1001 aaaaw
b1010 aaaax
b1010 aaaay
b1001 aaabb

#35452
b10 aaaan
b1101100011011 aaaap
b11011 aaaaz
b11011 aaabc

#35454
b1011 aaaaa
b1011 aaaab
b0 aaaan
b1010 aaaaw
b1011 aaaax
b1011 aaaay
b1010 aaabb

#36764
b10 aaaan
b1110000011100 aaaap
b11100 aaaaz
b11100 aaabc

#36766
b1100 aaaaa
b1100 aaaab
b0 aaaan
b1011 aaaaw
b1100 aaaax
b1100 aaaay
b1011 aaabb

#38076
b10 aaaan
b1110100011101 aaaap
b11101 aaaaz
b11101 aaabc

#38078
b1101 aaaaa
b1101 aaaab
b0 aaaan
b1100 aaaaw
b1101 aaaax
b1101 aaaay
b1100 aaabb

#39388
b11000010 aaaaa
b100 aaaan
b1111000011110 aaaap
b11000010 aaaax
b11000010 aaaay
b11110 aaaaz
b10 aaaba
b11110 aaabc
b10 aaabd

#39390
b11110 aaaae
b0 aaaan
b11000010 aaaaw
b11000010 aaabb

#39396
b0 aaaah

#39398
b1 aaaad

#39400
b11000001 aaaaa
b11000001 aaaac
b11000001 aaaax
b11000001 aaaay

#39404
b1100000 aaaah
b0 aaaar

#40700
b100 aaaan
b1111100011111 aaaap
b11111 aaaaz
b11111 aaabc

#40702
b11111 aaaae
b0 aaaan
b11000001 aaaaw
b11000001 aaabb

#42012
b100 aaaan
b10000000100000 aaaap
b100000 aaaaz
b100000 aaabc

#42014
b100000 aaaae
b0 aaaan

#43324
b100 aaaan
b10000100100001 aaaap
b100001 aaaaz
b100001 aaabc

#43326
b100001 aaaae
b0 aaaan

#44636
b100 aaaan
b10001000100010 aaaap
b100010 aaaaz
b100010 aaabc

#44638
b100010 aaaae
b0 aaaan

#45948
b100 aaaan
b10001100100011 aaaap
b100011 aaaaz
b100011 aaabc

#45950
b100011 aaaae
b0 aaaan

#47260
b100 aaaan
b10010000100100 aaaap
b100100 aaaaz
b100100 aaabc

#47262
b100100 aaaae
b0 aaaan

#48572
b100 aaaan
b10010100100101 aaaap
b100101 aaaaz
b100101 aaabc

#48574
b100101 aaaae
b0 aaaan

#49884
b100 aaaan
b10011000100110 aaaap
b100110 aaaaz
b100110 aaabc

#49886
b100110 aaaae
b0 aaaan

#51196
b100 aaaan
b10011100100111 aaaap
b100111 aaaaz
b100111 aaabc

#51198
b100111 aaaae
b0 aaaan

#52508
b100 aaaan
b10100000101000 aaaap
b101000 aaaaz
b101000 aaabc

#52510
b101000 aaaae
b0 aaaan

#53820
b100 aaaan
b10100100101001 aaaap
b101001 aaaaz
b101001 aaabc

#53822
b101001 aaaae
b0 aaaan

#55132
b100 aaaan
b10101000101010 aaaap
b101010 aaaaz
b101010 aaabc

#55134
b101010 aaaae
b0 aaaan

#56444
b100 aaaan
b10101100101011 aaaap
b101011 aaaaz
b101011 aaabc

#56446
b101011 aaaae
b0 aaaan

#57756
b100 aaaan
b10110000101100 aaaap
b101100 aaaaz
b101100 aaabc

#57758
b101100 aaaae
b0 aaaan

#59068
b11 aaaaa
b1000 aaaan
b10110100101101 aaaap
b11 aaaax
b11 aaaay
b101101 aaaaz
b11 aaaba
b101101 aaabc
b11 aaabd

#59070
b101101 aaaaa
b101101 aaaaf
b0 aaaan
b110 aaq
b1000000000 aaaau
b11 aaaaw
b101101 aaaax
b101101 aaaay
b11 aaabb

#59072
b1000000000 aaaav

#60380
b1000 aaaan
b10111000101110 aaaap
b101110 aaaaz
b101110 aaabc

#60382
b101110 aaaaa
b101110 aaaaf
b0 aaaan
b111 aaq
b1001000000 aaaau
b101101 aaaaw
b101110 aaaax
b101110 aaaay
b101101 aaabb

#60384
b1001000000 aaaav

#61692
b1000 aaaan
b10111100101111 aaaap
b101111 aaaaz
b101111 aaabc

#61694
b101111 aaaaa
b101111 aaaaf
b0 aaaan
b1000 aaq
b1010000000 aaaau
b101110 aaaaw
b101111 aaaax
b101111 aaaay
b101110 aaabb

#61696
b1010000000 aaaav

#63004
b1000 aaaan
b11000000110000 aaaap
b110000 aaaaz
b110000 aaabc

#63006
b110000 aaaaa
b110000 aaaaf
b0 aaaan
b101 aaq
b111000000 aaaau
b101111 aaaaw
b110000 aaaax
b110000 aaaay
b101111 aaabb

#63008
b111000000 aaaav

#64316
b1000 aaaan
b11000100110001 aaaap
b110001 aaaaz
b110001 aaabc

#64318
b110001 aaaaa
b110001 aaaaf
b0 aaaan
b110 aaq
b1000000000 aaaau
b110000 aaaaw
b110001 aaaax
b110001 aaaay
b110000 aaabb

#64320
b1000000000 aaaav

#65628
b1000 aaaan
b11001000110010 aaaap
b110010 aaaaz
b110010 aaabc

#65630
b110010 aaaaa
b110010 aaaaf
b0 aaaan
b111 aaq
b1001000000 aaaau
b110001 aaaaw
b110010 aaaax
b110010 aaaay
b110001 aaabb

#65632
b1001000000 aaaav

#66940
b1000 aaaan
b11001100110011 aaaap
b110011 aaaaz
b110011 aaabc

#66942
b110011 aaaaa
b110011 aaaaf
b0 aaaan
b1000 aaq
b1010000000 aaaau
b110010 aaaaw
b110011 aaaax
b110011 aaaay
b110010 aaabb

#66944
b1010000000 aaaav

#68252
b1000 aaaan
b11010000110100 aaaap
b110100 aaaaz
b110100 aaabc

#68254
b110100 aaaaa
b110100 aaaaf
b0 aaaan
b101 aaq
b111000000 aaaau
b110011 aaaaw
b110100 aaaax
b110100 aaaay
b110011 aaabb

#68256
b111000000 aaaav

#69564
b1000 aaaan
b11010100110101 aaaap
b110101 aaaaz
b110101 aaabc

#69566
b110101 aaaaa
b110101 aaaaf
b0 aaaan
b110 aaq
b1000000000 aaaau
b110100 aaaaw
b110101 aaaax
b110101 aaaay
b110100 aaabb

#69568
b1000000000 aaaav

#70876
b1000 aaaan
b11011000110110 aaaap
b110110 aaaaz
b110110 aaabc

#70878
b110110 aaaaa
b110110 aaaaf
b0 aaaan
b111 aaq
b1001000000 aaaau
b110101 aaaaw
b110110 aaaax
b110110 aaaay
b110101 aaabb

#70880
b1001000000 aaaav

#72188
b1000 aaaan
b11011100110111 aaaap
b110111 aaaaz
b110111 aaabc

#72190
b110111 aaaaa
b110111 aaaaf
b0 aaaan
b1000 aaq
b1010000000 aaaau
b110110 aaaaw
b110111 aaaax
b110111 aaaay
b110110 aaabb

#72192
b1010000000 aaaav

#73500
b1000 aaaan
b11100000111000 aaaap
b111000 aaaaz
b111000 aaabc

#73502
b111000 aaaaa
b111000 aaaaf
b0 aaaan
b101 aaq
b111000000 aaaau
b110111 aaaaw
b111000 aaaax
b111000 aaaay
b110111 aaabb

#73504
b111000000 aaaav

#74812
b1000 aaaan
b11100100111001 aaaap
b111001 aaaaz
b111001 aaabc

#74814
b111001 aaaaa
b111001 aaaaf
b0 aaaan
b110 aaq
b1000000000 aaaau
b111000 aaaaw
b111001 aaaax
b111001 aaaay
b111000 aaabb

#74816
b1000000000 aaaav

#76124
b1000 aaaan
b11101000111010 aaaap
b111010 aaaaz
b111010 aaabc

#76126
b111010 aaaaa
b111010 aaaaf
b0 aaaan
b111 aaq
b1001000000 aaaau
b111001 aaaaw
b111010 aaaax
b111010 aaaay
b111001 aaabb

#76128
b1001000000 aaaav

#77436
b1000 aaaan
b11101100111011 aaaap
b111011 aaaaz
b111011 aaabc

#77438
b111011 aaaaa
b111011 aaaaf
b0 aaaan
b1000 aaq
b1010000000 aaaau
b111010 aaaaw
b111011 aaaax
b111011 aaaay
b111010 aaabb

#77440
b1010000000 aaaav

#78748
b0 aaaaa
b0 aaaab
b11000000 aaaac
b0 aaaae
b0 aaaaf
b0 aaaai
b0 aaaak
b101 aaq
b111000000 aaaau
b0 aaaav
b0 aaaaw
b0 aaaax
b0 aaaay
b0 aaabb

#78752
b1000 aaaan
b1000001110000011 aaaap
b10000011 aaaaz
b10000011 aaabc

#78754
b10000011 aaaaa
b10000011 aaaaf
bXX110000 aaaai
b0 aaaan
b1000 aaq
b1010000000 aaaau
b10000011 aaaax
b10000011 aaaay

#78756
b0 aaaaa
b11000001 aaaac
b1 aaaan
b1 aaaao
b1000000010 aaaap
b1010000000 aaaav
b0 aaaax
b0 aaaay
b10 aaaaz
b0 aaaba
b10 aaabc
b0 aaabd

#78758
b10 aaaaa
b10 aaaak
b0 aaaan
b0 aaaao
b10 aaaax
b10 aaaay

#78760
b0 aaaaa
b10 aaaan
b10 aaaao
b0 aaaap
b0 aaaax
b0 aaaay
b0 aaaaz
b1 aaaba
b0 aaabc
b1 aaabd

#78762
b0 aaaan
b0 aaaao

#78764
b10000011 aaaaa
b1000 aaaan
b1100000011 aaaap
b10000011 aaaax
b10000011 aaaay
b11 aaaaz
b11 aaaba
b11 aaabc
b11 aaabd

#78766
b11 aaaaa
b11 aaaaf
b0 aaaan
b10000011 aaaaw
b11 aaaax
b11 aaaay
b10000011 aaabb

#78768
b11000001 aaaaa
b100 aaaan
b0 aaaap
b11000001 aaaax
b11000001 aaaay
b0 aaaaz
b10 aaaba
b0 aaabc
b10 aaabd

#78770
b0 aaaan
b11000001 aaaaw
b11000001 aaabb

#78772
b0 aaaaa
b10 aaaan
b0 aaaax
b0 aaaay
b1 aaaba
b1 aaabd

#78774
b0 aaaan
b0 aaaaw
b0 aaabb

#78776
bXXXXXXXX aaaaa
b1 aaaan
bXXXXXXXX aaaax
bXXXXXXXX aaaay
b0 aaaba
b0 aaabd

#78778
b0 aaaan
bXXXXXXXX aaaaw
bXXXXXXXX aaabb

#78780
b0 aaaah

#78792
b100000 aaaah
b1 aaaar

#80072
b1100000 aaaah

#80084
b1 aaaan
b100000001 aaaap
b1 aaaaz
b1 aaabc

#80086
b0 aaaan

#80088
b0 aaaah

#80104
b100000 aaaah
b10 aaaar

#81384
b1100000 aaaah

#81396
b1 aaaan
b1000000010 aaaap
b10 aaaaz
b10 aaabc

#81398
b0 aaaan

#81400
b0 aaaah

#81416
b100000 aaaah
b11 aaaar

#82696
b1100000 aaaah

#82708
b1 aaaan
b1100000011 aaaap
b11 aaaaz
b11 aaabc

#82710
b0 aaaan

#82712
b0 aaaah

#82728
b100000 aaaah
b100 aaaar

#84008
b1100000 aaaah

#84020
b1 aaaan
b10000000100 aaaap
b100 aaaaz
b100 aaabc

#84022
b0 aaaan

#84024
b0 aaaah

#84040
b100000 aaaah
b101 aaaar

#85320
b1100000 aaaah

#85332
b1 aaaan
b10100000101 aaaap
b101 aaaaz
b101 aaabc

#85334
b0 aaaan

#85336
b0 aaaah

#85352
b100000 aaaah
b110 aaaar

#86632
b1100000 aaaah

#86644
b1 aaaan
b11000000110 aaaap
b110 aaaaz
b110 aaabc

#86646
b0 aaaan

#86648
b0 aaaah

#86664
b100000 aaaah
b111 aaaar

#87944
b1100000 aaaah

#87956
b1 aaaan
b11100000111 aaaap
b111 aaaaz
b111 aaabc

#87958
b0 aaaan

#87960
b0 aaaah

#87976
b100000 aaaah
b1000 aaaar

#89256
b1100000 aaaah

#89268
b1 aaaan
b100000001000 aaaap
b1000 aaaaz
b1000 aaabc

#89270
b0 aaaan

#89272
b0 aaaah

#89288
b100000 aaaah
b1001 aaaar

#90568
b1100000 aaaah

#90580
b1 aaaan
b100100001001 aaaap
b1001 aaaaz
b1001 aaabc

#90582
b0 aaaan

#90584
b0 aaaah

#90600
b100000 aaaah
b1010 aaaar

#91880
b1100000 aaaah

#91892
b1 aaaan
b101000001010 aaaap
b1010 aaaaz
b1010 aaabc

#91894
b0 aaaan

#91896
b0 aaaah

#91912
b100000 aaaah
b1011 aaaar

#93192
b1100000 aaaah

#93204
b1 aaaan
b101100001011 aaaap
b1011 aaaaz
b1011 aaabc

#93206
b0 aaaan

#93208
b0 aaaah

#93224
b100000 aaaah
b1100 aaaar

#94504
b1100000 aaaah

#94516
b1 aaaan
b110000001100 aaaap
b1100 aaaaz
b1100 aaabc

#94518
b0 aaaan

#94520
b0 aaaah

#94536
b100000 aaaah
b1101 aaaar

#95816
b1100000 aaaah

#95828
b1 aaaan
b110100001101 aaaap
b1101 aaaaz
b1101 aaabc

#95830
b0 aaaan

#95832
b0 aaaah

#95848
b100000 aaaah
b1110 aaaar

#97128
b1100000 aaaah

#97140
b1 aaaan
b111000001110 aaaap
b1110 aaaaz
b1110 aaabc

#97142
b0 aaaan

#97144
b0 aaaah

#97160
b100000 aaaah
bXXXXXXXX aaaar

#98440
b1100000 aaaah

#98452
b0 aaaaa
b10 aaaan
b111100001111 aaaap
b0 aaaax
b0 aaaay
b1111 aaaaz
b1 aaaba
b1111 aaabc
b1 aaabd

#98454
b1111 aaaaa
b1111 aaaab
b0 aaaan
b0 aaaaw
b1111 aaaax
b1111 aaaay
b0 aaabb

#98458
b10 aaaad

#98460
b11000010 aaaac

#99764
b10 aaaan
b1000000010000 aaaap
b10000 aaaaz
b10000 aaabc

#99766
b0 aaaaa
b0 aaaab
b0 aaaan
b1111 aaaaw
b0 aaaax
b0 aaaay
b1111 aaabb

#101076
b10 aaaan
b1000100010001 aaaap
b10001 aaaaz
b10001 aaabc

#101078
b1 aaaaa
b1 aaaab
b0 aaaan
b0 aaaaw
b1 aaaax
b1 aaaay
b0 aaabb

#102388
b10 aaaan
b1001000010010 aaaap
b10010 aaaaz
b10010 aaabc

#102390
b10 aaaaa
b10 aaaab
b0 aaaan
b1 aaaaw
b10 aaaax
b10 aaaay
b1 aaabb

#103700
b10 aaaan
b1001100010011 aaaap
b10011 aaaaz
b10011 aaabc

#103702
b11 aaaaa
b11 aaaab
b0 aaaan
b10 aaaaw
b11 aaaax
b11 aaaay
b10 aaabb

#105012
b10 aaaan
b1010000010100 aaaap
b10100 aaaaz
b10100 aaabc

#105014
b100 aaaaa
b100 aaaab
b0 aaaan
b11 aaaaw
b100 aaaax
b100 aaaay
b11 aaabb

#106324
b10 aaaan
b1010100010101 aaaap
b10101 aaaaz
b10101 aaabc

#106326
b101 aaaaa
b101 aaaab
b0 aaaan
b100 aaaaw
b101 aaaax
b101 aaaay
b100 aaabb

#107636
b10 aaaan
b1011000010110 aaaap
b10110 aaaaz
b10110 aaabc

#107638
b110 aaaaa
b110 aaaab
b0 aaaan
b101 aaaaw
b110 aaaax
b110 aaaay
b101 aaabb

#108948
b10 aaaan
b1011100010111 aaaap
b10111 aaaaz
b10111 aaabc

#108950
b111 aaaaa
b111 aaaab
b0 aaaan
b110 aaaaw
b111 aaaax
b111 aaaay
b110 aaabb

#110260
b10 aaaan
b1100000011000 aaaap
b11000 aaaaz
b11000 aaabc

#110262
b1000 aaaaa
b1000 aaaab
b0 aaaan
b111 aaaaw
b1000 aaaax
b1000 aaaay
b111 aaabb

#111572
b10 aaaan
b1100100011001 aaaap
b11001 aaaaz
b11001 aaabc

#111574
b1001 aaaaa
b1001 aaaab
b0 aaaan
b1000 aaaaw
b1001 aaaax
b1001 aaaay
b1000 aaabb

#112884
b10 aaaan
b1101000011010 aaaap
b11010 aaaaz
b11010 aaabc

#112886
b1010 aaaaa
b1010 aaaab
b0 aaaan
b1001 aaaaw
b1010 aaaax
b1010 aaaay
b1001 aaabb

#114196
b10 aaaan
b1101100011011 aaaap
b11011 aaaaz
b11011 aaabc

#114198
b1011 aaaaa
b1011 aaaab
b0 aaaan
b1010 aaaaw
b1011 aaaax
b1011 aaaay
b1010 aaabb

#115508
b10 aaaan
b1110000011100 aaaap
b11100 aaaaz
b11100 aaabc

#115510
b1100 aaaaa
b1100 aaaab
b0 aaaan
b1011 aaaaw
b1100 aaaax
b1100 aaaay
b1011 aaabb

#116820
b10 aaaan
b1110100011101 aaaap
b11101 aaaaz
b11101 aaabc

#116822
b1101 aaaaa
b1101 aaaab
b0 aaaan
b1100 aaaaw
b1101 aaaax
b1101 aaaay
b1100 aaabb

#118132
b11000010 aaaaa
b100 aaaan
b1111000011110 aaaap
b11000010 aaaax
b11000010 aaaay
b11110 aaaaz
b10 aaaba
b11110 aaabc
b10 aaabd

#118134
b11110 aaaae
b0 aaaan
b11000010 aaaaw
b11000010 aaabb

#118140
b0 aaaah

#118142
b1 aaaad

#118144
b11000001 aaaaa
b11000001 aaaac
b11000001 aaaax
b11000001 aaaay

#118148
b1100000 aaaah
b0 aaaar

#119444
b100 aaaan
b1111100011111 aaaap
b11111 aaaaz
b11111 aaabc

#119446
b11111 aaaae
b0 aaaan
b11000001 aaaaw
b11000001 aaabb

#120756
b100 aaaan
b10000000100000 aaaap
b100000 aaaaz
b100000 aaabc

#120758
b100000 aaaae
b0 aaaan

#122068
b100 aaaan
b10000100100001 aaaap
b100001 aaaaz
b100001 aaabc

#122070
b100001 aaaae
b0 aaaan

#123380
b100 aaaan
b10001000100010 aaaap
b100010 aaaaz
b100010 aaabc

#123382
b100010 aaaae
b0 aaaan

#124692
b100 aaaan
b10001100100011 aaaap
b100011 aaaaz
b100011 aaabc

#124694
b100011 aaaae
b0 aaaan

#126004
b100 aaaan
b10010000100100 aaaap
b100100 aaaaz
b100100 aaabc

#126006
b100100 aaaae
b0 aaaan

#127316
b100 aaaan
b10010100100101 aaaap
b100101 aaaaz
b100101 aaabc

#127318
b100101 aaaae
b0 aaaan

#128628
b100 aaaan
b10011000100110 aaaap
b100110 aaaaz
b100110 aaabc

#128630
b100110 aaaae
b0 aaaan

#129940
b100 aaaan
b10011100100111 aaaap
b100111 aaaaz
b100111 aaabc

#129942
b100111 aaaae
b0 aaaan

#131252
b100 aaaan
b10100000101000 aaaap
b101000 aaaaz
b101000 aaabc

#131254
b101000 aaaae
b0 aaaan

#132564
b100 aaaan
b10100100101001 aaaap
b101001 aaaaz
b101001 aaabc

#132566
b101001 aaaae
b0 aaaan

#133876
b100 aaaan
b10101000101010 aaaap
b101010 aaaaz
b101010 aaabc

#133878
b101010 aaaae
b0 aaaan

#135188
b100 aaaan
b10101100101011 aaaap
b101011 aaaaz
b101011 aaabc

#135190
b101011 aaaae
b0 aaaan

#136500
b100 aaaan
b10110000101100 aaaap
b101100 aaaaz
b101100 aaabc

#136502
b101100 aaaae
b0 aaaan

#137812
b11 aaaaa
b1000 aaaan
b10110100101101 aaaap
b11 aaaax
b11 aaaay
b101101 aaaaz
b11 aaaba
b101101 aaabc
b11 aaabd

#137814
b101101 aaaaa
b101101 aaaaf
b0 aaaan
b110 aaq
b1000000000 aaaau
b11 aaaaw
b101101 aaaax
b101101 aaaay
b11 aaabb

#137816
b1000000000 aaaav

#139124
b1000 aaaan
b10111000101110 aaaap
b101110 aaaaz
b101110 aaabc

#139126
b101110 aaaaa
b101110 aaaaf
b0 aaaan
b111 aaq
b1001000000 aaaau
b101101 aaaaw
b101110 aaaax
b101110 aaaay
b101101 aaabb

#139128
b1001000000 aaaav

#140436
b1000 aaaan
b10111100101111 aaaap
b101111 aaaaz
b101111 aaabc

#140438
b101111 aaaaa
b101111 aaaaf
b0 aaaan
b1000 aaq
b1010000000 aaaau
b101110 aaaaw
b101111 aaaax
b101111 aaaay
b101110 aaabb

#140440
b1010000000 aaaav

#141748
b1000 aaaan
b11000000110000 aaaap
b110000 aaaaz
b110000 aaabc

#141750
b110000 aaaaa
b110000 aaaaf
b0 aaaan
b101 aaq
b111000000 aaaau
b101111 aaaaw
b110000 aaaax
b110000 aaaay
b101111 aaabb

#141752
b111000000 aaaav

#143060
b1000 aaaan
b11000100110001 aaaap
b110001 aaaaz
b110001 aaabc

#143062
b110001 aaaaa
b110001 aaaaf
b0 aaaan
b110 aaq
b1000000000 aaaau
b110000 aaaaw
b110001 aaaax
b110001 aaaay
b110000 aaabb

#143064
b1000000000 aaaav

#144372
b1000 aaaan
b11001000110010 aaaap
b110010 aaaaz
b110010 aaabc

