mangrove_master/regression/uart/uart_bool.vcd
$date
     May 19, 2016       17:59:47
$end

$version
              SystemC 2.3.0-ASI --- Jan 21 2013 09:04:20
$end

$scope module SystemC $end
$var wire    1  aaa  cs       $end
$var wire    1  aab  ics       $end
$var wire    1  aac  rst       $end
$var wire    1  aad  u1.rd_iir       $end
$var wire    1  aae  u1.csn       $end
$var wire    1  aaf  u1.wr_f       $end
$var wire    1  aag  u1.wr_ier       $end
$var wire    1  aah  u1.wr_d       $end
$var wire    1  aai  u1.brc16x       $end
$var wire    1  aaj  u1.itr0       $end
$var wire    1  aak  u1.isitr1       $end
$var wire    1  aal  u1.sitr1       $end
$var wire    1  aam  u1.citr1       $end
$var wire    1  aan  u1.citr1a       $end
$var wire    1  aao  u1.itr1       $end
$var wire    1  aap  u1.itr2       $end
$var wire    1  aaq  u1.itr3       $end
$var wire    1  aar  u1.dcts       $end
$var wire    1  aas  u1.ctsn_re       $end
$var wire    1  aat  u1.ctsn_fe       $end
$var wire    1  aau  u1.idcts       $end
$var wire    1  aav  u1.iloop       $end
$var wire    1  aaw  u1.ddsr       $end
$var wire    1  aax  u1.dsrn_re       $end
$var wire    1  aay  u1.dsrn_fe       $end
$var wire    1  aaz  u1.iddsr       $end
$var wire    1  aba  u1.teri       $end
$var wire    1  abb  u1.rin_re       $end
$var wire    1  abc  u1.ddcd       $end
$var wire    1  abd  u1.dcdn_re       $end
$var wire    1  abe  u1.dcdn_fe       $end
$var wire    1  abf  u1.iddcd       $end
$var wire    1  abg  u1.rd_msr;       $end
$var wire    1  abh  u1.msr_clr       $end
$var wire    1  abi   design.u1.rd_lsr       $end
$var wire    1  abj  u1.lsr_clr       $end
$var wire    1  abk  u1.stopb       $end
$var wire    1  abl  u1.parity_en       $end
$var wire    1  abm  u1.parity_od       $end
$var wire    1  abn  u1.parity_ev       $end
$var wire    1  abo  u1.break_cb       $end
$var wire    1  abp  u1.tf_rd       $end
$var wire    1  abq  u1.tf_clr       $end
$var wire    1  abr  u1.tf_clrs       $end
$var wire    1  abs  u1.tf_empty       $end
$var wire    1  abt  u1.tf_full       $end
$var wire    1  abu  u1.rf_wr       $end
$var wire    1  abv  u1.rf_rd       $end
$var wire    1  abw  u1.rf_rd_brs       $end
$var wire    1  abx  u1.rf_clr       $end
$var wire    1  aby  u1.rf_clrs       $end
$var wire    1  abz  u1.rf_empty       $end
$var wire    1  aca  u1.rf_full       $end
$var wire    1  acb  u1.rd_rdy       $end
$var wire    1  acc  u1.iparity_er       $end
$var wire    1  acd  u1.iframe_er       $end
$var wire    1  ace  u1.ibreak_itr       $end
$var wire    1  acf  u1.parity_er       $end
$var wire    1  acg  u1.frame_er       $end
$var wire    1  ach  u1.break_itr       $end
$var wire    1  aci  u1.tsr_empty       $end
$var wire    1  acj  u1.ovr_er       $end
$var wire    1  ack  u1.istx       $end
$var wire    1  acl  u1.isrx       $end
$var wire    1  acm  u1.q_full       $end
$var wire    1  acn  u1.h_full       $end
$var wire    1  aco  u1.a_full       $end
$var wire    1  acp  u1.rf_er       $end
$var wire    1  acq  u1.tx_rdy       $end
$var wire    1  acr  u1.tx_rdys       $end
$var wire    1  acs  u1.tx_rdyc       $end
$var wire    1  act  u1.rx_rdy       $end
$var wire    1  acu  u1.rx_rdys       $end
$var wire    1  acv  u1.rx_rdyc       $end
$var wire    1  acw  u1.toi       $end
$var wire    1  acx  u1.toi_enc       $end
$var wire    1  acy  u1.itoi_enc       $end
$var wire    1  acz  u1.toi_set       $end
$var wire    1  ada  u1.itoi_set       $end
$var wire    1  adb  u1.toi_clr       $end
$var wire    1  adc  u1.toi_c_ld       $end
$var wire    1  add  u1.re_open       $end
$var wire    1  ade  u1.fe_open       $end
$var wire    1  adf  u1.iir_mspw_7       $end
$var wire    1  adg  u1.iir_mspw_6       $end
$var wire    1  adh  u1.iir_mspw_5       $end
$var wire    1  adi  u1.iir_mspw_4       $end
$var wire    1  adj  u1.iir_mspw_3       $end
$var wire    1  adk  u1.iir_mspw_2       $end
$var wire    1  adl  u1.iir_mspw_1       $end
$var wire    1  adm  u1.iir_mspw_0       $end
$var wire    1  adn  u1.iiir_mspw_3       $end
$var wire    1  ado  u1.iiir_mspw_2       $end
$var wire    1  adp  u1.iiir_mspw_1       $end
$var wire    1  adq  u1.iiir_mspw_0       $end
$var wire    1  adr  u1.lsr_mspw_7       $end
$var wire    1  ads  u1.lsr_mspw_6       $end
$var wire    1  adt  u1.lsr_mspw_5       $end
$var wire    1  adu  u1.lsr_mspw_4       $end
$var wire    1  adv  u1.lsr_mspw_3       $end
$var wire    1  adw  u1.lsr_mspw_2       $end
$var wire    1  adx  u1.lsr_mspw_1       $end
$var wire    1  ady  u1.lsr_mspw_0       $end
$var wire    1  adz  u1.msr_mspw_7       $end
$var wire    1  aea  u1.msr_mspw_6       $end
$var wire    1  aeb  u1.msr_mspw_5       $end
$var wire    1  aec  u1.msr_mspw_4       $end
$var wire    1  aed  u1.msr_mspw_3       $end
$var wire    1  aee  u1.msr_mspw_2       $end
$var wire    1  aef  u1.msr_mspw_1       $end
$var wire    1  aeg  u1.msr_mspw_0       $end
$var wire    1  aeh  u1.imsr_mspw_3       $end
$var wire    1  aei  u1.imsr_mspw_2       $end
$var wire    1  aej  u1.imsr_mspw_1       $end
$var wire    1  aek  u1.imsr_mspw_0       $end
$var wire    1  ael  u1.rf_di_mspw_10       $end
$var wire    1  aem  u1.rf_di_mspw_9       $end
$var wire    1  aen  u1.rf_di_mspw_8       $end
$var wire    1  aeo  u1.rf_di_mspw_7       $end
$var wire    1  aep  u1.rf_di_mspw_6       $end
$var wire    1  aeq  u1.rf_di_mspw_5       $end
$var wire    1  aer  u1.rf_di_mspw_4       $end
$var wire    1  aes  u1.rf_di_mspw_3       $end
$var wire    1  aet  u1.rf_di_mspw_2       $end
$var wire    1  aeu  u1.rf_di_mspw_1       $end
$var wire    1  aev  u1.rf_di_mspw_0       $end
$var wire    1  aew  u3.q0       $end
$var wire    1  aex  u3.q1       $end
$var wire    1  aey  u3.sfe       $end
$var wire    1  aez  u3.sre       $end
$var wire    1  afa  u3.fe       $end
$var wire    1  afb  u3.re       $end
$var wire    1  afc  u3.d       $end
$var wire    1  afd  u3.rst       $end
$var wire    1  afe  u2.ce       $end
$var wire    1  aff  u2.rst       $end
$var wire    1  afg  u1.irq       $end
$var wire    1  afh  u1.rxrdyn       $end
$var wire    1  afi  u1.txrdyn       $end
$var wire    1  afj  u1.out2n       $end
$var wire    1  afk  u1.out1n       $end
$var wire    1  afl  u1.rtsn       $end
$var wire    1  afm  u1.dtrn       $end
$var wire    1  afn  u1.stx       $end
$var wire    1  afo  u1.dcdn       $end
$var wire    1  afp  u1.rin       $end
$var wire    1  afq  u1.dsrn       $end
$var wire    1  afr  u1.ctsn       $end
$var wire    1  afs  u1.srx       $end
$var wire    1  aft  u1.wr;       $end
$var wire    1  afu  u1.cs       $end
$var wire    1  afv  u1.rst       $end
$var wire    1  afw  irq       $end
$var wire    1  afx  rxrdyn       $end
$var wire    1  afy  txrdyn       $end
$var wire    1  afz  out2n       $end
$var wire    1  aga  out1n       $end
$var wire    1  agb  rtsn       $end
$var wire    1  agc  dtrn       $end
$var wire    1  agd  stx       $end
$var wire    1  age  dcdn       $end
$var wire    1  agf  rin       $end
$var wire    1  agg  dsrn       $end
$var wire    1  agh  ctsn       $end
$var wire    1  agi  srx       $end
$var wire    1  agj  pwrite       $end
$var wire    1  agk  penable       $end
$var wire    1  agl  psel       $end
$var wire    1  agm  presetn       $end
$upscope $end
$enddefinitions  $end

$comment
All initial values are dumped below at time 0 sec = 0 timescale units.
$end

$dumpvars
0aaa
0aab
1aac
0aad
1aae
0aaf
0aag
0aah
0aai
0aaj
0aak
0aal
0aam
0aan
0aao
0aap
0aaq
0aar
0aas
0aat
0aau
0aav
0aaw
0aax
0aay
0aaz
0aba
0abb
0abc
0abd
0abe
0abf
0abg
0abh
0abi
0abj
0abk
0abl
0abm
0abn
0abo
0abp
0abq
0abr
1abs
0abt
0abu
0abv
0abw
0abx
0aby
1abz
0aca
0acb
xacc
xacd
0ace
0acf
0acg
0ach
1aci
0acj
1ack
xacl
0acm
0acn
0aco
0acp
0acq
1acr
0acs
0act
0acu
1acv
0acw
0acx
0acy
0acz
0ada
1adb
1adc
xadd
0ade
1adf
1adg
0adh
0adi
0adj
0adk
0adl
0adm
0adn
0ado
0adp
1adq
0adr
1ads
1adt
0adu
0adv
0adw
0adx
0ady
0adz
0aea
0aeb
0aec
0aed
0aee
0aef
0aeg
xaeh
xaei
xaej
xaek
0ael
0aem
0aen
0aeo
0aep
0aeq
0aer
0aes
0aet
0aeu
0aev
0aew
0aex
0aey
0aez
0afa
0afb
0afc
1afd
0afe
1aff
0afg
1afh
1afi
1afj
1afk
1afl
1afm
1afn
xafo
xafp
xafq
xafr
xafs
xaft
0afu
1afv
0afw
1afx
1afy
1afz
1aga
1agb
1agc
1agd
xage
xagf
xagg
xagh
xagi
xagj
xagk
xagl
0agm
$end

#2
1aaa
1aab
0aac
0aae
1afb
1afc
0afd
1afe
0aff
1aft
1afu
0afv
1agj
0agk
1agl
1agm

#4
0aaa
0aab
1aae
xaas
xaau
xaax
xaaz
xabb
xabd
xabf
xacf
xacg
1acq
xade
xadz
xaea
xaeb
xaec
1aew
1aez
1afa
0afb
0afc
0afe
0afi
0afu
0afy
1agk

#6
1aaa
1aab
0aae
1aah
xaat
xaay
xabe
1adm
0aew
1aex
1aey
0aez
0afa
1afb
1afc
1afe
1afu
0agk

#8
0aaa
0aab
1aae
0aah
1aew
0aex
0aey
1aez
1afa
0afb
0afc
0afe
0afu
1agk

#10
1aaa
1aab
0aae
1aah
0aew
1aex
1aey
0aez
0afa
1afb
1afc
1afe
1afu
0agk

#12
0aaa
0aab
1aae
0aah
1aew
0aex
0aey
1aez
1afa
0afb
0afc
0afe
0afu
1agk

#14
1aaa
1aab
0aae
0aew
1aex
1aey
0aez
0afa
1afb
1afc
1afe
1afu
0agk

#16
0aaa
0aab
1aae
1aew
0aex
0aey
1aez
1afa
0afb
0afc
0afe
0afu
1agk

#18
1aaa
1aab
0aae
0aew
1aex
1aey
0aez
0afa
1afb
1afc
1afe
1afu
0agk

#20
0aaa
0aab
1aae
1aai
1aew
0aex
0aey
1aez
1afa
0afb
0afc
0afe
0afu
1agk

#22
1aaa
1aab
0aae
1aag
0aew
1aex
1aey
0aez
0afa
1afb
1afc
1afe
1afu
0agk

#24
0aaa
0aab
1aae
0aag
0aai
1aew
0aex
0aey
1aez
1afa
0afb
0afc
0afe
0afu
1agk

#26
1aaa
1aab
0aae
1aaf
0add
1aej
1aek
0aew
1aex
1aey
0aez
0afa
1afb
1afc
1afe
0afq
0afr
1afu
0agg
0agh
0agk

#28
0aaa
0aab
1aae
0aaf
1aai
0aas
0aax
0ade
1aeb
1aec
1aew
0aex
0aey
1aez
1afa
0afb
0afc
0afe
0afu
1agk

#30
0aat
0aau
0aay
0aaz
0aew
1aex
1aey
0aez
0afa

#32
0aai
1aam
0abs
0acr
1acs
0ads
0adt
0aex
0aey

#34
0acq
1afi
1afy

#36
1aai

#40
0aai

#44
1aai
1abp

#48
0aai
0aam
0abp
1abs
0aci
0acs
1adt

#52
1aai
0ack
0afn
0agd

#56
0aai

#60
1aai

#64
0aai

#68
1aai

#72
0aai

#76
1aai

#80
0aai

#84
1aai

#88
0aai

#92
1aai

#96
0aai

#100
1aai

#104
0aai

#108
1aai

#112
0aai

#116
1aai

#120
0aai

#124
1aai

#128
0aai

#132
1aai

#136
0aai

#140
1aai

#144
0aai

#148
1aai

#152
0aai

#156
1aai

#160
0aai

#164
1aai

#168
0aai

#172
1aai

#176
0aai

#180
1aai

#184
0aai

#188
1aai

#192
0aai

#196
1aai

#200
0aai

#204
1aai

#208
0aai

#212
1aai

#216
0aai

#220
1aai

#224
0aai

#228
1aai

#232
0aai

#236
1aai

#240
0aai

#244
1aai

#248
0aai

#252
1aai

#256
0aai

#260
1aai

#264
0aai

#268
1aai

#272
0aai

#276
1aai

#280
0aai

#284
1aai

#288
0aai

#292
1aai

#296
0aai

#300
1aai

#304
0aai

#308
1aai

#312
0aai

#316
1aai

#320
0aai

#324
1aai

#328
0aai

#332
1aai

#336
0aai

#340
1aai

#344
0aai

#348
1aai

#352
0aai

#356
1aai

#360
0aai

#364
1aai

#368
0aai

#372
1aai

#376
0aai

#380
1aai

#384
0aai

#388
1aai

#392
0aai

#396
1aai

#400
0aai

#404
1aai

#408
0aai

#412
1aai

#416
0aai

#420
1aai

#424
0aai

#428
1aai

#432
0aai

#436
1aai

#440
0aai

#444
1aai

#448
0aai

#452
1aai

#456
0aai

#460
1aai

#464
0aai

#468
1aai

#472
0aai

#476
1aai

#480
0aai

#484
1aai

#488
0aai

#492
1aai

#496
0aai

#500
1aai

#504
0aai

#508
1aai

#512
0aai

#516
1aai

#520
0aai

#524
1aai

#528
0aai

#532
1aai

#536
0aai

#540
1aai

#544
0aai

#548
1aai

#552
0aai

#556
1aai

#560
0aai

#564
1aai

#568
0aai

#572
1aai

#576
0aai

#580
1aai

#584
0aai

#588
1aai

#592
0aai

#596
1aai

#600
0aai

#604
1aai

#608
0aai

#612
1aai

#616
0aai

#620
1aai

#624
0aai

#628
1aai

#632
0aai

#636
1aai

#640
0aai

#644
1aai

#648
0aai

#652
1aai

#656
0aai

#660
1aai

#664
0aai

#668
1aai

#672
0aai

#676
1aai

#680
0aai

#684
1aai

#688
0aai

#692
1aai

#696
0aai

#700
1aai

#704
0aai

#708
1aai

#712
0aai

#716
1aai

#720
0aai

#724
1aai

#728
0aai

#732
1aai

#736
0aai

#740
1aai

#744
0aai

#748
1aai

#752
0aai

#756
1aai

#760
0aai

#764
1aai

#768
0aai

#772
1aai

#776
0aai

#780
1aai

#784
0aai

#788
1aai

#792
0aai

#796
1aai

#800
0aai

#804
1aai

#808
0aai

#812
1aai

#816
0aai

#820
1aai

#824
0aai

#828
1aai

#832
0aai

#836
1aai

#840
0aai

#844
1aai

#848
0aai

#852
1aai

#856
0aai

#860
1aai

#864
0aai

#868
1aai

#872
0aai

#876
1aai

#880
0aai

#884
1aai

#888
0aai

#892
1aai

#896
0aai

#900
1aai

#904
0aai

#908
1aai

#912
0aai

#916
1aai

#920
0aai

#924
1aai

#928
0aai

#932
1aai

#936
0aai

#940
1aai

#944
0aai

#948
1aai

#952
0aai

#956
1aai

#960
0aai

#964
1aai

#968
0aai

#972
1aai

#976
0aai

#980
1aai

#984
0aai

#988
1aai

#992
0aai

#996
1aai

#1000
0aai

#1004
1aai

#1008
0aai

#1012
1aai

#1016
0aai

#1020
1aai

#1024
0aai

#1028
1aai

#1032
0aai

#1036
1aai

#1040
0aai

#1044
1aai

#1048
0aai

#1052
1aai

#1056
0aai

#1060
1aai

#1064
0aai

#1068
1aai

#1072
0aai

#1076
1aai

#1080
0aai

#1084
1aai

#1088
0aai

#1092
1aai

#1096
0aai

#1100
1aai

#1104
0aai

#1108
1aai

#1112
0aai

#1116
1aai

#1120
0aai

#1124
1aai

#1128
0aai

#1132
1aai

#1136
0aai

#1140
1aai

#1144
0aai

#1148
1aai

#1152
0aai

#1156
1aai

#1160
0aai

#1164
1aai

#1168
0aai

#1172
1aai

#1176
0aai

#1180
1aai

#1184
0aai

#1188
1aai

#1192
0aai

#1196
1aai

#1200
0aai

#1204
1aai
1ack
1afn
1agd

#1208
0aai

#1212
1aai

#1216
0aai

#1220
1aai

#1224
0aai

#1228
1aai

#1232
0aai

#1236
1aai

#1240
0aai

#1244
1aai

#1248
0aai

#1252
1aai

#1256
0aai

#1260
1aai

#1264
0aai

#1268
1aai

#1272
0aai

#1276
1aai

#1280
0aai

#1284
1aai

#1288
0aai

#1292
1aai

#1296
0aai

#1300
1aai

#1304
0aai

#1308
1aai

#1312
0aai

#1316
1aai

#1320
0aai

#1324
1aai

#1328
0aai
1aci
1acr
1ads

#1330
1acq
0afi
0afy

#1332
1aai

#1336
0aai

#1340
1aaa
1aab
0aae
1aaf
1aai
1afb
1afc
1afe
1afu
0agk

#1342
0aaa
0aab
1aae
0aaf
1aew
1aez
1afa
0afb
0afc
0afe
0afu
1agk

#1344
0aai
1aam
0abs
0acr
1acs
0ads
0adt
0aew
1aex
1aey
0aez
0afa

#1346
0acq
0aex
0aey
1afi
1afy

#1348
1aai

#1352
0aai

#1356
1aai
1abp

#1360
0aai
0aam
0abp
1abs
0aci
0acs
1adt

#1364
1aai
0ack
0afn
0agd

#1368
0aai

#1372
1aai

#1376
0aai

#1380
1aai

#1384
0aai

#1388
1aai

#1392
0aai

#1396
1aai

#1400
0aai

#1404
1aai

#1408
0aai

#1412
1aai

#1416
0aai

#1420
1aai

#1424
0aai

#1428
1aai

#1432
0aai

#1436
1aai

#1440
0aai

#1444
1aai

#1448
0aai

#1452
1aai

#1456
0aai

#1460
1aai

#1464
0aai

#1468
1aai

#1472
0aai

#1476
1aai

#1480
0aai

#1484
1aai

#1488
0aai

#1492
1aai
1ack
1afn
1agd

#1496
0aai

#1500
1aai

#1504
0aai

#1508
1aai

#1512
0aai

#1516
1aai

#1520
0aai

#1524
1aai

#1528
0aai

#1532
1aai

#1536
0aai

#1540
1aai

#1544
0aai

#1548
1aai

#1552
0aai

#1556
1aai

#1560
0aai

#1564
1aai

#1568
0aai

#1572
1aai

#1576
0aai

#1580
1aai

#1584
0aai

#1588
1aai

#1592
0aai

#1596
1aai

#1600
0aai

#1604
1aai

#1608
0aai

#1612
1aai

#1616
0aai

#1620
1aai
0ack
0afn
0agd

#1624
0aai

#1628
1aai

#1632
0aai

#1636
1aai

#1640
0aai

#1644
1aai

#1648
0aai

#1652
1aai

#1656
0aai

#1660
1aai

#1664
0aai

#1668
1aai

#1672
0aai

#1676
1aai

#1680
0aai

#1684
1aai

#1688
0aai

#1692
1aai

#1696
0aai

#1700
1aai

#1704
0aai

#1708
1aai

#1712
0aai

#1716
1aai

#1720
0aai

#1724
1aai

#1728
0aai

#1732
1aai

#1736
0aai

#1740
1aai

#1744
0aai

#1748
1aai

#1752
0aai

#1756
1aai

#1760
0aai

#1764
1aai

#1768
0aai

#1772
1aai

#1776
0aai

#1780
1aai

#1784
0aai

#1788
1aai

#1792
0aai

#1796
1aai

#1800
0aai

#1804
1aai

#1808
0aai

#1812
1aai

#1816
0aai

#1820
1aai

#1824
0aai

#1828
1aai

#1832
0aai

#1836
1aai

#1840
0aai

#1844
1aai

#1848
0aai

#1852
1aai

#1856
0aai

#1860
1aai

#1864
0aai

#1868
1aai

#1872
0aai

#1876
1aai

#1880
0aai

#1884
1aai

#1888
0aai

#1892
1aai

#1896
0aai

#1900
1aai

#1904
0aai

#1908
1aai

#1912
0aai

#1916
1aai

#1920
0aai

#1924
1aai

#1928
0aai

#1932
1aai

#1936
0aai

#1940
1aai

#1944
0aai

#1948
1aai

#1952
0aai

#1956
1aai

#1960
0aai

#1964
1aai

#1968
0aai

#1972
1aai

#1976
0aai

#1980
1aai

#1984
0aai

#1988
1aai

#1992
0aai

#1996
1aai

#2000
0aai

#2004
1aai

#2008
0aai

#2012
1aai

#2016
0aai

#2020
1aai

#2024
0aai

#2028
1aai

#2032
0aai

#2036
1aai

#2040
0aai

#2044
1aai

#2048
0aai

#2052
1aai

#2056
0aai

#2060
1aai

#2064
0aai

#2068
1aai

#2072
0aai

#2076
1aai

#2080
0aai

#2084
1aai

#2088
0aai

#2092
1aai

#2096
0aai

#2100
1aai

#2104
0aai

#2108
1aai

#2112
0aai

#2116
1aai

#2120
0aai

#2124
1aai

#2128
0aai

#2132
1aai

#2136
0aai

#2140
1aai

#2144
0aai

#2148
1aai

#2152
0aai

#2156
1aai

#2160
0aai

#2164
1aai

#2168
0aai

#2172
1aai

#2176
0aai

#2180
1aai

#2184
0aai

#2188
1aai

#2192
0aai

#2196
1aai

#2200
0aai

#2204
1aai

#2208
0aai

#2212
1aai

#2216
0aai

#2220
1aai

#2224
0aai

#2228
1aai

#2232
0aai

#2236
1aai

#2240
0aai

#2244
1aai

#2248
0aai

#2252
1aai

#2256
0aai

#2260
1aai

#2264
0aai

#2268
1aai

#2272
0aai

#2276
1aai

#2280
0aai

#2284
1aai

#2288
0aai

#2292
1aai

#2296
0aai

#2300
1aai

#2304
0aai

#2308
1aai

#2312
0aai

#2316
1aai

#2320
0aai

#2324
1aai

#2328
0aai

#2332
1aai

#2336
0aai

#2340
1aai

#2344
0aai

#2348
1aai

#2352
0aai

#2356
1aai

#2360
0aai

#2364
1aai

#2368
0aai

#2372
1aai

#2376
0aai

#2380
1aai

#2384
0aai

#2388
1aai

#2392
0aai

#2396
1aai

#2400
0aai

#2404
1aai

#2408
0aai

#2412
1aai

#2416
0aai

#2420
1aai

#2424
0aai

#2428
1aai

#2432
0aai

#2436
1aai

#2440
0aai

#2444
1aai

#2448
0aai

#2452
1aai

#2456
0aai

#2460
1aai

#2464
0aai

#2468
1aai

#2472
0aai

#2476
1aai

#2480
0aai

#2484
1aai

#2488
0aai

#2492
1aai

#2496
0aai

#2500
1aai

#2504
0aai

#2508
1aai

#2512
0aai

#2516
1aai
1ack
1afn
1agd

#2520
0aai

#2524
1aai

#2528
0aai

#2532
1aai

#2536
0aai

#2540
1aai

#2544
0aai

#2548
1aai

#2552
0aai

#2556
1aai

#2560
0aai

#2564
1aai

#2568
0aai

#2572
1aai

#2576
0aai

#2580
1aai

#2584
0aai

#2588
1aai

#2592
0aai

#2596
1aai

#2600
0aai

#2604
1aai

#2608
0aai

#2612
1aai

#2616
0aai

#2620
1aai

#2624
0aai

#2628
1aai

#2632
0aai

#2636
1aai

#2640
0aai
1aci
1acr
1ads

#2642
1acq
0afi
0afy

#2644
1aai

#2648
0aai

#2652
1aaa
1aab
0aae
1aaf
1aai
1afb
1afc
1afe
1afu
0agk

#2654
0aaa
0aab
1aae
0aaf
1aew
1aez
1afa
0afb
0afc
0afe
0afu
1agk

#2656
0aai
1aam
0abs
0acr
1acs
0ads
0adt
0aew
1aex
1aey
0aez
0afa

#2658
0acq
0aex
0aey
1afi
1afy

#2660
1aai

#2664
0aai

#2668
1aai
1abp

#2672
0aai
0aam
0abp
1abs
0aci
0acs
1adt

#2676
1aai
0ack
0afn
0agd

#2680
0aai

#2684
1aai

#2688
0aai

#2692
1aai

#2696
0aai

#2700
1aai

#2704
0aai

#2708
1aai

#2712
0aai

#2716
1aai

#2720
0aai

#2724
1aai

#2728
0aai

#2732
1aai

#2736
0aai

#2740
1aai

#2744
0aai

#2748
1aai

#2752
0aai

#2756
1aai

#2760
0aai

#2764
1aai

#2768
0aai

#2772
1aai

#2776
0aai

#2780
1aai

#2784
0aai

#2788
1aai

#2792
0aai

#2796
1aai

#2800
0aai

#2804
1aai

#2808
0aai

#2812
1aai

#2816
0aai

#2820
1aai

#2824
0aai

#2828
1aai

#2832
0aai

#2836
1aai

#2840
0aai

#2844
1aai

#2848
0aai

#2852
1aai

#2856
0aai

#2860
1aai

#2864
0aai

#2868
1aai

#2872
0aai

#2876
1aai

#2880
0aai

#2884
1aai

#2888
0aai

#2892
1aai

#2896
0aai

#2900
1aai

#2904
0aai

#2908
1aai

#2912
0aai

#2916
1aai

#2920
0aai

#2924
1aai

#2928
0aai

#2932
1aai
1ack
1afn
1agd

#2936
0aai

#2940
1aai

#2944
0aai

#2948
1aai

#2952
0aai

#2956
1aai

#2960
0aai

#2964
1aai

#2968
0aai

#2972
1aai

#2976
0aai

#2980
1aai

#2984
0aai

#2988
1aai

#2992
0aai

#2996
1aai

#3000
0aai

#3004
1aai

#3008
0aai

#3012
1aai

#3016
0aai

#3020
1aai

#3024
0aai

#3028
1aai

#3032
0aai

#3036
1aai

#3040
0aai

#3044
1aai

#3048
0aai

#3052
1aai

#3056
0aai

#3060
1aai
0ack
0afn
0agd

#3064
0aai

#3068
1aai

#3072
0aai

#3076
1aai

#3080
0aai

#3084
1aai

#3088
0aai

#3092
1aai

#3096
0aai

#3100
1aai

#3104
0aai

#3108
1aai

#3112
0aai

#3116
1aai

#3120
0aai

#3124
1aai

#3128
0aai

#3132
1aai

#3136
0aai

#3140
1aai

#3144
0aai

#3148
1aai

#3152
0aai

#3156
1aai

#3160
0aai

#3164
1aai

#3168
0aai

#3172
1aai

#3176
0aai

#3180
1aai

#3184
0aai

#3188
1aai

#3192
0aai

#3196
1aai

#3200
0aai

#3204
1aai

#3208
0aai

#3212
1aai

#3216
0aai

#3220
1aai

#3224
0aai

#3228
1aai

#3232
0aai

#3236
1aai

#3240
0aai

#3244
1aai

#3248
0aai

#3252
1aai

#3256
0aai

#3260
1aai

#3264
0aai

#3268
1aai

#3272
0aai

#3276
1aai

#3280
0aai

#3284
1aai

#3288
0aai

#3292
1aai

#3296
0aai

#3300
1aai

#3304
0aai

#3308
1aai

#3312
0aai

#3316
1aai

#3320
0aai

#3324
1aai

#3328
0aai

#3332
1aai

#3336
0aai

#3340
1aai

#3344
0aai

#3348
1aai

#3352
0aai

#3356
1aai

#3360
0aai

#3364
1aai

#3368
0aai

#3372
1aai

#3376
0aai

#3380
1aai

#3384
0aai

#3388
1aai

#3392
0aai

#3396
1aai

#3400
0aai

#3404
1aai

#3408
0aai

#3412
1aai

#3416
0aai

#3420
1aai

#3424
0aai

#3428
1aai

#3432
0aai

#3436
1aai

#3440
0aai

#3444
1aai

#3448
0aai

#3452
1aai

#3456
0aai

#3460
1aai

#3464
0aai

#3468
1aai

#3472
0aai

#3476
1aai

#3480
0aai

#3484
1aai

#3488
0aai

#3492
1aai

#3496
0aai

#3500
1aai

#3504
0aai

#3508
1aai

#3512
0aai

#3516
1aai

#3520
0aai

#3524
1aai

#3528
0aai

#3532
1aai

#3536
0aai

#3540
1aai

#3544
0aai

#3548
1aai

#3552
0aai

#3556
1aai

#3560
0aai

#3564
1aai

#3568
0aai

#3572
1aai

#3576
0aai

#3580
1aai

#3584
0aai

#3588
1aai

#3592
0aai

#3596
1aai

#3600
0aai

#3604
1aai

#3608
0aai

#3612
1aai

#3616
0aai

#3620
1aai

#3624
0aai

#3628
1aai

#3632
0aai

#3636
1aai

#3640
0aai

#3644
1aai

#3648
0aai

#3652
1aai

#3656
0aai

#3660
1aai

#3664
0aai

#3668
1aai

#3672
0aai

#3676
1aai

#3680
0aai

#3684
1aai

#3688
0aai

#3692
1aai

#3696
0aai

#3700
1aai

#3704
0aai

#3708
1aai

#3712
0aai

#3716
1aai

#3720
0aai

#3724
1aai

#3728
0aai

#3732
1aai

#3736
0aai

#3740
1aai

#3744
0aai

#3748
1aai

#3752
0aai

#3756
1aai

#3760
0aai

#3764
1aai

#3768
0aai

#3772
1aai

#3776
0aai

#3780
1aai

#3784
0aai

#3788
1aai

#3792
0aai

#3796
1aai

#3800
0aai

#3804
1aai

#3808
0aai

#3812
1aai

#3816
0aai

#3820
1aai

#3824
0aai

#3828
1aai
1ack
1afn
1agd

#3832
0aai

#3836
1aai

#3840
0aai

#3844
1aai

#3848
0aai

#3852
1aai

#3856
0aai

#3860
1aai

#3864
0aai

#3868
1aai

#3872
0aai

#3876
1aai

#3880
0aai

#3884
1aai

#3888
0aai

#3892
1aai

#3896
0aai

#3900
1aai

#3904
0aai

#3908
1aai

#3912
0aai

#3916
1aai

#3920
0aai

#3924
1aai

#3928
0aai

#3932
1aai

#3936
0aai

#3940
1aai

#3944
0aai

#3948
1aai

#3952
0aai
1aci
1acr
1ads

#3954
1acq
0afi
0afy

#3956
1aai

#3960
0aai

#3964
1aaa
1aab
0aae
1aaf
1aai
1afb
1afc
1afe
1afu
0agk

#3966
0aaa
0aab
1aae
0aaf
1aew
1aez
1afa
0afb
0afc
0afe
0afu
1agk

#3968
0aai
1aam
0abs
0acr
1acs
0ads
0adt
0aew
1aex
1aey
0aez
0afa

#3970
0acq
0aex
0aey
1afi
1afy

#3972
1aai

#3976
0aai

#3980
1aai
1abp

#3984
0aai
0aam
0abp
1abs
0aci
0acs
1adt

#3988
1aai
0ack
0afn
0agd

#3992
0aai

#3996
1aai

#4000
0aai

#4004
1aai

#4008
0aai

#4012
1aai

#4016
0aai

#4020
1aai

#4024
0aai

#4028
1aai

#4032
0aai

#4036
1aai

#4040
0aai

#4044
1aai

#4048
0aai

#4052
1aai

#4056
0aai

#4060
1aai

#4064
0aai

#4068
1aai

#4072
0aai

#4076
1aai

#4080
0aai

#4084
1aai

#4088
0aai

#4092
1aai

#4096
0aai

#4100
1aai

#4104
0aai

#4108
1aai

#4112
0aai

#4116
1aai
1ack
1afn
1agd

#4120
0aai

#4124
1aai

#4128
0aai

#4132
1aai

#4136
0aai

#4140
1aai

#4144
0aai

#4148
1aai

#4152
0aai

#4156
1aai

#4160
0aai

#4164
1aai

#4168
0aai

#4172
1aai

#4176
0aai

#4180
1aai

#4184
0aai

#4188
1aai

#4192
0aai

#4196
1aai

#4200
0aai

#4204
1aai

#4208
0aai

#4212
1aai

#4216
0aai

#4220
1aai

#4224
0aai

#4228
1aai

#4232
0aai

#4236
1aai

#4240
0aai

#4244
1aai

#4248
0aai

#4252
1aai

#4256
0aai

#4260
1aai

#4264
0aai

#4268
1aai

#4272
0aai

#4276
1aai

#4280
0aai

#4284
1aai

#4288
0aai

#4292
1aai

#4296
0aai

#4300
1aai

#4304
0aai

#4308
1aai

#4312
0aai

#4316
1aai

#4320
0aai

#4324
1aai

#4328
0aai

#4332
1aai

#4336
0aai

#4340
1aai

#4344
0aai

#4348
1aai

#4352
0aai

#4356
1aai

#4360
0aai

#4364
1aai

#4368
0aai

#4372
1aai
0ack
0afn
0agd

#4376
0aai

#4380
1aai

#4384
0aai

#4388
1aai

#4392
0aai

#4396
1aai

#4400
0aai

#4404
1aai

#4408
0aai

#4412
1aai

#4416
0aai

#4420
1aai

#4424
0aai

#4428
1aai

