mangrove_master/regression/jpeg_rle/jpeg_rle_numeric.vcd
$date
     May 19, 2016       19:32:26
$end

$version
              SystemC 2.3.0-ASI --- Jan 21 2013 09:04:20
$end

$timescale
     100 ps
$end

$scope module SystemC $end
$var wire    8  aaa  jpeg_enc.rle.rlen_rlen [7:0]  $end
$var wire    8  aab  jpeg_enc.rle.rz1_rlen [7:0]  $end
$var wire    8  aac  jpeg_enc.rle.rz2_rlen [7:0]  $end
$var wire    8  aad  jpeg_enc.rle.rz3_rlen [7:0]  $end
$var wire    8  aae  jpeg_enc.rle.rz4_rlen [7:0]  $end
$var wire    8  aaf  jpeg_enc.rle.rle_size [7:0]  $end
$var wire    8  aag  jpeg_enc.rle.rz1_size [7:0]  $end
$var wire    8  aah  jpeg_enc.rle.rz2_size [7:0]  $end
$var wire    8  aai  jpeg_enc.rle.rz3_size [7:0]  $end
$var wire    8  aaj  jpeg_enc.rle.rz4_size [7:0]  $end
$var wire   16  aak  jpeg_enc.rle.rle_amp [15:0]  $end
$var wire   16  aal  jpeg_enc.rle.rz1_amp [15:0]  $end
$var wire   16  aam  jpeg_enc.rle.rz2_amp [15:0]  $end
$var wire   16  aan  jpeg_enc.rle.rz3_amp [15:0]  $end
$var wire   16  aao  jpeg_enc.rle.rz4_amp [15:0]  $end
$var wire    4  aaaap  jpeg_enc.rle.rle.rlen [3:0]  $end
$var wire    4  aaaaq  jpeg_enc.rle.rle.size [3:0]  $end
$var wire   12  aaaar  jpeg_enc.rle.rle.amp [11:0]  $end
$var wire    8  aas  jpeg_enc.rle.rle.sample_cnt_ [7:0]  $end
$var wire    6  aaaat  jpeg_enc.rle.rle.sample_cnt [5:0]  $end
$var wire    8  aau  jpeg_enc.rle.rle.zero_cnt [7:0]  $end
$var wire    8  aav  jpeg_enc.rle.rz1.size [7:0]  $end
$var wire    8  aaw  jpeg_enc.rle.rz1.rlen [7:0]  $end
$var wire   16  aax  jpeg_enc.rle.rz1.amp [15:0]  $end
$var wire    4  aaaay  jpeg_enc.rle.rz1.rleno_sign [3:0]  $end
$var wire    4  aaaaz  jpeg_enc.rle.rz1.sizeo_sign [3:0]  $end
$var wire   12  aaaba  jpeg_enc.rle.rz1.ampo_sign [11:0]  $end
$var wire    8  abb  jpeg_enc.rle.rz2.size [7:0]  $end
$var wire    8  abc  jpeg_enc.rle.rz2.rlen [7:0]  $end
$var wire   16  abd  jpeg_enc.rle.rz2.amp [15:0]  $end
$var wire    4  aaabe  jpeg_enc.rle.rz2.rleno_sign [3:0]  $end
$var wire    4  aaabf  jpeg_enc.rle.rz2.sizeo_sign [3:0]  $end
$var wire   12  aaabg  jpeg_enc.rle.rz2.ampo_sign [11:0]  $end
$var wire    8  abh  jpeg_enc.rle.rz3.size [7:0]  $end
$var wire    8  abi  jpeg_enc.rle.rz3.rlen [7:0]  $end
$var wire   16  abj  jpeg_enc.rle.rz3.amp [15:0]  $end
$var wire    4  aaabk  jpeg_enc.rle.rz3.rleno_sign [3:0]  $end
$var wire    4  aaabl  jpeg_enc.rle.rz3.sizeo_sign [3:0]  $end
$var wire   12  aaabm  jpeg_enc.rle.rz3.ampo_sign [11:0]  $end
$var wire    8  abn  jpeg_enc.rle.rz4.size [7:0]  $end
$var wire    8  abo  jpeg_enc.rle.rz4.rlen [7:0]  $end
$var wire   16  abp  jpeg_enc.rle.rz4.amp [15:0]  $end
$var wire    4  aaabq  jpeg_enc.rle.rz4.rleno_sign [3:0]  $end
$var wire    4  aaabr  jpeg_enc.rle.rz4.sizeo_sign [3:0]  $end
$var wire   12  aaabs  jpeg_enc.rle.rz4.ampo_sign [11:0]  $end
$var wire   16  abt  jpeg_enc.rle.rz4.ampo [15:0]  $end
$var wire    8  abu  jpeg_enc.rle.rz4.sizeo [7:0]  $end
$var wire    8  abv  jpeg_enc.rle.rz4.rleno [7:0]  $end
$var wire   16  abw  jpeg_enc.rle.rz4.ampi [15:0]  $end
$var wire    8  abx  jpeg_enc.rle.rz4.sizei [7:0]  $end
$var wire    8  aby  jpeg_enc.rle.rz4.rleni [7:0]  $end
$var wire   16  abz  jpeg_enc.rle.rz3.ampo [15:0]  $end
$var wire    8  aca  jpeg_enc.rle.rz3.sizeo [7:0]  $end
$var wire    8  acb  jpeg_enc.rle.rz3.rleno [7:0]  $end
$var wire   16  acc  jpeg_enc.rle.rz3.ampi [15:0]  $end
$var wire    8  acd  jpeg_enc.rle.rz3.sizei [7:0]  $end
$var wire    8  ace  jpeg_enc.rle.rz3.rleni [7:0]  $end
$var wire   16  acf  jpeg_enc.rle.rz2.ampo [15:0]  $end
$var wire    8  acg  jpeg_enc.rle.rz2.sizeo [7:0]  $end
$var wire    8  ach  jpeg_enc.rle.rz2.rleno [7:0]  $end
$var wire   16  aci  jpeg_enc.rle.rz2.ampi [15:0]  $end
$var wire    8  acj  jpeg_enc.rle.rz2.sizei [7:0]  $end
$var wire    8  ack  jpeg_enc.rle.rz2.rleni [7:0]  $end
$var wire   16  acl  jpeg_enc.rle.rz1.ampo [15:0]  $end
$var wire    8  acm  jpeg_enc.rle.rz1.sizeo [7:0]  $end
$var wire    8  acn  jpeg_enc.rle.rz1.rleno [7:0]  $end
$var wire   16  aco  jpeg_enc.rle.rz1.ampi [15:0]  $end
$var wire    8  acp  jpeg_enc.rle.rz1.sizei [7:0]  $end
$var wire    8  acq  jpeg_enc.rle.rz1.rleni [7:0]  $end
$var wire   16  acr  jpeg_enc.rle.rle.amp_ [15:0]  $end
$var wire    8  acs  jpeg_enc.rle.rle.size_ [7:0]  $end
$var wire    8  act  jpeg_enc.rle.rle.rlen_ [7:0]  $end
$var wire   16  acu  jpeg_enc.rle.rle.din [15:0]  $end
$var wire   16  acv  jpeg_enc.rle.amp [15:0]  $end
$var wire    8  acw  jpeg_enc.rle.rlen [7:0]  $end
$var wire    8  acx  jpeg_enc.rle.size [7:0]  $end
$var wire   16  acy  jpeg_enc.rle.din [15:0]  $end
$upscope $end
$enddefinitions  $end

$comment
All initial values are dumped below at time 0 sec = 0 timescale units.
$end

$dumpvars
b0 aaa
b10000000 aab
b10000000 aac
b10000000 aad
b10000000 aae
b0 aaf
b10000000 aag
b10000000 aah
b10000000 aai
b10000000 aaj
b1000000000000000 aak
b1000000000000000 aal
b1000000000000000 aam
b1000000000000000 aan
b1000000000000000 aao
b0 aaaap
b0 aaaaq
bXXXXXXXXXXXX aaaar
b10000000 aas
b0 aaaat
b0 aau
b10000000 aav
b10000000 aaw
b1000000000000000 aax
b0 aaaay
b0 aaaaz
b0 aaaba
b10000000 abb
b10000000 abc
b1000000000000000 abd
b0 aaabe
b0 aaabf
b0 aaabg
b10000000 abh
b10000000 abi
b1000000000000000 abj
b0 aaabk
b0 aaabl
b0 aaabm
b10000000 abn
b10000000 abo
b1000000000000000 abp
b0 aaabq
b0 aaabr
b0 aaabs
b1000000000000000 abt
b10000000 abu
b10000000 abv
b1000000000000000 abw
b10000000 abx
b10000000 aby
b1000000000000000 abz
b10000000 aca
b10000000 acb
b1000000000000000 acc
b10000000 acd
b10000000 ace
b1000000000000000 acf
b10000000 acg
b10000000 ach
b1000000000000000 aci
b10000000 acj
b10000000 ack
b1000000000000000 acl
b10000000 acm
b10000000 acn
b1000000000000000 aco
b0 acp
b0 acq
b1000000000000000 acr
b0 acs
b0 act
b1000000000000000 acu
b1000000000000000 acv
b10000000 acw
b10000000 acx
b1000000000000000 acy
$end

#180
b1011 aaf
b1011 aaaaq
b1011 acp
b1011 acs

#6420
b1 acu
b1 acy

#6480
b1 aaf
b1 aak
b1 aaaaq
b1 aaaar
b1 aas
b1 aaaat
b1 aco
b1 acp
b1 acr
b1 acs
b0 acu
b0 acy

#6540
b0 aaf
b0 aak
b0 aaaaq
b0 aaaar
b10 aas
b10 aaaat
b1 aau
b1 aav
b0 aaw
b1 aax
b0 aco
b0 acp
b0 acr
b0 acs

#6600
b1 aaa
b0 aab
b1 aag
b1 aal
b1 aaaap
b11 aas
b11 aaaat
b10 aau
b1 aaaaz
b1 aaaba
b1 aci
b1 acj
b0 ack
b1 acl
b1 acm
b0 acn
b1 acq
b1 act

#6660
b10 aaa
b10 aaaap
b100 aas
b100 aaaat
b11 aau
b1 abb
b0 abc
b1 abd
b10 acq
b10 act

#6720
b11 aaa
b0 aac
b1 aah
b1 aam
b11 aaaap
b101 aas
b101 aaaat
b100 aau
b1 aaabf
b1 aaabg
b1 acc
b1 acd
b0 ace
b1 acf
b1 acg
b0 ach
b11 acq
b11 act

#6780
b100 aaa
b100 aaaap
b110 aas
b110 aaaat
b101 aau
b1 abh
b0 abi
b1 abj
b100 acq
b100 act

#6840
b101 aaa
b0 aad
b1 aai
b1 aan
b101 aaaap
b111 aas
b111 aaaat
b110 aau
b1 aaabl
b1 aaabm
b1 abw
b1 abx
b0 aby
b1 abz
b1 aca
b0 acb
b101 acq
b101 act
b1 acu
b1 acy

#6900
b110 aaa
b1 aaf
b1 aak
b110 aaaap
b1 aaaaq
b1 aaaar
b1000 aas
b1000 aaaat
b0 aau
b1 abn
b0 abo
b1 abp
b1 aco
b1 acp
b110 acq
b1 acr
b1 acs
b110 act
b0 acu
b0 acy

#6960
b0 aaa
b0 aae
b0 aaf
b1 aaj
b0 aak
b1 aao
b0 aaaap
b0 aaaaq
b0 aaaar
b1001 aas
b1001 aaaat
b1 aau
b110 aaw
b1 aaabr
b1 aaabs
b1 abt
b1 abu
b0 abv
b0 aco
b0 acp
b0 acq
b0 acr
b0 acs
b0 act
b1 acv
b0 acw
b1 acx

#7020
b1 aaa
b110 aab
b1 aaaap
b1010 aas
b1010 aaaat
b10 aau
b110 aaaay
b110 ack
b110 acn
b1 acq
b1 act

#7080
b10 aaa
b10 aaaap
b1011 aas
b1011 aaaat
b11 aau
b110 abc
b10 acq
b10 act

#7140
b11 aaa
b110 aac
b11 aaaap
b1100 aas
b1100 aaaat
b100 aau
b110 aaabe
b110 ace
b110 ach
b11 acq
b11 act

#7200
b100 aaa
b100 aaaap
b1101 aas
b1101 aaaat
b101 aau
b110 abi
b100 acq
b100 act

#7260
b101 aaa
b110 aad
b101 aaaap
b1110 aas
b1110 aaaat
b110 aau
b110 aaabk
b110 aby
b110 acb
b101 acq
b101 act

#7320
b110 aaa
b110 aaaap
b1111 aas
b1111 aaaat
b111 aau
b110 abo
b110 acq
b110 act
b1 acu
b1 acy

#7380
b111 aaa
b110 aae
b1 aaf
b1 aak
b111 aaaap
b1 aaaaq
b1 aaaar
b10000 aas
b10000 aaaat
b0 aau
b110 aaabq
b110 abv
b1 aco
b1 acp
b111 acq
b1 acr
b1 acs
b111 act
b110 acw

#7440
b0 aaa
b0 aaaap
b10001 aas
b10001 aaaat
b111 aaw
b0 acq
b0 act

#7500
b111 aab
b10010 aas
b10010 aaaat
b0 aaw
b111 aaaay
b111 ack
b111 acn
b0 acu
b0 acy

#7560
b0 aab
b0 aaf
b0 aak
b0 aaaaq
b0 aaaar
b10011 aas
b10011 aaaat
b1 aau
b0 aaaay
b111 abc
b0 ack
b0 acn
b0 aco
b0 acp
b0 acr
b0 acs

#7620
b1 aaa
b111 aac
b1 aaaap
b10100 aas
b10100 aaaat
b10 aau
b0 abc
b111 aaabe
b111 ace
b111 ach
b1 acq
b1 act
b111111111111 acu
b111111111111 acy

#7680
b10 aaa
b0 aac
b1 aaf
b11111111110 aak
b10 aaaap
b1 aaaaq
b11111111110 aaaar
b10101 aas
b10101 aaaat
b0 aau
b0 aaabe
b111 abi
b0 ace
b0 ach
b11111111110 aco
b1 acp
b10 acq
b11111111110 acr
b1 acs
b10 act
b0 acu
b0 acy

#7740
b0 aaa
b111 aad
b0 aaf
b0 aak
b0 aaaap
b0 aaaaq
b0 aaaar
b10110 aas
b10110 aaaat
b1 aau
b10 aaw
b11111111110 aax
b0 abi
b111 aaabk
b111 aby
b111 acb
b0 aco
b0 acp
b0 acq
b0 acr
b0 acs
b0 act

#7800
b1 aaa
b10 aab
b0 aad
b11111111110 aal
b1 aaaap
b10111 aas
b10111 aaaat
b10 aau
b10 aaaay
b11111111110 aaaba
b0 aaabk
b111 abo
b0 aby
b0 acb
b11111111110 aci
b10 ack
b11111111110 acl
b10 acn
b1 acq
b1 act
b111111111111 acu
b111111111111 acy

#7860
b10 aaa
b111 aae
b1 aaf
b11111111110 aak
b10 aaaap
b1 aaaaq
b11111111110 aaaar
b11000 aas
b11000 aaaat
b0 aau
b10 abc
b11111111110 abd
b0 abo
b111 aaabq
b111 abv
b11111111110 aco
b1 acp
b10 acq
b11111111110 acr
b1 acs
b10 act
b1 acu
b111 acw
b1 acy

#7920
b0 aaa
b10 aac
b0 aae
b1 aak
b11111111110 aam
b0 aaaap
b1 aaaar
b11001 aas
b11001 aaaat
b10 aaabe
b11111111110 aaabg
b0 aaabq
b0 abv
b11111111110 acc
b10 ace
b11111111110 acf
b10 ach
b1 aco
b0 acq
b1 acr
b0 act
b0 acu
b0 acw
b0 acy

#7980
b0 aaf
b0 aak
b0 aaaaq
b0 aaaar
b11010 aas
b11010 aaaat
b1 aau
b0 aaw
b1 aax
b10 abi
b11111111110 abj
b0 aco
b0 acp
b0 acr
b0 acs

#8040
b1 aaa
b0 aab
b10 aad
b1 aal
b11111111110 aan
b1 aaaap
b11011 aas
b11011 aaaat
b10 aau
b0 aaaay
b1 aaaba
b10 aaabk
b11111111110 aaabm
b11111111110 abw
b10 aby
b11111111110 abz
b10 acb
b1 aci
b0 ack
b1 acl
b0 acn
b1 acq
b1 act

#8100
b10 aaa
b10 aaaap
b11100 aas
b11100 aaaat
b11 aau
b0 abc
b1 abd
b10 abo
b11111111110 abp
b10 acq
b10 act

#8160
b11 aaa
b0 aac
b10 aae
b1 aam
b11111111110 aao
b11 aaaap
b11101 aas
b11101 aaaat
b100 aau
b0 aaabe
b1 aaabg
b10 aaabq
b11111111110 aaabs
b11111111110 abt
b10 abv
b1 acc
b0 ace
b1 acf
b0 ach
b11 acq
b11 act
b11111111110 acv
b10 acw

#8220
b100 aaa
b100 aaaap
b11110 aas
b11110 aaaat
b101 aau
b0 abi
b1 abj
b100 acq
b100 act

#8280
b101 aaa
b0 aad
b1 aan
b101 aaaap
b11111 aas
b11111 aaaat
b110 aau
b0 aaabk
b1 aaabm
b1 abw
b0 aby
b1 abz
b0 acb
b101 acq
b101 act
b1 acu
b1 acy

#8340
b110 aaa
b1 aaf
b1 aak
b110 aaaap
b1 aaaaq
b1 aaaar
b100000 aas
b100000 aaaat
b0 aau
b0 abo
b1 abp
b1 aco
b1 acp
b110 acq
b1 acr
b1 acs
b110 act
b0 acu
b0 acy

#8400
b0 aaa
b0 aae
b0 aaf
b0 aak
b1 aao
b0 aaaap
b0 aaaaq
b0 aaaar
b100001 aas
b100001 aaaat
b1 aau
b110 aaw
b0 aaabq
b1 aaabs
b1 abt
b0 abv
b0 aco
b0 acp
b0 acq
b0 acr
b0 acs
b0 act
b1 acv
b0 acw

#8460
b1 aaa
b110 aab
b1 aaaap
b100010 aas
b100010 aaaat
b10 aau
b110 aaaay
b110 ack
b110 acn
b1 acq
b1 act

#8520
b10 aaa
b10 aaaap
b100011 aas
b100011 aaaat
b11 aau
b110 abc
b10 acq
b10 act

#8580
b11 aaa
b110 aac
b11 aaaap
b100100 aas
b100100 aaaat
b100 aau
b110 aaabe
b110 ace
b110 ach
b11 acq
b11 act

#8640
b100 aaa
b100 aaaap
b100101 aas
b100101 aaaat
b101 aau
b110 abi
b100 acq
b100 act

#8700
b101 aaa
b110 aad
b101 aaaap
b100110 aas
b100110 aaaat
b110 aau
b110 aaabk
b110 aby
b110 acb
b101 acq
b101 act
b111111111111 acu
b111111111111 acy

#8760
b110 aaa
b1 aaf
b11111111110 aak
b110 aaaap
b1 aaaaq
b11111111110 aaaar
b100111 aas
b100111 aaaat
b0 aau
b110 abo
b11111111110 aco
b1 acp
b110 acq
b11111111110 acr
b1 acs
b110 act
b0 acu
b0 acy

#8820
b0 aaa
b110 aae
b0 aaf
b0 aak
b0 aaaap
b0 aaaaq
b0 aaaar
b101000 aas
b101000 aaaat
b1 aau
b11111111110 aax
b110 aaabq
b110 abv
b0 aco
b0 acp
b0 acq
b0 acr
b0 acs
b0 act
b110 acw

#8880
b1 aaa
b11111111110 aal
b1 aaaap
b101001 aas
b101001 aaaat
b10 aau
b11111111110 aaaba
b11111111110 aci
b11111111110 acl
b1 acq
b1 act
b111111111111 acu
b111111111111 acy

#8940
b10 aaa
b1 aaf
b11111111110 aak
b10 aaaap
b1 aaaaq
b11111111110 aaaar
b101010 aas
b101010 aaaat
b0 aau
b11111111110 abd
b11111111110 aco
b1 acp
b10 acq
b11111111110 acr
b1 acs
b10 act
b0 acu
b0 acy

#9000
b0 aaa
b0 aaf
b0 aak
b11111111110 aam
b0 aaaap
b0 aaaaq
b0 aaaar
b101011 aas
b101011 aaaat
b1 aau
b10 aaw
b11111111110 aaabg
b11111111110 acc
b11111111110 acf
b0 aco
b0 acp
b0 acq
b0 acr
b0 acs
b0 act

#9060
b1 aaa
b10 aab
b1 aaaap
b101100 aas
b101100 aaaat
b10 aau
b10 aaaay
b11111111110 abj
b10 ack
b10 acn
b1 acq
b1 act

#9120
b10 aaa
b11111111110 aan
b10 aaaap
b101101 aas
b101101 aaaat
b11 aau
b10 abc
b11111111110 aaabm
b11111111110 abw
b11111111110 abz
b10 acq
b10 act
b1 acu
b1 acy

#9180
b11 aaa
b10 aac
b1 aaf
b1 aak
b11 aaaap
b1 aaaaq
b1 aaaar
b101110 aas
b101110 aaaat
b0 aau
b10 aaabe
b11111111110 abp
b10 ace
b10 ach
b1 aco
b1 acp
b11 acq
b1 acr
b1 acs
b11 act
b0 acu
b0 acy

#9240
b0 aaa
b0 aaf
b0 aak
b11111111110 aao
b0 aaaap
b0 aaaaq
b0 aaaar
b101111 aas
b101111 aaaat
b1 aau
b11 aaw
b1 aax
b10 abi
b11111111110 aaabs
b11111111110 abt
b0 aco
b0 acp
b0 acq
b0 acr
b0 acs
b0 act
b11111111110 acv

#9300
b1 aaa
b11 aab
b10 aad
b1 aal
b1 aaaap
b110000 aas
b110000 aaaat
b10 aau
b11 aaaay
b1 aaaba
b10 aaabk
b10 aby
b10 acb
b1 aci
b11 ack
b1 acl
b11 acn
b1 acq
b1 act

#9360
b10 aaa
b10 aaaap
b110001 aas
b110001 aaaat
b11 aau
b11 abc
b1 abd
b10 abo
b10 acq
b10 act

#9420
b11 aaa
b11 aac
b10 aae
b1 aam
b11 aaaap
b110010 aas
b110010 aaaat
b100 aau
b11 aaabe
b1 aaabg
b10 aaabq
b10 abv
b1 acc
b11 ace
b1 acf
b11 ach
b11 acq
b11 act
b1 acu
b10 acw
b1 acy

#9480
b100 aaa
b1 aaf
b1 aak
b100 aaaap
b1 aaaaq
b1 aaaar
b110011 aas
b110011 aaaat
b0 aau
b11 abi
b1 abj
b1 aco
b1 acp
b100 acq
b1 acr
b1 acs
b100 act
b0 acu
b0 acy

#9540
b0 aaa
b11 aad
b0 aaf
b0 aak
b1 aan
b0 aaaap
b0 aaaaq
b0 aaaar
b110100 aas
b110100 aaaat
b1 aau
b100 aaw
b11 aaabk
b1 aaabm
b1 abw
b11 aby
b1 abz
b11 acb
b0 aco
b0 acp
b0 acq
b0 acr
b0 acs
b0 act

#9600
b1 aaa
b100 aab
b1 aaaap
b110101 aas
b110101 aaaat
b10 aau
b100 aaaay
b11 abo
b1 abp
b100 ack
b100 acn
b1 acq
b1 act

#9660
b10 aaa
b11 aae
b1 aao
b10 aaaap
b110110 aas
b110110 aaaat
b11 aau
b100 abc
b11 aaabq
b1 aaabs
b1 abt
b11 abv
b10 acq
b10 act
b1 acv
b11 acw

#9720
b11 aaa
b100 aac
b11 aaaap
b110111 aas
b110111 aaaat
b100 aau
b100 aaabe
b100 ace
b100 ach
b11 acq
b11 act

#9780
b100 aaa
b100 aaaap
b111000 aas
b111000 aaaat
b101 aau
b100 abi
b100 acq
b100 act

#9840
b101 aaa
b100 aad
b101 aaaap
b111001 aas
b111001 aaaat
b110 aau
b100 aaabk
b100 aby
b100 acb
b101 acq
b101 act

#9900
b110 aaa
b110 aaaap
b111010 aas
b111010 aaaat
b111 aau
b100 abo
b110 acq
b110 act

#9960
b111 aaa
b100 aae
b111 aaaap
b111011 aas
b111011 aaaat
b1000 aau
b100 aaabq
b100 abv
b111 acq
b111 act
b100 acw

#10020
b1000 aaa
b1000 aaaap
b111100 aas
b111100 aaaat
b1001 aau
b1000 acq
b1000 act

#10080
b1001 aaa
b1001 aaaap
b111101 aas
b111101 aaaat
b1010 aau
b1001 acq
b1001 act

#10140
b1010 aaa
b1010 aaaap
b111110 aas
b111110 aaaat
b1011 aau
b1010 acq
b1010 act

#10200
b1011 aaa
b1011 aaaap
b111111 aas
b111111 aaaat
b1100 aau
b1011 acq
b1011 act
b1 acu
b1 acy

#10260
b1100 aaa
b1 aaf
b1 aak
b1100 aaaap
b1 aaaaq
b1 aaaar
b0 aas
b0 aaaat
b0 aau
b1 aco
b1 acp
b1100 acq
b1 acr
b1 acs
b1100 act

#10320
b0 aaa
b0 aaaap
b1 aas
b1 aaaat
b1100 aaw
b0 acq
b0 act

#10380
b1100 aab
b10 aas
b10 aaaat
b1100 aaaay
b1100 ack
b1100 acn

#10440
b11 aas
b11 aaaat
b1100 abc

#10500
b1100 aac
b100 aas
b100 aaaat
b1100 aaabe
b1100 ace
b1100 ach

#10560
b101 aas
b101 aaaat
b1100 abi

#10620
b1100 aad
b110 aas
b110 aaaat
b1100 aaabk
b1100 aby
b1100 acb

#10680
b111 aas
b111 aaaat
b1100 abo

#10740
b1100 aae
b1000 aas
b1000 aaaat
b1100 aaabq
b1100 abv
b1100 acw

#10800
b1001 aas
b1001 aaaat

#10860
b1010 aas
b1010 aaaat

#10920
b1011 aas
b1011 aaaat

#10980
b1100 aas
b1100 aaaat

#11040
b1101 aas
b1101 aaaat

#11100
b1110 aas
b1110 aaaat

#11160
b1111 aas
b1111 aaaat

#11220
b10000 aas
b10000 aaaat

#11280
b10001 aas
b10001 aaaat

#11340
b10010 aas
b10010 aaaat

#11400
b10011 aas
b10011 aaaat

#11460
b10100 aas
b10100 aaaat

#11520
b10101 aas
b10101 aaaat

#11580
b10110 aas
b10110 aaaat

#11640
b10111 aas
b10111 aaaat

#11700
b11000 aas
b11000 aaaat

#11760
b11001 aas
b11001 aaaat

#11820
b11010 aas
b11010 aaaat

#11880
b11011 aas
b11011 aaaat

#11940
b11100 aas
b11100 aaaat

#12000
b11101 aas
b11101 aaaat

#12060
b11110 aas
b11110 aaaat

#12120
b11111 aas
b11111 aaaat

#12180
b100000 aas
b100000 aaaat

#12240
b100001 aas
b100001 aaaat

#12300
b100010 aas
b100010 aaaat

#12360
b100011 aas
b100011 aaaat

#12420
b100100 aas
b100100 aaaat

#12480
b100101 aas
b100101 aaaat

#12540
b100110 aas
b100110 aaaat

#12600
b100111 aas
b100111 aaaat

#12660
b101000 aas
b101000 aaaat

#12720
b101001 aas
b101001 aaaat

#12780
b101010 aas
b101010 aaaat

#12840
b101011 aas
b101011 aaaat

#12900
b101100 aas
b101100 aaaat

#12960
b101101 aas
b101101 aaaat

#13020
b101110 aas
b101110 aaaat

#13080
b101111 aas
b101111 aaaat

#13140
b110000 aas
b110000 aaaat

#13200
b110001 aas
b110001 aaaat

#13260
b110010 aas
b110010 aaaat

#13320
b110011 aas
b110011 aaaat

#13380
b110100 aas
b110100 aaaat

#13440
b110101 aas
b110101 aaaat

#13500
b110110 aas
b110110 aaaat

#13560
b110111 aas
b110111 aaaat

#13620
b111000 aas
b111000 aaaat

#13680
b111001 aas
b111001 aaaat

#13740
b111010 aas
b111010 aaaat

#13800
b111011 aas
b111011 aaaat

#13860
b111100 aas
b111100 aaaat

#13920
b111101 aas
b111101 aaaat

#13980
b111110 aas
b111110 aaaat

#14040
b111111 aas
b111111 aaaat

#14100
b0 aas
b0 aaaat

#14160
b1 aas
b1 aaaat

#14220
b10 aas
b10 aaaat

#14280
b11 aas
b11 aaaat

#14340
b100 aas
b100 aaaat

#14400
b101 aas
b101 aaaat

#14460
b110 aas
b110 aaaat

#14520
b111 aas
b111 aaaat

#14580
b1000 aas
b1000 aaaat

#14640
b1001 aas
b1001 aaaat

#14700
b1010 aas
b1010 aaaat

#14760
b1011 aas
b1011 aaaat

#14820
b1100 aas
b1100 aaaat

#14880
b1101 aas
b1101 aaaat

#14940
b1110 aas
b1110 aaaat

#15000
b1111 aas
b1111 aaaat

#15060
b10000 aas
b10000 aaaat

#15120
b10001 aas
b10001 aaaat

#15180
b10010 aas
b10010 aaaat

#15240
b10011 aas
b10011 aaaat

#15300
b10100 aas
b10100 aaaat

#15360
b10101 aas
b10101 aaaat

#15420
b10110 aas
b10110 aaaat

#15480
b10111 aas
b10111 aaaat

#15540
b11000 aas
b11000 aaaat

#15600
b11001 aas
b11001 aaaat

#15660
b11010 aas
b11010 aaaat

#15720
b11011 aas
b11011 aaaat

#15780
b11100 aas
b11100 aaaat

#15840
b11101 aas
b11101 aaaat

#15900
b11110 aas
b11110 aaaat

#15960
b11111 aas
b11111 aaaat

#16020
b100000 aas
b100000 aaaat

#16080
b100001 aas
b100001 aaaat

#16140
b100010 aas
b100010 aaaat

#16200
b100011 aas
b100011 aaaat

#16260
b100100 aas
b100100 aaaat
b0 acu
b0 acy

#16320
b0 aaf
b0 aak
b0 aaaaq
b0 aaaar
b1 aas
b1 aaaat
b1 aau
b0 aco
b0 acp
b0 acr
b0 acs

#16380
b1 aaa
b1 aaaap
b10 aas
b10 aaaat
b10 aau
b0 aav
b0 aaw
b0 aax
b1 acq
b1 act

#16440
b10 aaa
b0 aab
b0 aag
b0 aal
b10 aaaap
b11 aas
b11 aaaat
b11 aau
b0 aaaay
b0 aaaaz
b0 aaaba
b0 aci
b0 acj
b0 ack
b0 acl
b0 acm
b0 acn
b10 acq
b10 act

#16500
b11 aaa
b11 aaaap
b100 aas
b100 aaaat
b100 aau
b0 abb
b0 abc
b0 abd
b11 acq
b11 act

#16560
b100 aaa
b0 aac
b0 aah
b0 aam
b100 aaaap
b101 aas
b101 aaaat
b101 aau
b0 aaabe
b0 aaabf
b0 aaabg
b0 acc
b0 acd
b0 ace
b0 acf
b0 acg
b0 ach
b100 acq
b100 act

#16620
b101 aaa
b101 aaaap
b110 aas
b110 aaaat
b110 aau
b0 abh
b0 abi
b0 abj
b101 acq
b101 act

#16680
b110 aaa
b0 aad
b0 aai
b0 aan
b110 aaaap
b111 aas
b111 aaaat
b111 aau
b0 aaabk
b0 aaabl
b0 aaabm
b0 abw
b0 abx
b0 aby
b0 abz
b0 aca
b0 acb
b110 acq
b110 act

#16740
b111 aaa
b111 aaaap
b1000 aas
b1000 aaaat
b1000 aau
b0 abn
b0 abo
b0 abp
b111 acq
b111 act

#16800
b1000 aaa
b0 aae
b0 aaj
b0 aao
b1000 aaaap
b1001 aas
b1001 aaaat
b1001 aau
b0 aaabq
b0 aaabr
b0 aaabs
b0 abt
b0 abu
b0 abv
b1000 acq
b1000 act
b0 acv
b0 acw
b0 acx

#16860
b1001 aaa
b1001 aaaap
b1010 aas
b1010 aaaat
b1010 aau
b1001 acq
b1001 act

#16920
b1010 aaa
b1010 aaaap
b1011 aas
b1011 aaaat
b1011 aau
b1010 acq
b1010 act
b111111111111 acu
b111111111111 acy

#16980
b1011 aaa
b1 aaf
b11111111110 aak
b1011 aaaap
b1 aaaaq
b11111111110 aaaar
b1100 aas
b1100 aaaat
b0 aau
b11111111110 aco
b1 acp
b1011 acq
b11111111110 acr
b1 acs
b1011 act
b0 acu
b0 acy

#17040
b0 aaa
b0 aaf
b0 aak
b0 aaaap
b0 aaaaq
b0 aaaar
b1101 aas
b1101 aaaat
b1 aau
b1 aav
b1011 aaw
b11111111110 aax
b0 aco
b0 acp
b0 acq
b0 acr
b0 acs
b0 act

#17100
b1 aaa
b1011 aab
b1 aag
b11111111110 aal
b1 aaaap
b1110 aas
b1110 aaaat
b10 aau
b1011 aaaay
b1 aaaaz
b11111111110 aaaba
b11111111110 aci
b1 acj
b1011 ack
b11111111110 acl
b1 acm
b1011 acn
b1 acq
b1 act

#17160
b10 aaa
b10 aaaap
b1111 aas
b1111 aaaat
b11 aau
b1 abb
b1011 abc
b11111111110 abd
b10 acq
b10 act
b1 acu
b1 acy

#17220
b11 aaa
b1011 aac
b1 aaf
b1 aah
b1 aak
b11111111110 aam
b11 aaaap
b1 aaaaq
b1 aaaar
b10000 aas
b10000 aaaat
b0 aau
b1011 aaabe
b1 aaabf
b11111111110 aaabg
b11111111110 acc
b1 acd
b1011 ace
b11111111110 acf
b1 acg
b1011 ach
b1 aco
b1 acp
b11 acq
b1 acr
b1 acs
b11 act
b0 acu
b0 acy

#17280
b0 aaa
b0 aaf
b0 aak
b0 aaaap
b0 aaaaq
b0 aaaar
b10001 aas
b10001 aaaat
b1 aau
b11 aaw
b1 aax
b1 abh
b1011 abi
b11111111110 abj
b0 aco
b0 acp
b0 acq
b0 acr
b0 acs
b0 act

#17340
b1 aaa
b11 aab
b1011 aad
b1 aai
b1 aal
b11111111110 aan
b1 aaaap
b10010 aas
b10010 aaaat
b10 aau
b11 aaaay
b1 aaaba
b1011 aaabk
b1 aaabl
b11111111110 aaabm
b11111111110 abw
b1 abx
b1011 aby
b11111111110 abz
b1 aca
b1011 acb
b1 aci
b11 ack
b1 acl
b11 acn
b1 acq
b1 act

#17400
b10 aaa
b10 aaaap
b10011 aas
b10011 aaaat
b11 aau
b11 abc
b1 abd
b1 abn
b1011 abo
b11111111110 abp
b10 acq
b10 act

