mangrove_master/regression/jpeg_rle/jpeg_rle_bool.vcd
$date
     May 19, 2016       19:32:26
$end

$version
              SystemC 2.3.0-ASI --- Jan 21 2013 09:04:20
$end

$timescale
     100 ps
$end

$scope module SystemC $end
$var wire    1  aaa  jpeg_enc.rle.rle_den       $end
$var wire    1  aab  jpeg_enc.rle.rz1_den       $end
$var wire    1  aac  jpeg_enc.rle.rz2_den       $end
$var wire    1  aad  jpeg_enc.rle.rz3_den       $end
$var wire    1  aae  jpeg_enc.rle.rz4_den       $end
$var wire    1  aaf  jpeg_enc.rle.rle_dc       $end
$var wire    1  aag  jpeg_enc.rle.rz1_dc       $end
$var wire    1  aah  jpeg_enc.rle.rz2_dc       $end
$var wire    1  aai  jpeg_enc.rle.rz3_dc       $end
$var wire    1  aaj  jpeg_enc.rle.rz4_dc       $end
$var wire    1  aak  jpeg_enc.rle.ddstrb       $end
$var wire    1  aal  jpeg_enc.rle.ddstrb_X       $end
$var wire    1  aam  jpeg_enc.rle.rle.is_zero       $end
$var wire    1  aan  jpeg_enc.rle.rle.state       $end
$var wire    1  aao  jpeg_enc.rle.rz1.den_r       $end
$var wire    1  aap  jpeg_enc.rle.rz1.den_w       $end
$var wire    1  aaq  jpeg_enc.rle.rz1.dc_r       $end
$var wire    1  aar  jpeg_enc.rle.rz1.dc_w       $end
$var wire    1  aas  jpeg_enc.rle.rz1.eob       $end
$var wire    1  aat  jpeg_enc.rle.rz1.zerobl       $end
$var wire    1  aau  jpeg_enc.rle.rz1.state       $end
$var wire    1  aav  jpeg_enc.rle.rz2.den_r       $end
$var wire    1  aaw  jpeg_enc.rle.rz2.den_w       $end
$var wire    1  aax  jpeg_enc.rle.rz2.dc_r       $end
$var wire    1  aay  jpeg_enc.rle.rz2.dc_w       $end
$var wire    1  aaz  jpeg_enc.rle.rz2.eob       $end
$var wire    1  aba  jpeg_enc.rle.rz2.zerobl       $end
$var wire    1  abb  jpeg_enc.rle.rz2.state       $end
$var wire    1  abc  jpeg_enc.rle.rz3.den_r       $end
$var wire    1  abd  jpeg_enc.rle.rz3.den_w       $end
$var wire    1  abe  jpeg_enc.rle.rz3.dc_r       $end
$var wire    1  abf  jpeg_enc.rle.rz3.dc_w       $end
$var wire    1  abg  jpeg_enc.rle.rz3.eob       $end
$var wire    1  abh  jpeg_enc.rle.rz3.zerobl       $end
$var wire    1  abi  jpeg_enc.rle.rz3.state       $end
$var wire    1  abj  jpeg_enc.rle.rz4.den_r       $end
$var wire    1  abk  jpeg_enc.rle.rz4.den_w       $end
$var wire    1  abl  jpeg_enc.rle.rz4.dc_r       $end
$var wire    1  abm  jpeg_enc.rle.rz4.dc_w       $end
$var wire    1  abn  jpeg_enc.rle.rz4.eob       $end
$var wire    1  abo  jpeg_enc.rle.rz4.zerobl       $end
$var wire    1  abp  jpeg_enc.rle.rz4.state       $end
$var wire    1  abq  jpeg_enc.rle.rz4.dco       $end
$var wire    1  abr  jpeg_enc.rle.rz4.deno       $end
$var wire    1  abs  jpeg_enc.rle.rz4.dci       $end
$var wire    1  abt  jpeg_enc.rle.rz4.deni       $end
$var wire    1  abu  jpeg_enc.rle.rz4.rst       $end
$var wire    1  abv  jpeg_enc.rle.rz4.ena       $end
$var wire    1  abw  jpeg_enc.rle.rz3.dco       $end
$var wire    1  abx  jpeg_enc.rle.rz3.deno       $end
$var wire    1  aby  jpeg_enc.rle.rz3.dci       $end
$var wire    1  abz  jpeg_enc.rle.rz3.deni       $end
$var wire    1  aca  jpeg_enc.rle.rz3.rst       $end
$var wire    1  acb  jpeg_enc.rle.rz3.ena       $end
$var wire    1  acc  jpeg_enc.rle.rz2.dco       $end
$var wire    1  acd  jpeg_enc.rle.rz2.deno       $end
$var wire    1  ace  jpeg_enc.rle.rz2.dci       $end
$var wire    1  acf  jpeg_enc.rle.rz2.deni       $end
$var wire    1  acg  jpeg_enc.rle.rz2.rst       $end
$var wire    1  ach  jpeg_enc.rle.rz2.ena       $end
$var wire    1  aci  jpeg_enc.rle.rz1.dco       $end
$var wire    1  acj  jpeg_enc.rle.rz1.deno       $end
$var wire    1  ack  jpeg_enc.rle.rz1.dci       $end
$var wire    1  acl  jpeg_enc.rle.rz1.deni       $end
$var wire    1  acm  jpeg_enc.rle.rz1.rst       $end
$var wire    1  acn  jpeg_enc.rle.rz1.ena       $end
$var wire    1  aco  jpeg_enc.rle.rle.dcterm       $end
$var wire    1  acp  jpeg_enc.rle.rle.den       $end
$var wire    1  acq  jpeg_enc.rle.rle.go_X       $end
$var wire    1  acr  jpeg_enc.rle.rle.go       $end
$var wire    1  acs  jpeg_enc.rle.rle.ena       $end
$var wire    1  act  jpeg_enc.rle.rle.rst       $end
$var wire    1  acu  jpeg_enc.rle.bstart       $end
$var wire    1  acv  jpeg_enc.rle.douten       $end
$var wire    1  acw  jpeg_enc.rle.dstrb_X       $end
$var wire    1  acx  jpeg_enc.rle.dstrb       $end
$var wire    1  acy  jpeg_enc.rle.ena       $end
$var wire    1  acz  jpeg_enc.rle.rst       $end
$upscope $end
$enddefinitions  $end

$comment
All initial values are dumped below at time 0 sec = 0 timescale units.
$end

$dumpvars
0aaa
0aab
0aac
0aad
0aae
0aaf
0aag
0aah
0aai
0aaj
0aak
0aal
0aam
0aan
0aao
0aap
0aaq
0aar
0aas
0aat
0aau
0aav
0aaw
0aax
0aay
0aaz
0aba
0abb
0abc
0abd
0abe
0abf
0abg
0abh
0abi
0abj
0abk
0abl
0abm
0abn
0abo
0abp
0abq
0abr
0abs
0abt
0abu
1abv
0abw
0abx
0aby
0abz
0aca
1acb
0acc
0acd
0ace
0acf
0acg
1ach
0aci
0acj
0ack
0acl
0acm
1acn
0aco
0acp
0acq
0acr
1acs
0act
0acu
0acv
0acw
0acx
1acy
0acz
$end

#120
1abu
1aca
1acg
1acm
1act
1acz

#6360
1acx

#6420
1aak
1acr
0acx

#6480
1aaa
1aaf
0aak
1aam
1aan
1ack
1acl
1aco
1acp
0acr

#6540
0aaa
0aaf
1aao
1aap
1aaq
1aar
0ack
0acl
0aco
0acp

#6600
1aab
1aag
0aao
0aap
0aaq
0aar
1ace
1acf
1aci
1acj

#6660
0aab
0aag
1aav
1aaw
1aax
1aay
0ace
0acf
0aci
0acj

#6720
1aac
1aah
0aav
0aaw
0aax
0aay
1aby
1abz
1acc
1acd

#6780
0aac
0aah
1abc
1abd
1abe
1abf
0aby
0abz
0acc
0acd

#6840
1aad
1aai
0aam
0abc
0abd
0abe
0abf
1abs
1abt
1abw
1abx

#6900
1aaa
0aad
0aai
1aam
1abj
1abk
1abl
1abm
0abs
0abt
0abw
0abx
1acl
1acp

#6960
0aaa
1aae
1aaj
1aao
1aap
0abj
0abk
0abl
0abm
1abq
1abr
0acl
0acp
1acu
1acv

#7020
1aab
0aae
0aaj
0aao
0aap
0abq
0abr
1acf
1acj
0acu
0acv

#7080
0aab
1aav
1aaw
0acf
0acj

#7140
1aac
0aav
0aaw
1abz
1acd

#7200
0aac
1abc
1abd
0abz
0acd

#7260
1aad
0abc
0abd
1abt
1abx

#7320
0aad
0aam
1abj
1abk
0abt
0abx

#7380
1aaa
1aae
0abj
0abk
1abr
1acl
1acp
1acv

#7440
0aae
1aao
1aap
0abr
0acv

#7500
1aab
1aam
1acf
1acj

#7560
0aaa
1aav
1aaw
0acl
0acp

#7620
1aac
0aam
0aao
0aap
1abz
1acd

#7680
1aaa
0aab
1aam
1abc
1abd
0acf
0acj
1acl
1acp

#7740
0aaa
1aad
1aao
1aap
0aav
0aaw
1abt
1abx
0acl
0acp

#7800
1aab
0aac
0aam
0aao
0aap
1abj
1abk
0abz
0acd
1acf
1acj

#7860
1aaa
0aab
1aae
1aav
1aaw
0abc
0abd
1abr
0acf
0acj
1acl
1acp
1acv

#7920
1aac
0aad
1aam
1aao
1aap
0aav
0aaw
0abt
0abx
1abz
1acd

#7980
0aaa
1aab
0aac
1abc
1abd
0abj
0abk
0abz
0acd
1acf
1acj
0acl
0acp

#8040
1aad
0aae
0aao
0aap
1aav
1aaw
0abc
0abd
0abr
1abt
1abx
0acv

#8100
0aab
1aac
0aad
1abj
1abk
0abt
0abx
1abz
1acd
0acf
0acj

#8160
1aae
0aav
0aaw
1abc
1abd
0abj
0abk
1abr
1acv

#8220
0aac
1aad
0aae
0abr
1abt
1abx
0abz
0acd
0acv

#8280
0aam
0abc
0abd
1abj
1abk

#8340
1aaa
0aad
1aae
1aam
1abr
0abt
0abx
1acl
1acp
1acv

#8400
0aaa
1aao
1aap
0abj
0abk
0acl
0acp

#8460
1aab
0aae
0aao
0aap
0abr
1acf
1acj
0acv

#8520
0aab
1aav
1aaw
0acf
0acj

#8580
1aac
0aav
0aaw
1abz
1acd

#8640
0aac
1abc
1abd
0abz
0acd

#8700
1aad
0aam
0abc
0abd
1abt
1abx

#8760
1aaa
0aad
1aam
1abj
1abk
0abt
0abx
1acl
1acp

#8820
0aaa
1aae
1aao
1aap
0abj
0abk
1abr
0acl
0acp
1acv

#8880
1aab
0aae
0aam
0aao
0aap
0abr
1acf
1acj
0acv

#8940
1aaa
0aab
1aam
1aav
1aaw
0acf
0acj
1acl
1acp

#9000
0aaa
1aac
1aao
1aap
0aav
0aaw
1abz
1acd
0acl
0acp

#9060
1aab
0aac
0aao
0aap
1abc
1abd
0abz
0acd
1acf
1acj

#9120
0aab
1aad
0aam
1aav
1aaw
0abc
0abd
1abt
1abx
0acf
0acj

#9180
1aaa
1aac
0aad
1aam
0aav
0aaw
1abj
1abk
0abt
0abx
1abz
1acd
1acl
1acp

#9240
0aaa
0aac
1aae
1aao
1aap
1abc
1abd
0abj
0abk
1abr
0abz
0acd
0acl
0acp
1acv

#9300
1aab
1aad
0aae
0aao
0aap
0abc
0abd
0abr
1abt
1abx
1acf
1acj
0acv

#9360
0aab
0aad
1aav
1aaw
1abj
1abk
0abt
0abx
0acf
0acj

#9420
1aac
1aae
0aam
0aav
0aaw
0abj
0abk
1abr
1abz
1acd
1acv

#9480
1aaa
0aac
0aae
1aam
1abc
1abd
0abr
0abz
0acd
1acl
1acp
0acv

#9540
0aaa
1aad
1aao
1aap
0abc
0abd
1abt
1abx
0acl
0acp

#9600
1aab
0aad
0aao
0aap
1abj
1abk
0abt
0abx
1acf
1acj

#9660
0aab
1aae
1aav
1aaw
0abj
0abk
1abr
0acf
0acj
1acv

#9720
1aac
0aae
0aav
0aaw
0abr
1abz
1acd
0acv

#9780
0aac
1abc
1abd
0abz
0acd

#9840
1aad
0abc
0abd
1abt
1abx

#9900
0aad
1abj
1abk
0abt
0abx

#9960
1aae
0abj
0abk
1abr
1acv

#10020
0aae
0abr
0acv

#10200
0aam

#10260
1aaa
0aan
1acl
1acp

#10320
0aaa
1aao
1aap
0acl
0acp

#10380
1aab
0aao
0aap
1acf
1acj

#10440
0aab
1aav
1aaw
0acf
0acj

#10500
1aac
0aav
0aaw
1abz
1acd

#10560
0aac
1abc
1abd
0abz
0acd

#10620
1aad
0abc
0abd
1abt
1abx

#10680
0aad
1abj
1abk
0abt
0abx

#10740
1aae
0abj
0abk
1abr
1acv

#10800
0aae
0abr
0acv

#16200
1acx

#16260
1aak
1aam
1acr
0acx

#16320
1aaa
1aaf
0aak
1aan
1ack
1acl
1aco
1acp
0acr

#16380
0aaa
0aaf
1aao
1aap
1aaq
1aar
0ack
0acl
0aco
0acp

#16440
1aab
1aag
0aao
0aap
0aaq
0aar
1ace
1acf
1aci
1acj

#16500
0aab
0aag
1aav
1aaw
1aax
1aay
0ace
0acf
0aci
0acj

#16560
1aac
1aah
0aav
0aaw
0aax
0aay
1aby
1abz
1acc
1acd

#16620
0aac
0aah
1abc
1abd
1abe
1abf
0aby
0abz
0acc
0acd

#16680
1aad
1aai
0abc
0abd
0abe
0abf
1abs
1abt
1abw
1abx

#16740
0aad
0aai
1abj
1abk
1abl
1abm
0abs
0abt
0abw
0abx

#16800
1aae
1aaj
0abj
0abk
0abl
0abm
1abq
1abr
1acu
1acv

#16860
0aae
0aaj
0abq
0abr
0acu
0acv

#16920
0aam

#16980
1aaa
1aam
1acl
1acp

#17040
0aaa
1aao
1aap
0acl
0acp

#17100
1aab
0aao
0aap
1acf
1acj

#17160
0aab
0aam
1aav
1aaw
0acf
0acj

#17220
1aaa
1aac
1aam
0aav
0aaw
1abz
1acd
1acl
1acp

#17280
0aaa
0aac
1aao
1aap
1abc
1abd
0abz
0acd
0acl
0acp

#17340
1aab
1aad
0aao
0aap
0abc
0abd
1abt
1abx
1acf
1acj

#17400
0aab
0aad
1aav
1aaw
1abj
1abk
0abt
0abx
0acf
0acj

#17460
1aac
1aae
0aav
0aaw
0abj
0abk
1abr
1abz
1acd
1acv

#17520
0aac
0aae
1abc
1abd
0abr
0abz
0acd
0acv

#17580
1aad
0abc
0abd
1abt
1abx

#17640
0aad
1abj
1abk
0abt
0abx

#17700
1aae
0abj
0abk
1abr
1acv

#17760
0aae
0aam
0abr
0acv

#17820
1aaa
1aam
1acl
1acp

#17880
0aaa
1aao
1aap
0acl
0acp

#17940
1aab
0aao
0aap
1acf
1acj

#18000
0aab
1aav
1aaw
0acf
0acj

#18060
1aac
0aav
0aaw
1abz
1acd

#18120
0aac
1abc
1abd
0abz
0acd

#18180
1aad
0abc
0abd
1abt
1abx

#18240
0aad
1abj
1abk
0abt
0abx

#18300
1aae
0abj
0abk
1abr
1acv

#18360
0aae
0abr
0acv

#18540
0aam

#18600
1aaa
1aam
1acl
1acp

#18660
0aaa
1aao
1aap
0acl
0acp

#18720
1aab
0aao
0aap
1acf
1acj

#18780
0aab
1aav
1aaw
0acf
0acj

#18840
1aac
0aav
0aaw
1abz
1acd

#18900
0aac
1abc
1abd
0abz
0acd

#18960
1aad
0abc
0abd
1abt
1abx

#19020
0aad
1abj
1abk
0abt
0abx

#19080
1aae
0abj
0abk
1abr
1acv

#19140
0aae
0abr
0acv

#19260
0aam

#19320
1aaa
1aam
1acl
1acp

#19380
0aaa
0aam
1aao
1aap
0acl
0acp

#19440
1aaa
1aab
0aao
0aap
1acf
1acj
1acl
1acp

#19500
0aab
1aam
1aao
1aap
1aav
1aaw
0acf
0acj

#19560
0aaa
1aab
1aac
0aav
0aaw
1abz
1acd
1acf
1acj
0acl
0acp

#19620
0aac
0aao
0aap
1aav
1aaw
1abc
1abd
0abz
0acd

#19680
0aab
1aac
1aad
0abc
0abd
1abt
1abx
1abz
1acd
0acf
0acj

#19740
0aad
0aav
0aaw
1abc
1abd
1abj
1abk
0abt
0abx

#19800
0aac
1aad
1aae
0abj
0abk
1abr
1abt
1abx
0abz
0acd
1acv

#19860
0aae
0abc
0abd
1abj
1abk
0abr
0acv

#19920
0aad
1aae
1abr
0abt
0abx
1acv

#19980
0abj
0abk

#20040
0aae
0abr
0acv

#20100
1aaa
0aan
1aas
1acl
1acp

#20160
0aaa
1aao
1aap
0aas
0acl
0acp

#20220
1aab
0aao
0aap
1aaz
1acf
1acj

#20280
0aab
1aav
1aaw
0aaz
0acf
0acj

#20340
1aac
0aav
0aaw
1abg
1abz
1acd

#20400
0aac
1abc
1abd
0abg
0abz
0acd

#20460
1aad
0abc
0abd
1abn
1abt
1abx

#20520
0aad
1abj
1abk
0abn
0abt
0abx

#20580
1aae
0abj
0abk
1abr
1acv

#20640
0aae
0abr
0acv

#26040
1acx

#26100
1aak
1acr
0acx

#26160
1aaa
1aaf
0aak
1aan
1ack
1acl
1aco
1acp
0acr

#26220
0aaf
1aao
1aap
1aaq
1aar
1aas
1aat
0ack
0aco

#26280
0aaa
1aab
1aag
0aao
0aap
0aaq
0aar
0aas
0aat
1aau
1ace
1acf
1aci
1acj
0acl
0acp

#26340
0aab
0aag
1aav
1aaw
1aax
1aay
0ace
0acf
0aci
0acj

#26400
1aac
1aah
0aav
0aaw
0aax
0aay
1aby
1abz
1acc
1acd

#26460
0aac
0aah
1abc
1abd
1abe
1abf
0aby
0abz
0acc
0acd

#26520
1aad
1aai
0abc
0abd
0abe
0abf
1abs
1abt
1abw
1abx

#26580
0aad
0aai
0aam
1abj
1abk
1abl
1abm
0abs
0abt
0abw
0abx

#26640
1aaa
1aae
1aaj
1aam
0abj
0abk
0abl
0abm
1abq
1abr
1acl
1acp
1acu
1acv

#26700
0aaa
1aab
0aae
0aaj
1aao
1aap
0aau
1aaz
1aba
0abq
0abr
1acf
1acj
0acl
0acp
0acu
0acv

#26760
0aao
0aap
0aaz
0aba
1abb

#26820
0aab
1aac
1aav
1aaw
0abb
1abg
1abh
1abz
1acd
0acf
0acj

#26880
0aav
0aaw
0abg
0abh
1abi

#26940
0aac
1aad
1abc
1abd
0abi
1abn
1abo
1abt
1abx
0abz
0acd

#27000
0abc
0abd
0abn
0abo
1abp

#27060
0aad
1aae
1abj
1abk
0abp
1abr
0abt
0abx
1acv

#27120
0abj
0abk

#27180
0aae
0abr
0acv

#27540
0aam

#27600
1aaa
1acl
1acp

#27660
1aao
1aap

#27720
1aab
1acf
1acj

#27780
1aam
1aav
1aaw

#27840
0aaa
1aac
1abz
1acd
0acl
0acp

#27900
0aao
0aap
1abc
1abd

#27960
0aab
1aad
1abt
1abx
0acf
0acj

#28020
0aav
0aaw
1abj
1abk

#28080
0aac
1aae
1abr
0abz
0acd
1acv

#28140
0abc
0abd

#28200
0aad
0aam
0abt
0abx

#28260
1aaa
1aam
0abj
0abk
1acl
1acp

#28320
0aaa
0aae
1aao
1aap
0abr
0acl
0acp
0acv

#28380
1aab
0aao
0aap
1acf
1acj

#28440
0aab
1aav
1aaw
0acf
0acj

#28500
1aac
0aav
0aaw
1abz
1acd

#28560
0aac
1abc
1abd
0abz
0acd

#28620
1aad
0abc
0abd
1abt
1abx

#28680
0aad
1abj
1abk
0abt
0abx

#28740
1aae
0aam
0abj
0abk
1abr
1acv

#28800
1aaa
0aae
0abr
1acl
1acp
0acv

#28860
1aam
1aao
1aap

#28920
0aaa
1aab
1acf
1acj
0acl
0acp

#28980
0aao
0aap
1aav
1aaw

#29040
0aab
1aac
1abz
1acd
0acf
0acj

#29100
0aav
0aaw
1abc
1abd

#29160
0aac
1aad
0aam
1abt
1abx
0abz
0acd

#29220
1aaa
1aam
0abc
0abd
1abj
1abk
1acl
1acp

#29280
0aaa
0aad
1aae
1aao
1aap
1abr
0abt
0abx
0acl
0acp
1acv

#29340
1aab
0aao
0aap
0abj
0abk
1acf
1acj

#29400
0aab
0aae
1aav
1aaw
0abr
0acf
0acj
0acv

#29460
1aac
0aav
0aaw
1abz
1acd

#29520
0aac
0aam
1abc
1abd
0abz
0acd

#29580
1aaa
1aad
1aam
0abc
0abd
1abt
1abx
1acl
1acp

#29640
0aaa
0aad
1aao
1aap
1abj
1abk
0abt
0abx
0acl
0acp

#29700
1aab
1aae
0aao
0aap
0abj
0abk
1abr
1acf
1acj
1acv

#29760
0aab
0aae
0aam
1aav
1aaw
0abr
0acf
0acj
0acv

#29820
1aaa
1aac
1aam
0aav
0aaw
1abz
1acd
1acl
1acp

#29880
0aaa
0aac
0aam
1aao
1aap
1abc
1abd
0abz
0acd
0acl
0acp

#29940
1aaa
1aab
1aad
0aan
0aao
0aap
0abc
0abd
1abt
1abx
1acf
1acj
1acl
1acp

#30000
0aaa
0aab
0aad
1aao
1aap
1aav
1aaw
1abj
1abk
0abt
0abx
0acf
0acj
0acl
0acp

#30060
1aab
1aac
1aae
0aao
0aap
0aav
0aaw
0abj
0abk
1abr
1abz
1acd
1acf
1acj
1acv

#30120
0aab
0aac
0aae
1aav
1aaw
1abc
1abd
0abr
0abz
0acd
0acf
0acj
0acv

#30180
1aac
1aad
0aav
0aaw
0abc
0abd
1abt
1abx
1abz
1acd

#30240
0aac
0aad
1abc
1abd
1abj
1abk
0abt
0abx
0abz
0acd

#30300
1aad
1aae
0abc
0abd
0abj
0abk
1abr
1abt
1abx
1acv

#30360
0aad
0aae
1abj
1abk
0abr
0abt
0abx
0acv

#30420
1aae
0abj
0abk
1abr
1acv

#30480
0aae
0abr
0acv

#35880
1acx

#35940
1aak
1aam
1acr
0acx

#36000
1aaa
1aaf
0aak
1aan
1ack
1acl
1aco
1acp
0acr

#36060
0aaa
0aaf
1aao
1aap
1aaq
1aar
0ack
0acl
0aco
0acp

#36120
1aab
1aag
0aam
0aao
0aap
0aaq
0aar
1ace
1acf
1aci
1acj

#36180
1aaa
0aab
0aag
1aam
1aav
1aaw
1aax
1aay
0ace
0acf
0aci
0acj
1acl
1acp

#36240
0aaa
1aac
1aah
0aam
1aao
1aap
0aav
0aaw
0aax
0aay
1aby
1abz
1acc
1acd
0acl
0acp

#36300
1aaa
1aab
0aac
0aah
1aam
0aao
0aap
1abc
1abd
1abe
1abf
0aby
0abz
0acc
0acd
1acf
1acj
1acl
1acp

#36360
0aaa
0aab
1aad
1aai
1aao
1aap
1aav
1aaw
0abc
0abd
0abe
0abf
1abs
1abt
1abw
1abx
0acf
0acj
0acl
0acp

#36420
1aab
1aac
0aad
0aai
0aao
0aap
0aav
0aaw
1abj
1abk
1abl
1abm
0abs
0abt
0abw
0abx
1abz
1acd
1acf
1acj

#36480
0aab
0aac
1aae
1aaj
1aav
1aaw
1abc
1abd
0abj
0abk
0abl
0abm
1abq
1abr
0abz
0acd
0acf
0acj
1acu
1acv

#36540
1aac
1aad
0aae
0aaj
0aav
0aaw
0abc
0abd
0abq
0abr
1abt
1abx
1abz
1acd
0acu
0acv

#36600
0aac
0aad
1abc
1abd
1abj
1abk
0abt
0abx
0abz
0acd

#36660
1aad
1aae
0abc
0abd
0abj
0abk
1abr
1abt
1abx
1acv

#36720
0aad
0aae
1abj
1abk
0abr
0abt
0abx
0acv

#36780
1aae
0abj
0abk
1abr
1acv

#36840
0aae
0aam
0abr
0acv

#36900
1aaa
1aam
1acl
1acp

#36960
0aaa
0aam
1aao
1aap
0acl
0acp

#37020
1aaa
1aab
1aam
0aao
0aap
1acf
1acj
1acl
1acp

#37080
0aaa
0aab
1aao
1aap
1aav
1aaw
0acf
0acj
0acl
0acp

#37140
1aab
1aac
0aam
0aao
0aap
0aav
0aaw
1abz
1acd
1acf
1acj

#37200
1aaa
0aab
0aac
1aav
1aaw
1abc
1abd
0abz
0acd
0acf
0acj
1acl
1acp

#37260
1aac
1aad
1aam
1aao
1aap
0aav
0aaw
0abc
0abd
1abt
1abx
1abz
1acd

#37320
0aaa
1aab
0aac
0aad
1abc
1abd
1abj
1abk
0abt
0abx
0abz
0acd
1acf
1acj
0acl
0acp

#37380
1aad
1aae
0aao
0aap
1aav
1aaw
0abc
0abd
0abj
0abk
1abr
1abt
1abx
1acv

#37440
0aab
1aac
0aad
0aae
1abj
1abk
0abr
0abt
0abx
1abz
1acd
0acf
0acj
0acv

#37500
1aae
0aam
0aav
0aaw
1abc
1abd
0abj
0abk
1abr
1acv

#37560
1aaa
0aac
1aad
0aae
1aam
0abr
1abt
1abx
0abz
0acd
1acl
1acp
0acv

#37620
0aaa
1aao
1aap
0abc
0abd
1abj
1abk
0acl
0acp

#37680
1aab
0aad
1aae
0aao
0aap
1abr
0abt
0abx
1acf
1acj
1acv

#37740
0aab
1aav
1aaw
0abj
0abk
0acf
0acj

#37800
1aac
0aae
0aav
0aaw
0abr
1abz
1acd
0acv

#37860
0aac
1abc
1abd
0abz
0acd

#37920
1aad
0abc
0abd
1abt
1abx

#37980
0aad
1abj
1abk
0abt
0abx

#38040
1aae
0aam
0abj
0abk
1abr
1acv

#38100
1aaa
0aae
0abr
1acl
1acp
0acv

#38160
1aam
1aao
1aap

#38220
0aaa
1aab
1acf
1acj
0acl
0acp

#38280
0aao
0aap
1aav
1aaw

#38340
0aab
1aac
1abz
1acd
0acf
0acj

#38400
0aav
0aaw
1abc
1abd

#38460
0aac
1aad
0aam
1abt
1abx
0abz
0acd

#38520
1aaa
1aam
0abc
0abd
1abj
1abk
1acl
1acp

#38580
0aaa
0aad
1aae
1aao
1aap
1abr
0abt
0abx
0acl
0acp
1acv

#38640
1aab
0aao
0aap
0abj
0abk
1acf
1acj

#38700
0aab
0aae
1aav
1aaw
0abr
0acf
0acj
0acv

#38760
1aac
0aav
0aaw
1abz
1acd

#38820
0aac
1abc
1abd
0abz
0acd

#38880
1aad
0abc
0abd
1abt
1abx

#38940
0aad
0aam
1abj
1abk
0abt
0abx

#39000
1aaa
1aae
1aam
0abj
0abk
1abr
1acl
1acp
1acv

#39060
0aaa
0aae
1aao
1aap
0abr
0acl
0acp
0acv

#39120
1aab
0aao
0aap
1acf
1acj

#39180
0aab
0aam
1aav
1aaw
0acf
0acj

#39240
1aaa
1aac
1aam
0aav
0aaw
1abz
1acd
1acl
1acp

#39300
0aaa
0aac
1aao
1aap
1abc
1abd
0abz
0acd
0acl
0acp

#39360
1aab
1aad
0aao
0aap
0abc
0abd
1abt
1abx
1acf
1acj

#39420
0aab
0aad
1aav
1aaw
1abj
1abk
0abt
0abx
0acf
0acj

#39480
1aac
1aae
0aav
0aaw
0abj
0abk
1abr
1abz
1acd
1acv

#39540
0aac
0aae
1abc
1abd
0abr
0abz
0acd
0acv

#39600
1aad
0abc
0abd
1abt
1abx

#39660
0aad
1abj
1abk
0abt
0abx

#39720
1aae
0aam
0abj
0abk
1abr
1acv

#39780
1aaa
0aae
0aan
0abr
1acl
1acp
0acv

#39840
0aaa
1aao
1aap
0acl
0acp

#39900
1aab
0aao
0aap
1acf
1acj

#39960
0aab
1aav
1aaw
0acf
0acj

#40020
1aac
0aav
0aaw
1abz
1acd

#40080
0aac
1abc
1abd
0abz
0acd

#40140
1aad
0abc
0abd
1abt
1abx

#40200
0aad
1abj
1abk
0abt
0abx

#40260
1aae
0abj
0abk
1abr
1acv

#40320
0aae
0abr
0acv

#45720
1acx

#45780
1aak
1aam
1acr
0acx

#45840
1aaa
1aaf
0aak
1aan
1ack
1acl
1aco
1acp
0acr

#45900
0aaa
0aaf
1aao
1aap
1aaq
1aar
0ack
0acl
0aco
0acp

#45960
1aab
1aag
0aao
0aap
0aaq
0aar
1ace
1acf
1aci
1acj

#46020
0aab
0aag
1aav
1aaw
1aax
1aay
0ace
0acf
0aci
0acj

#46080
1aac
1aah
0aav
0aaw
0aax
0aay
1aby
1abz
1acc
1acd

#46140
0aac
0aah
1abc
1abd
1abe
1abf
0aby
0abz
0acc
0acd

#46200
1aad
1aai
0abc
0abd
0abe
0abf
1abs
1abt
1abw
1abx

#46260
0aad
0aai
1abj
1abk
1abl
1abm
0abs
0abt
0abw
0abx

#46320
1aae
1aaj
0abj
0abk
0abl
0abm
1abq
1abr
1acu
1acv

#46380
0aae
0aaj
0abq
0abr
0acu
0acv

#46500
0aam

#46560
1aaa
1aam
1acl
1acp

#46620
0aaa
0aam
1aao
1aap
0acl
0acp

#46680
1aaa
1aab
1aam
0aao
0aap
1acf
1acj
1acl
1acp

#46740
0aaa
0aab
0aam
1aao
1aap
1aav
1aaw
0acf
0acj
0acl
0acp

#46800
1aaa
1aab
1aac
0aao
0aap
0aav
0aaw
1abz
1acd
1acf
1acj
1acl
1acp

#46860
0aab
0aac
1aam
1aao
1aap
1aav
1aaw
1abc
1abd
0abz
0acd
0acf
0acj

#46920
0aaa
1aab
1aac
1aad
0aav
0aaw
0abc
0abd
1abt
1abx
1abz
1acd
1acf
1acj
0acl
0acp

#46980
0aac
0aad
0aao
0aap
1aav
1aaw
1abc
1abd
1abj
1abk
0abt
0abx
0abz
0acd

#47040
0aab
1aac
1aad
1aae
0aam
0abc
0abd
0abj
0abk
1abr
1abt
1abx
1abz
1acd
0acf
0acj
1acv

#47100
1aaa
0aad
0aae
0aav
0aaw
1abc
1abd
1abj
1abk
0abr
0abt
0abx
1acl
1acp
0acv

#47160
0aac
1aad
1aae
1aam
1aao
1aap
0abj
0abk
1abr
1abt
1abx
0abz
0acd
1acv

#47220
0aaa
1aab
0aae
0abc
0abd
1abj
1abk
0abr
1acf
1acj
0acl
0acp
0acv

#47280
0aad
1aae
0aao
0aap
1aav
1aaw
1abr
0abt
0abx
1acv

#47340
0aab
1aac
0abj
0abk
1abz
1acd
0acf
0acj

#47400
0aae
0aav
0aaw
1abc
1abd
0abr
0acv

#47460
0aac
1aad
1abt
1abx
0abz
0acd

#47520
0abc
0abd
1abj
1abk

#47580
0aad
1aae
1abr
0abt
0abx
1acv

#47640
0abj
0abk

#47700
0aae
0abr
0acv

#47880
0aam

#47940
1aaa
1aam
1acl
1acp

#48000
0aaa
1aao
1aap
0acl
0acp

#48060
1aab
0aao
0aap
1acf
1acj

#48120
0aab
1aav
1aaw
0acf
0acj

#48180
1aac
0aav
0aaw
1abz
1acd

#48240
0aac
1abc
1abd
0abz
0acd

#48300
1aad
0aam
0abc
0abd
1abt
1abx

#48360
1aaa
0aad
1aam
1abj
1abk
0abt
0abx
1acl
1acp

#48420
0aaa
1aae
1aao
1aap
0abj
0abk
1abr
0acl
0acp
1acv

#48480
1aab
0aae
0aao
0aap
0abr
1acf
1acj
0acv

#48540
0aab
1aav
1aaw
0acf
0acj

#48600
1aac
0aav
0aaw
1abz
1acd

#48660
0aac
0aam
1abc
1abd
0abz
0acd

#48720
1aaa
1aad
1aam
0abc
0abd
1abt
1abx
1acl
1acp

#48780
0aaa
0aad
1aao
1aap
1abj
1abk
0abt
0abx
0acl
0acp

#48840
1aab
1aae
0aao
0aap
0abj
0abk
1abr
1acf
1acj
1acv

#48900
0aab
0aae
1aav
1aaw
0abr
0acf
0acj
0acv

#48960
1aac
0aam
0aav
0aaw
1abz
1acd

#49020
1aaa
0aac
1aam
1abc
1abd
0abz
0acd
1acl
1acp

#49080
0aaa
1aad
1aao
1aap
0abc
0abd
1abt
1abx
0acl
0acp

#49140
1aab
0aad
0aao
0aap
1abj
1abk
0abt
0abx
1acf
1acj

#49200
0aab
1aae
1aav
1aaw
0abj
0abk
1abr
0acf
0acj
1acv

