mangrove_master/regression/apb/apb_bool.vcd
$date
     May 19, 2016       17:14:41
$end

$version
 SystemC 2.3.1-Accellera --- Jul 30 2015 08:59:58
$end

$scope module SystemC $end
$var wire    1  aaaaa  sel0       $end
$var wire    1  aaaab  sel1       $end
$var wire    1  aaaac  sel2       $end
$var wire    1  aaaad  enable       $end
$var wire    1  aaaae  write       $end
$var wire    1  aaaaf  resetn       $end
$var wire    1  aaaag  apb_3_pwrite       $end
$var wire    1  aaaah  apb_3_penable       $end
$var wire    1  aaaai  apb_3_psel       $end
$var wire    1  aaaaj  apb_3_presetn       $end
$var wire    1  aaaak  apb_2_pwrite       $end
$var wire    1  aaaal  apb_2_penable       $end
$var wire    1  aaaam  apb_2_psel       $end
$var wire    1  aaaan  apb_2_presetn       $end
$var wire    1  aaaao  apb_1_pwrite       $end
$var wire    1  aaaap  apb_1_penable       $end
$var wire    1  aaaaq  apb_1_psel       $end
$var wire    1  aaaar  apb_1_presetn       $end
$var wire    1  aaaas  apb_master_presetn       $end
$var wire    1  aaaat  apb_master_pwrite       $end
$var wire    1  aaaau  apb_master_penable       $end
$var wire    1  aaaav  apb_master_psel2       $end
$var wire    1  aaaaw  apb_master_psel1       $end
$var wire    1  aaaax  apb_master_psel0       $end
$upscope $end
$enddefinitions  $end

$comment
All initial values are dumped below at time 0 sec = 0 timescale units.
$end

$dumpvars
0aaaaa
0aaaab
1aaaac
1aaaad
1aaaae
0aaaaf
xaaaag
xaaaah
xaaaai
xaaaaj
xaaaak
xaaaal
xaaaam
xaaaan
xaaaao
xaaaap
xaaaaq
xaaaar
0aaaas
1aaaat
1aaaau
1aaaav
0aaaaw
0aaaax
$end

#2
0aaaad
0aaaae
1aaaag
1aaaah
1aaaai
0aaaaj
0aaaam
0aaaaq
0aaaat
0aaaau

#4
1aaaaa
1aaaab
0aaaac
1aaaad
1aaaae
0aaaag
0aaaah
1aaaat
1aaaau
0aaaav
1aaaaw
1aaaax

#6
0aaaab
1aaaac
0aaaae
0aaaai
1aaaam
1aaaao
1aaaap
1aaaaq
0aaaar
0aaaat
1aaaav
0aaaaw

#8
1aaaab
1aaaae
1aaaai
0aaaam
0aaaao
1aaaat
1aaaaw

#10
0aaaaa
0aaaab
0aaaad
0aaaae
1aaaam
1aaaao
0aaaat
0aaaau
0aaaaw
0aaaax

#12
1aaaab
0aaaac
1aaaad
1aaaae
0aaaam
0aaaaq
1aaaat
1aaaau
0aaaav
1aaaaw

#14
1aaaac
0aaaae
0aaaai
1aaaak
1aaaal
1aaaam
0aaaan
0aaaat
1aaaav

#16
0aaaab
1aaaae
1aaaai
0aaaak
1aaaat
0aaaaw

#18
1aaaab
1aaaag
1aaaah
0aaaam
1aaaaw

#20
0aaaab
1aaaak
1aaaam
0aaaaw

#22
1aaaab
0aaaae
0aaaam
0aaaat
1aaaaw

#24
1aaaaa
0aaaac
0aaaak
1aaaam
0aaaav
1aaaax

#26
0aaaaa
0aaaab
1aaaae
0aaaai
0aaaao
1aaaaq
1aaaat
0aaaaw
0aaaax

#28
0aaaad
0aaaam
0aaaaq
0aaaau

#30
1aaaaa
1aaaax

#32
0aaaaa
1aaaao
0aaaap
1aaaaq
0aaaax

#34
1aaaaa
1aaaac
0aaaaq
1aaaav
1aaaax

#36
0aaaaa
1aaaab
0aaaac
0aaaae
1aaaai
1aaaaq
0aaaat
0aaaav
1aaaaw
0aaaax

#38
1aaaaa
1aaaad
1aaaae
0aaaai
0aaaal
1aaaam
0aaaaq
1aaaat
1aaaau
1aaaax

#40
0aaaae
1aaaap
1aaaaq
0aaaat

#42
0aaaaa
1aaaac
1aaaae
0aaaao
1aaaat
1aaaav
0aaaax

#44
0aaaab
0aaaad
0aaaae
1aaaai
1aaaak
1aaaal
0aaaaq
0aaaat
0aaaau
0aaaaw

#46
1aaaab
1aaaad
1aaaae
0aaaag
0aaaah
0aaaam
1aaaat
1aaaau
1aaaaw

#48
0aaaae
1aaaam
0aaaat

#50
1aaaaa
0aaaab
0aaaac
0aaaad
1aaaae
0aaaak
1aaaat
0aaaau
0aaaav
0aaaaw
1aaaax

#52
0aaaaa
0aaaai
0aaaam
1aaaao
0aaaap
1aaaaq
0aaaax

#54
1aaaaa
1aaaac
1aaaad
0aaaaq
1aaaau
1aaaav
1aaaax

#56
1aaaab
0aaaad
0aaaae
1aaaai
1aaaap
1aaaaq
0aaaat
0aaaau
1aaaaw

#58
0aaaaa
0aaaac
1aaaad
1aaaae
1aaaam
0aaaao
0aaaap
1aaaat
1aaaau
0aaaav
0aaaax

#60
1aaaaa
0aaaad
0aaaae
0aaaai
1aaaak
0aaaaq
0aaaat
0aaaau
1aaaax

#62
1aaaac
1aaaad
1aaaaq
1aaaau
1aaaav

#64
0aaaaa
0aaaab
1aaaai
1aaaap
0aaaaw
0aaaax

#66
0aaaad
1aaaah
0aaaam
0aaaaq
0aaaau

#68
1aaaad
0aaaah
1aaaau

#70
0aaaac
0aaaad
1aaaae
1aaaah
1aaaat
0aaaau
0aaaav

#72
1aaaaa
1aaaac
0aaaai
1aaaav
1aaaax

#74
1aaaab
0aaaac
1aaaad
1aaaai
1aaaao
0aaaap
1aaaaq
1aaaau
0aaaav
1aaaaw

#76
0aaaab
0aaaad
0aaaai
1aaaam
1aaaap
0aaaau
0aaaaw

#78
0aaaaa
1aaaad
0aaaae
0aaaam
0aaaap
0aaaat
1aaaau
0aaaax

#80
1aaaab
1aaaac
0aaaaq
1aaaav
1aaaaw

#82
0aaaab
0aaaad
1aaaae
1aaaai
0aaaak
1aaaam
1aaaat
0aaaau
0aaaaw

#84
1aaaaa
1aaaab
0aaaac
1aaaad
0aaaae
1aaaag
0aaaah
0aaaam
0aaaat
1aaaau
0aaaav
1aaaaw
1aaaax

#86
0aaaaa
0aaaad
1aaaae
0aaaai
1aaaam
0aaaao
1aaaap
1aaaaq
1aaaat
0aaaau
0aaaax

#88
1aaaaa
1aaaad
1aaaak
0aaaal
0aaaaq
1aaaau
1aaaax

#90
0aaaaa
0aaaab
0aaaae
1aaaao
1aaaaq
0aaaat
0aaaaw
0aaaax

#92
1aaaac
0aaaam
0aaaaq
1aaaav

#94
0aaaad
1aaaae
0aaaag
1aaaah
1aaaai
1aaaat
0aaaau

#96
1aaaab
1aaaag
0aaaah
1aaaaw

#98
1aaaaa
0aaaab
0aaaac
1aaaad
1aaaam
1aaaau
0aaaav
0aaaaw
1aaaax

#100
0aaaai
0aaaam
1aaaaq

#102
1aaaab
0aaaae
0aaaat
1aaaaw

#104
1aaaac
0aaaad
1aaaae
1aaaam
0aaaao
1aaaat
0aaaau
1aaaav

#106
0aaaaa
1aaaad
0aaaae
1aaaai
1aaaao
0aaaap
0aaaat
1aaaau
0aaaax

#108
1aaaaa
0aaaac
0aaaak
1aaaal
0aaaaq
0aaaav
1aaaax

#110
0aaaaa
1aaaac
0aaaad
1aaaae
0aaaai
0aaaao
1aaaap
1aaaaq
1aaaat
0aaaau
1aaaav
0aaaax

#112
1aaaaa
0aaaab
1aaaad
0aaaae
1aaaai
1aaaak
0aaaal
0aaaaq
0aaaat
1aaaau
0aaaaw
1aaaax

#114
0aaaaa
0aaaac
1aaaae
0aaaam
1aaaaq
1aaaat
0aaaav
0aaaax

#116
1aaaaa
1aaaab
0aaaad
0aaaai
0aaaaq
0aaaau
1aaaaw
1aaaax

#118
0aaaaa
0aaaae
1aaaam
1aaaao
0aaaap
1aaaaq
0aaaat
0aaaax

#120
0aaaab
1aaaac
1aaaad
0aaaak
0aaaaq
1aaaau
1aaaav
0aaaaw

#122
1aaaae
0aaaag
1aaaah
1aaaai
0aaaam
1aaaat

#124
0aaaae
1aaaag
0aaaat

#126
1aaaaa
1aaaab
0aaaad
0aaaag
0aaaau
1aaaaw
1aaaax

#128
0aaaaa
0aaaac
1aaaad
1aaaam
0aaaao
1aaaaq
1aaaau
0aaaav
0aaaax

#130
0aaaad
0aaaai
1aaaal
0aaaaq
0aaaau

#132
1aaaad
0aaaal
1aaaau

#134
1aaaaa
0aaaab
1aaaac
1aaaae
1aaaal
1aaaat
1aaaav
0aaaaw
1aaaax

#136
1aaaab
0aaaad
0aaaae
1aaaai
0aaaam
1aaaao
1aaaap
1aaaaq
0aaaat
0aaaau
1aaaaw

#138
0aaaaa
1aaaad
1aaaae
1aaaam
0aaaao
0aaaap
1aaaat
1aaaau
0aaaax

#140
0aaaab
1aaaak
0aaaaq
0aaaaw

#142
1aaaaa
1aaaag
0aaaam
1aaaax

#144
0aaaac
1aaaao
1aaaap
1aaaaq
0aaaav

#146
0aaaad
0aaaae
0aaaai
0aaaat
0aaaau

#148
0aaaaa
1aaaab
0aaaao
0aaaap
1aaaaw
0aaaax

#150
1aaaaa
0aaaab
1aaaac
1aaaad
1aaaae
0aaaak
0aaaal
1aaaam
0aaaaq
1aaaat
1aaaau
1aaaav
0aaaaw
1aaaax

#152
1aaaab
0aaaae
1aaaai
0aaaam
1aaaao
1aaaap
1aaaaq
0aaaat
1aaaaw

#154
1aaaam
0aaaao

#156
0aaaad
0aaaau

#158
0aaaaa
0aaaab
1aaaae
0aaaap
1aaaat
0aaaaw
0aaaax

#160
1aaaaa
1aaaab
0aaaac
0aaaae
0aaaah
0aaaam
0aaaaq
0aaaat
0aaaav
1aaaaw
1aaaax

#162
0aaaaa
1aaaac
0aaaai
1aaaam
1aaaaq
1aaaav
0aaaax

#164
0aaaac
1aaaae
1aaaai
0aaaaq
1aaaat
0aaaav

#166
1aaaaa
0aaaab
1aaaac
1aaaad
0aaaai
1aaaak
1aaaau
1aaaav
0aaaaw
1aaaax

#168
0aaaaa
0aaaac
0aaaae
1aaaai
0aaaam
1aaaao
1aaaap
1aaaaq
0aaaat
0aaaav
0aaaax

#170
1aaaaa
0aaaai
0aaaaq
1aaaax

#172
1aaaab
1aaaac
0aaaao
1aaaaq
1aaaav
1aaaaw

#174
0aaaab
0aaaac
1aaaai
1aaaam
0aaaav
0aaaaw

#176
0aaaaa
1aaaac
1aaaae
0aaaai
0aaaam
1aaaat
1aaaav
0aaaax

#178
1aaaaa
1aaaab
0aaaae
1aaaah
1aaaai
0aaaaq
0aaaat
1aaaaw
1aaaax

#180
1aaaam
1aaaaq

#182
0aaaac
0aaaad
1aaaae
1aaaat
0aaaau
0aaaav

#184
0aaaab
1aaaac
1aaaad
0aaaae
0aaaai
1aaaao
0aaaap
0aaaat
1aaaau
1aaaav
0aaaaw

#186
1aaaab
0aaaac
1aaaai
0aaaam
0aaaao
1aaaap
0aaaav
1aaaaw

#188
0aaaaa
1aaaac
0aaaad
1aaaae
0aaaai
1aaaam
1aaaat
0aaaau
1aaaav
0aaaax

#190
0aaaae
1aaaai
0aaaaq
0aaaat

#192
1aaaaa
0aaaab
0aaaac
1aaaad
1aaaae
0aaaak
1aaaat
1aaaau
0aaaav
0aaaaw
1aaaax

#194
1aaaac
0aaaad
0aaaai
0aaaam
1aaaao
1aaaaq
0aaaau
1aaaav

#196
0aaaaa
0aaaac
1aaaad
0aaaae
1aaaai
0aaaap
0aaaat
1aaaau
0aaaav
0aaaax

#198
1aaaaa
0aaaad
1aaaae
0aaaai
0aaaaq
1aaaat
0aaaau
1aaaax

#200
0aaaaa
1aaaac
1aaaaq
1aaaav
0aaaax

#202
1aaaab
1aaaad
0aaaah
1aaaai
0aaaaq
1aaaau
1aaaaw

#204
0aaaab
0aaaae
1aaaak
1aaaal
1aaaam
0aaaat
0aaaaw

#206
0aaaac
0aaaad
0aaaag
1aaaah
0aaaam
0aaaau
0aaaav

#208
1aaaaa
1aaaab
1aaaad
1aaaae
0aaaai
1aaaat
1aaaau
1aaaaw
1aaaax

#210
0aaaab
1aaaam
1aaaap
1aaaaq
0aaaaw

#212
1aaaab
0aaaad
0aaaam
0aaaau
1aaaaw

#214
0aaaaa
0aaaab
1aaaam
0aaaap
0aaaaw
0aaaax

#216
1aaaab
1aaaac
1aaaad
0aaaam
0aaaaq
1aaaau
1aaaav
1aaaaw

#218
0aaaac
1aaaai
1aaaam
0aaaav

#220
1aaaaa
0aaaab
1aaaac
0aaaad
0aaaai
0aaaau
1aaaav
0aaaaw
1aaaax

#222
1aaaab
1aaaad
0aaaae
1aaaai
0aaaam
1aaaaq
0aaaat
1aaaau
1aaaaw

#224
1aaaae
1aaaam
0aaaao
1aaaap
1aaaat

#226
0aaaaa
0aaaad
1aaaao
0aaaau
0aaaax

#228
1aaaaa
0aaaae
0aaaal
0aaaaq
0aaaat
1aaaax

#230
0aaaaa
0aaaac
1aaaad
0aaaao
0aaaap
1aaaaq
1aaaau
0aaaav
0aaaax

#232
1aaaaa
0aaaab
1aaaac
0aaaad
0aaaai
0aaaak
1aaaal
0aaaaq
0aaaau
1aaaav
0aaaaw
1aaaax

#234
1aaaab
1aaaai
0aaaam
1aaaaq
1aaaaw

#236
0aaaac
1aaaam
0aaaav

#238
0aaaab
1aaaad
1aaaae
0aaaai
1aaaat
1aaaau
0aaaaw

#240
0aaaaa
1aaaac
0aaaad
0aaaam
1aaaao
1aaaap
0aaaau
1aaaav
0aaaax

#242
1aaaaa
1aaaab
1aaaag
0aaaah
1aaaai
0aaaaq
1aaaaw
1aaaax

#244
0aaaab
0aaaae
1aaaam
0aaaap
1aaaaq
0aaaat
0aaaaw

#246
1aaaab
1aaaae
0aaaam
0aaaao
1aaaat
1aaaaw

#248
0aaaab
1aaaam
1aaaao
0aaaaw

#250
1aaaab
0aaaac
1aaaad
0aaaae
0aaaam
0aaaat
1aaaau
0aaaav
1aaaaw

#252
0aaaaa
0aaaad
1aaaae
0aaaai
1aaaam
0aaaao
1aaaap
1aaaat
0aaaau
0aaaax

#254
1aaaac
1aaaad
0aaaae
1aaaak
0aaaal
0aaaaq
0aaaat
1aaaau
1aaaav

#256
0aaaab
0aaaac
0aaaad
1aaaae
1aaaai
0aaaak
1aaaal
1aaaat
0aaaau
0aaaav
0aaaaw

#258
1aaaab
1aaaac
0aaaai
0aaaam
1aaaav
1aaaaw

#260
0aaaab
0aaaac
1aaaad
1aaaai
1aaaak
0aaaal
1aaaam
1aaaau
0aaaav
0aaaaw

#262
0aaaai
0aaaam

#264
1aaaab
0aaaad
0aaaau
1aaaaw

#266
1aaaac
1aaaad
1aaaam
1aaaau
1aaaav

#268
0aaaab
0aaaad
0aaaae
1aaaai
1aaaal
0aaaat
0aaaau
0aaaaw

#270
1aaaab
1aaaad
0aaaag
0aaaam
1aaaau
1aaaaw

#272
0aaaab
0aaaad
0aaaak
1aaaam
0aaaau
0aaaaw

#274
1aaaaa
1aaaab
0aaaam
1aaaaw
1aaaax

#276
0aaaaa
1aaaam
0aaaap
1aaaaq
0aaaax

#278
1aaaad
1aaaae
0aaaal
0aaaaq
1aaaat
1aaaau

#280
1aaaak
1aaaal

#282
1aaaaa
0aaaab
0aaaad
0aaaae
0aaaat
0aaaau
0aaaaw
1aaaax

#284
0aaaac
1aaaae
0aaaam
1aaaaq
1aaaat
0aaaav

#286
1aaaab
1aaaac
0aaaai
1aaaao
1aaaav
1aaaaw

#288
0aaaaa
0aaaab
0aaaac
0aaaae
1aaaai
1aaaam
0aaaat
0aaaav
0aaaaw
0aaaax

#290
0aaaai
0aaaam
0aaaaq

#292
1aaaaa
1aaaad
1aaaau
1aaaax

#294
0aaaaa
1aaaab
1aaaac
1aaaae
0aaaao
1aaaap
1aaaaq
1aaaat
1aaaav
1aaaaw
0aaaax

#296
0aaaac
0aaaae
1aaaai
1aaaam
0aaaaq
0aaaat
0aaaav

#298
1aaaaa
1aaaac
0aaaad
1aaaae
0aaaai
0aaaak
1aaaat
0aaaau
1aaaav
1aaaax

#300
1aaaad
0aaaae
1aaaai
1aaaao
0aaaap
1aaaaq
0aaaat
1aaaau

#302
1aaaae
0aaaao
1aaaap
1aaaat

#304
0aaaaa
0aaaab
0aaaae
1aaaao
0aaaat
0aaaaw
0aaaax

#306
1aaaaa
1aaaab
0aaaac
0aaaad
1aaaae
1aaaah
0aaaam
0aaaaq
1aaaat
0aaaau
0aaaav
1aaaaw
1aaaax

#308
1aaaad
0aaaae
0aaaai
1aaaam
0aaaap
1aaaaq
0aaaat
1aaaau

#310
0aaaab
1aaaac
0aaaao
1aaaap
1aaaav
0aaaaw

#312
0aaaac
0aaaad
1aaaai
0aaaam
0aaaau
0aaaav

#314
1aaaab
0aaaai
0aaaap
1aaaaw

#316
1aaaad
1aaaae
1aaaam
1aaaat
1aaaau

#318
0aaaaa
1aaaac
0aaaad
0aaaae
1aaaao
1aaaap
0aaaat
0aaaau
1aaaav
0aaaax

#320
0aaaab
1aaaae
1aaaai
0aaaal
0aaaaq
1aaaat
0aaaaw

#322
1aaaab
1aaaad
1aaaag
0aaaah
0aaaam
1aaaau
1aaaaw

#324
1aaaaa
0aaaab
0aaaac
0aaaad
0aaaae
1aaaak
1aaaal
1aaaam
0aaaat
0aaaau
0aaaav
0aaaaw
1aaaax

#326
1aaaac
1aaaad
1aaaae
0aaaai
0aaaam
0aaaao
0aaaap
1aaaaq
1aaaat
1aaaau
1aaaav

#328
0aaaaa
1aaaab
0aaaac
0aaaae
1aaaai
1aaaao
1aaaap
0aaaat
0aaaav
1aaaaw
0aaaax

#330
0aaaab
1aaaae
0aaaai
0aaaak
1aaaam
0aaaaq
1aaaat
0aaaaw

#332
1aaaab
0aaaae
0aaaam
0aaaat
1aaaaw

#334
1aaaaa
0aaaab
0aaaad
1aaaae
1aaaam
1aaaat
0aaaau
0aaaaw
1aaaax

#336
0aaaaa
1aaaac
0aaaae
0aaaam
0aaaap
1aaaaq
0aaaat
1aaaav
0aaaax

#338
0aaaac
1aaaad
0aaaag
1aaaai
0aaaaq
1aaaau
0aaaav

#340
1aaaaa
1aaaab
1aaaac
1aaaae
0aaaai
1aaaat
1aaaav
1aaaaw
1aaaax

#342
0aaaab
0aaaac
0aaaad
0aaaae
1aaaai
1aaaam
1aaaap
1aaaaq
0aaaat
0aaaau
0aaaav
0aaaaw

#344
1aaaab
1aaaad
1aaaae
0aaaai
0aaaam
0aaaao
0aaaap
1aaaat
1aaaau
1aaaaw

#346
0aaaae
1aaaam
1aaaao
1aaaap
0aaaat

#348
0aaaaa
1aaaac
0aaaao
1aaaav
0aaaax

#350
1aaaaa
0aaaab
0aaaad
1aaaae
1aaaai
0aaaaq
1aaaat
0aaaau
0aaaaw
1aaaax

#352
0aaaaa
1aaaab
0aaaae
0aaaam
1aaaao
0aaaap
1aaaaq
0aaaat
1aaaaw
0aaaax

#354
1aaaaa
0aaaal
1aaaam
0aaaaq
1aaaax

#356
0aaaaa
0aaaab
0aaaac
1aaaad
0aaaao
1aaaaq
1aaaau
0aaaav
0aaaaw
0aaaax

#358
1aaaab
0aaaai
0aaaam
0aaaaq
1aaaaw

#360
0aaaab
0aaaad
1aaaal
1aaaam
0aaaau
0aaaaw

#362
1aaaaa
1aaaab
1aaaac
0aaaam
1aaaav
1aaaaw
1aaaax

#364
0aaaaa
0aaaac
1aaaad
1aaaai
1aaaam
1aaaaq
1aaaau
0aaaav
0aaaax

#366
1aaaaa
0aaaab
1aaaac
0aaaad
1aaaae
0aaaai
0aaaaq
1aaaat
0aaaau
1aaaav
0aaaaw
1aaaax

#368
1aaaab
0aaaac
0aaaae
1aaaai
0aaaam
1aaaao
1aaaaq
0aaaat
0aaaav
1aaaaw

#370
0aaaaa
0aaaab
1aaaac
1aaaae
0aaaai
1aaaam
0aaaao
1aaaat
1aaaav
0aaaaw
0aaaax

#372
1aaaaa
1aaaag
1aaaai
0aaaam
0aaaaq
1aaaax

#374
0aaaaa
0aaaac
0aaaae
1aaaao
1aaaaq
0aaaat
0aaaav
0aaaax

#376
1aaaaa
1aaaab
1aaaae
0aaaai
0aaaaq
1aaaat
1aaaaw
1aaaax

#378
0aaaab
1aaaac
0aaaae
1aaaam
1aaaaq
0aaaat
1aaaav
0aaaaw

#380
0aaaaa
0aaaac
1aaaae
1aaaai
0aaaam
0aaaao
1aaaat
0aaaav
0aaaax

#382
1aaaad
0aaaai
0aaaaq
1aaaau

#384
1aaaac
0aaaad
0aaaau
1aaaav

#386
1aaaaa
1aaaai
1aaaax

#388
0aaaac
1aaaad
0aaaae
1aaaao
1aaaaq
0aaaat
1aaaau
0aaaav

#390
0aaaaa
1aaaac
0aaaai
0aaaao
1aaaap
1aaaav
0aaaax

#392
1aaaaa
0aaaag
1aaaah
1aaaai
0aaaaq
1aaaax

#394
1aaaab
0aaaac
0aaaad
1aaaaq
0aaaau
0aaaav
1aaaaw

#396
0aaaaa
0aaaab
1aaaad
0aaaai
1aaaam
0aaaap
1aaaau
0aaaaw
0aaaax

#398
1aaaab
0aaaad
1aaaae
0aaaam
0aaaaq
1aaaat
0aaaau
1aaaaw

#400
1aaaaa
0aaaae
1aaaak
0aaaal
1aaaam
0aaaat
1aaaax

#402
0aaaaa
1aaaac
1aaaad
1aaaaq
1aaaau
1aaaav
0aaaax

#404
1aaaaa
0aaaab
0aaaac
1aaaae
1aaaai
0aaaak
1aaaal
0aaaaq
1aaaat
0aaaav
0aaaaw
1aaaax

#406
0aaaai
0aaaam
1aaaao
1aaaap
1aaaaq

#408
0aaaaa
1aaaac
1aaaav
0aaaax

#410
1aaaaa
1aaaab
0aaaad
0aaaae
1aaaag
1aaaai
0aaaaq
0aaaat
0aaaau
1aaaaw
1aaaax

#412
0aaaaa
0aaaab
0aaaac
1aaaam
0aaaao
0aaaap
1aaaaq
0aaaav
0aaaaw
0aaaax

#414
1aaaaa
1aaaab
1aaaad
1aaaae
0aaaai
0aaaam
0aaaaq
1aaaat
1aaaau
1aaaaw
1aaaax

#416
0aaaab
0aaaae
1aaaam
1aaaao
1aaaap
1aaaaq
0aaaat
0aaaaw

#418
1aaaab
1aaaac
0aaaam
0aaaao
1aaaav
1aaaaw

#420
0aaaaa
0aaaab
0aaaad
1aaaae
1aaaai
1aaaam
1aaaat
0aaaau
0aaaaw
0aaaax

#422
1aaaab
0aaaac
0aaaah
0aaaam
0aaaaq
0aaaav
1aaaaw

#424
1aaaac
0aaaai
1aaaak
0aaaal
1aaaam
1aaaav

#426
0aaaab
0aaaac
0aaaae
1aaaai
0aaaat
0aaaav
0aaaaw

#428
1aaaac
1aaaad
0aaaai
0aaaam
1aaaau
1aaaav

#430
0aaaac
0aaaad
1aaaae
0aaaag
1aaaah
1aaaai
1aaaat
0aaaau
0aaaav

#432
1aaaaa
1aaaab
1aaaad
0aaaae
0aaaai
0aaaat
1aaaau
1aaaaw
1aaaax

#434
0aaaaa
0aaaab
0aaaad
1aaaam
1aaaaq
0aaaau
0aaaaw
0aaaax

#436
1aaaaa
1aaaac
1aaaae
0aaaam
0aaaaq
1aaaat
1aaaav
1aaaax

#438
1aaaab
0aaaac
1aaaad
0aaaae
1aaaai
1aaaao
0aaaap
1aaaaq
0aaaat
1aaaau
0aaaav
1aaaaw

#440
1aaaac
0aaaad
0aaaai
1aaaam
0aaaao
1aaaap
0aaaau
1aaaav

#442
0aaaaa
0aaaac
1aaaae
1aaaai
0aaaap
1aaaat
0aaaav
0aaaax

#444
1aaaac
1aaaad
0aaaae
0aaaai
0aaaaq
0aaaat
1aaaau
1aaaav

#446
1aaaae
1aaaai
0aaaak
1aaaal
1aaaat

#448
1aaaaa
0aaaab
1aaaak
0aaaaw
1aaaax

#450
0aaaaa
1aaaab
0aaaac
0aaaam
1aaaao
1aaaap
1aaaaq
0aaaav
1aaaaw
0aaaax

#452
1aaaaa
0aaaad
0aaaai
1aaaam
0aaaaq
0aaaau
1aaaax

#454
1aaaac
0aaaae
0aaaap
1aaaaq
0aaaat
1aaaav

#456
1aaaae
1aaaai
0aaaao
1aaaat

#458
0aaaaa
0aaaab
0aaaac
1aaaad
0aaaae
1aaaao
0aaaat
1aaaau
0aaaav
0aaaaw
0aaaax

#460
1aaaac
0aaaad
0aaaai
0aaaam
0aaaaq
0aaaau
1aaaav

#462
1aaaaa
0aaaac
1aaaad
0aaaah
1aaaai
1aaaau
0aaaav
1aaaax

#464
0aaaaa
1aaaab
0aaaad
0aaaai
0aaaao
1aaaap
1aaaaq
0aaaau
1aaaaw
0aaaax

#466
0aaaab
1aaaac
0aaaak
0aaaal
1aaaam
0aaaaq
1aaaav
0aaaaw

#468
1aaaaa
0aaaac
1aaaad
1aaaae
1aaaai
0aaaam
1aaaat
1aaaau
0aaaav
1aaaax

#470
1aaaab
0aaaad
0aaaae
0aaaai
1aaaao
1aaaaq
0aaaat
0aaaau
1aaaaw

#472
0aaaab
1aaaac
1aaaad
1aaaam
0aaaao
0aaaap
1aaaau
1aaaav
0aaaaw

#474
0aaaaa
1aaaab
0aaaad
1aaaae
1aaaai
0aaaam
1aaaap
1aaaat
0aaaau
1aaaaw
0aaaax

#476
0aaaac
0aaaae
1aaaak
1aaaam
0aaaaq
0aaaat
0aaaav

#478
1aaaaa
1aaaad
1aaaae
0aaaai
0aaaak
1aaaat
1aaaau
1aaaax

#480
0aaaab
1aaaac
0aaaad
0aaaae
1aaaao
1aaaaq
0aaaat
0aaaau
1aaaav
0aaaaw

#482
1aaaab
1aaaad
1aaaae
1aaaai
0aaaam
0aaaao
0aaaap
1aaaat
1aaaau
1aaaaw

#484
0aaaaa
1aaaam
1aaaao
1aaaap
0aaaax

#486
0aaaab
0aaaac
0aaaad
1aaaak
1aaaal
0aaaaq
0aaaau
0aaaav
0aaaaw

#488
1aaaaa
1aaaab
1aaaac
1aaaad
0aaaai
0aaaam
1aaaau
1aaaav
1aaaaw
1aaaax

#490
0aaaab
0aaaac
0aaaad
0aaaae
1aaaai
1aaaam
1aaaaq
0aaaat
0aaaau
0aaaav
0aaaaw

#492
0aaaaa
1aaaab
1aaaad
0aaaai
0aaaam
0aaaao
0aaaap
1aaaau
1aaaaw
0aaaax

#494
1aaaaa
1aaaac
0aaaad
0aaaak
1aaaam
0aaaaq
0aaaau
1aaaav
1aaaax

#496
0aaaab
0aaaac
1aaaad
1aaaae
1aaaai
1aaaaq
1aaaat
1aaaau
0aaaav
0aaaaw

#498
1aaaab
1aaaac
0aaaad
0aaaai
0aaaam
1aaaao
1aaaap
0aaaau
1aaaav
1aaaaw

#500
0aaaaa
0aaaab
0aaaac
0aaaae
1aaaai
1aaaam
0aaaap
0aaaat
0aaaav
0aaaaw
0aaaax

#502
1aaaad
0aaaai
0aaaam
0aaaaq
1aaaau

#504
1aaaac
1aaaav

#506
1aaaab
1aaaah
1aaaai
1aaaaw

#508
1aaaaa
0aaaac
1aaaam
0aaaav
1aaaax

#510
0aaaaa
0aaaab
1aaaac
0aaaad
1aaaae
0aaaai
0aaaao
1aaaap
1aaaaq
1aaaat
0aaaau
1aaaav
0aaaaw
0aaaax

#512
1aaaaa
1aaaab
1aaaad
0aaaae
1aaaag
0aaaah
1aaaai
0aaaam
0aaaaq
0aaaat
1aaaau
1aaaaw
1aaaax

#514
0aaaaa
0aaaab
0aaaac
0aaaad
1aaaam
1aaaaq
0aaaau
0aaaav
0aaaaw
0aaaax

#516
1aaaaa
0aaaai
0aaaam
0aaaaq
1aaaax

#518
0aaaaa
1aaaab
1aaaac
1aaaad
1aaaae
0aaaap
1aaaaq
1aaaat
1aaaau
1aaaav
1aaaaw
0aaaax

#520
0aaaae
1aaaai
1aaaak
1aaaam
0aaaaq
0aaaat

#522
1aaaaa
0aaaab
0aaaac
1aaaae
0aaaak
1aaaat
0aaaav
0aaaaw
1aaaax

#524
0aaaaa
1aaaab
1aaaac
0aaaae
0aaaai
0aaaam
1aaaao
1aaaap
1aaaaq
0aaaat
1aaaav
1aaaaw
0aaaax

#526
0aaaab
1aaaae
1aaaai
1aaaam
0aaaaq
1aaaat
0aaaaw

#528
0aaaae
1aaaah
0aaaam
0aaaat

#530
1aaaaa
0aaaac
1aaaae
0aaaag
1aaaat
0aaaav
1aaaax

#532
0aaaaa
1aaaac
0aaaae
0aaaai
1aaaaq
0aaaat
1aaaav
0aaaax

#534
1aaaaa
1aaaab
0aaaac
1aaaai
0aaaaq
0aaaav
1aaaaw
1aaaax

#536
0aaaaa
0aaaab
1aaaac
0aaaai
1aaaam
0aaaao
1aaaaq
1aaaav
0aaaaw
0aaaax

#538
1aaaaa
1aaaab
1aaaai
0aaaam
0aaaaq
1aaaaw
1aaaax

#540
0aaaaa
0aaaac
1aaaae
1aaaam
1aaaaq
1aaaat
0aaaav
0aaaax

#542
1aaaaa
0aaaab
0aaaai
1aaaak
0aaaaq
0aaaaw
1aaaax

#544
0aaaaa
0aaaad
0aaaae
0aaaam
1aaaao
1aaaaq
0aaaat
0aaaau
0aaaax

#546
1aaaac
1aaaad
0aaaaq
1aaaau
1aaaav

#548
0aaaac
0aaaad
1aaaae
1aaaai
1aaaat
0aaaau
0aaaav

#550
1aaaaa
1aaaab
1aaaac
0aaaai
1aaaav
1aaaaw
1aaaax

#552
0aaaab
0aaaac
1aaaad
1aaaai
1aaaam
0aaaap
1aaaaq
1aaaau
0aaaav
0aaaaw

#554
0aaaaa
0aaaad
0aaaae
0aaaai
0aaaam
1aaaap
0aaaat
0aaaau
0aaaax

#556
1aaaaa
1aaaab
1aaaac
1aaaae
0aaaaq
1aaaat
1aaaav
1aaaaw
1aaaax

#558
0aaaab
0aaaac
0aaaae
1aaaai
1aaaam
0aaaap
1aaaaq
0aaaat
0aaaav
0aaaaw

#560
1aaaad
1aaaae
0aaaai
0aaaam
0aaaao
1aaaat
1aaaau

#562
1aaaab
1aaaac
0aaaad
0aaaae
1aaaao
1aaaap
0aaaat
0aaaau
1aaaav
1aaaaw

#564
0aaaaa
0aaaab
0aaaac
1aaaai
1aaaam
0aaaao
0aaaap
0aaaav
0aaaaw
0aaaax

#566
1aaaaa
1aaaab
1aaaac
1aaaae
0aaaai
0aaaam
0aaaaq
1aaaat
1aaaav
1aaaaw
1aaaax

