mangrove_master/regression/apb/apb_numeric.vcd
$date
     May 19, 2016       17:14:41
$end

$version
 SystemC 2.3.1-Accellera --- Jul 30 2015 08:59:58
$end

$scope module SystemC $end
$var wire   32  aaaaa  addr [31:0]  $end
$var wire   32  aaaab  wdata [31:0]  $end
$var wire   32  aaaac  rdata [31:0]  $end
$var wire   32  aaaad  rdata_var [31:0]  $end
$var wire   32  aaaae  apb_3_pwdata [31:0]  $end
$var wire   32  aaaaf  apb_3_prdata [31:0]  $end
$var wire   32  aaaag  apb_3_paddr [31:0]  $end
$var wire   32  aaaah  apb_2_pwdata [31:0]  $end
$var wire   32  aaaai  apb_2_prdata [31:0]  $end
$var wire   32  aaaaj  apb_2_paddr [31:0]  $end
$var wire    8  aaaak  apb_1_pwdata [7:0]  $end
$var wire    8  aaaal  apb_1_prdata [7:0]  $end
$var wire    3  aaaam  apb_1_paddr [2:0]  $end
$var wire   32  aaaan  apb_master_paddr [31:0]  $end
$var wire   32  aaaao  apb_master_pwdata [31:0]  $end
$var wire   32  aaaap  apb_master_prdata [31:0]  $end
$upscope $end
$enddefinitions  $end

$comment
All initial values are dumped below at time 0 sec = 0 timescale units.
$end

$dumpvars
b1110010101110110010010101110100 aaaaa
b11100010110000110111001001111111 aaaab
bXXXXXXXXXXXXXXXXXXXXXXXXXXXXXXXX aaaac
bXXXXXXXXXXXXXXXXXXXXXXXXXXXXXXXX aaaad
bXXXXXXXXXXXXXXXXXXXXXXXXXXXXXXXX aaaae
bXXXXXXXXXXXXXXXXXXXXXXXXXXXXXXXX aaaaf
bXXXXXXXXXXXXXXXXXXXXXXXXXXXXXXXX aaaag
bXXXXXXXXXXXXXXXXXXXXXXXXXXXXXXXX aaaah
bXXXXXXXXXXXXXXXXXXXXXXXXXXXXXXXX aaaai
bXXXXXXXXXXXXXXXXXXXXXXXXXXXXXXXX aaaaj
bXXXXXXXX aaaak
bXXXXXXXX aaaal
bXXX aaaam
b1110010101110110010010101110100 aaaan
b11100010110000110111001001111111 aaaao
bXXXXXXXXXXXXXXXXXXXXXXXXXXXXXXXX aaaap
$end

#2
b1101010100001001101100101100 aaaaa
b1000001000010000010010010111000 aaaac
b1000001000010000010010010111000 aaaad
b11100010110000110111001001111111 aaaae
b1000001000010000010010010111000 aaaaf
b1110010101110110010010101110100 aaaag
b10101100011011100101000000001111 aaaai
b10001011 aaaal
b1101010100001001101100101100 aaaan

#4
b1100001111111000010001011101110 aaaaa
b1010000000101110101110011011110 aaaab
b10001011 aaaac
b10001011 aaaad
b1101010100001001101100101100 aaaag
b1100001111111000010001011101110 aaaan
b1010000000101110101110011011110 aaaao
b1000001000010000010010010111000 aaaap

#6
b10010100101001111100000101010001 aaaaa
b10101101 aaaac
b10101101 aaaad
b11101110110101000000000110000111 aaaaf
b1010111001111110100011001001111 aaaai
b11011110 aaaak
b10101101 aaaal
b110 aaaam
b10010100101001111100000101010001 aaaan
b10001011 aaaap

#8
b1111111010110001111011000100011 aaaaa
b10010100010100100100101110101000 aaaab
b1 aaaam
b1111111010110001111011000100011 aaaan
b10010100010100100100101110101000 aaaao
b10101101 aaaap

#10
b11011010101110111001001000110111 aaaaa
b11101011000110001001010011011011 aaaac
b11101011000110001001010011011011 aaaad
b11101011000110001001010011011011 aaaaf
b1010101000101101110110110000001 aaaai
b10101000 aaaak
b11010110 aaaal
b11 aaaam
b11011010101110111001001000110111 aaaan

#12
b110000011111111000010111011 aaaaa
b11111000111001010110111010100011 aaaab
b1010101000101101110110110000001 aaaac
b1010101000101101110110110000001 aaaad
b10010100010100100100101110101000 aaaae
b11011010101110111001001000110111 aaaag
b110000011111111000010111011 aaaan
b11111000111001010110111010100011 aaaao
b11101011000110001001010011011011 aaaap

#14
b100001000011101010101011110111 aaaaa
b10000110011111101011111111000 aaaac
b10000110011111101011111111000 aaaad
b10100101010011001101110111000011 aaaaf
b11111000111001010110111010100011 aaaah
b10000110011111101011111111000 aaaai
b110000011111111000010111011 aaaaj
b100100 aaaal
b100001000011101010101011110111 aaaan
b1010101000101101110110110000001 aaaap

#16
b1111011111101111101011100001101 aaaaa
b1111010110110011111100011110000 aaaab
b10100101010011001101110111000011 aaaac
b10100101010011001101110111000011 aaaad
b100001000011101010101011110111 aaaaj
b1111011111101111101011100001101 aaaan
b1111010110110011111100011110000 aaaao
b10000110011111101011111111000 aaaap

#18
b10010101011000100011010011110010 aaaaa
b1101100000010001000111010011101 aaaab
b10000110011111101011111111000 aaaac
b10000110011111101011111111000 aaaad
b1111010110110011111100011110000 aaaae
b1111011111101111101011100001101 aaaag
b10010101011000100011010011110010 aaaan
b1101100000010001000111010011101 aaaao
b10100101010011001101110111000011 aaaap

#20
b101111100011000111001110000 aaaaa
b1111010110110011101110011111111 aaaab
b10100101010011001101110111000011 aaaac
b10100101010011001101110111000011 aaaad
b1101100000010001000111010011101 aaaah
b10010101011000100011010011110010 aaaaj
b101111100011000111001110000 aaaan
b1111010110110011101110011111111 aaaao
b10000110011111101011111111000 aaaap

#22
b1101000010000111010001001000100 aaaaa
b11010101010110011110000011001101 aaaac
b11010101010110011110000011001101 aaaad
b1111010110110011101110011111111 aaaae
b10010110101000001111011101001100 aaaaf
b101111100011000111001110000 aaaag
b11010101010110011110000011001101 aaaai
b110101 aaaal
b1101000010000111010001001000100 aaaan
b10100101010011001101110111000011 aaaap

#24
b11110001110100100000011000010101 aaaaa
b1001101 aaaac
b1001101 aaaad
b11110010011101000100001101010101 aaaaf
b1111010110110011101110011111111 aaaah
b111110011000101110110111111011 aaaai
b1101000010000111010001001000100 aaaaj
b1001101 aaaal
b11110001110100100000011000010101 aaaan
b11010101010110011110000011001101 aaaap

#26
b10001111101100111001010010011000 aaaaa
b1101101010001000111000101001001 aaaab
b11111111 aaaak
b101 aaaam
b10001111101100111001010010011000 aaaan
b1101101010001000111000101001001 aaaao
b1001101 aaaap

#28
b11010011011001000101001101001010 aaaaa
b10000110111010011100111100100100 aaaab
b11010011011001000101001101001010 aaaan
b10000110111010011100111100100100 aaaao

#30
b11101111110000000100111100110000 aaaaa
b11101000011010101000001101011000 aaaab
b11101111110000000100111100110000 aaaan
b11101000011010101000001101011000 aaaao

#32
b10010100010101001001111000100001 aaaaa
b1110010000110101110011110011110 aaaab
b1011000 aaaak
b0 aaaam
b10010100010101001001111000100001 aaaan
b1110010000110101110011110011110 aaaao

#34
b10001101000010110100111011000100 aaaaa
b101011100100001101110100111011 aaaab
b10001101000010110100111011000100 aaaan
b101011100100001101110100111011 aaaao

#36
b101010101100010110011011010001 aaaaa
b10011001010011100101010001111111 aaaac
b10011001010011100101010001111111 aaaad
b111110110000011000111000110 aaaaf
b10011001010011100101010001111111 aaaai
b111011 aaaak
b11010010 aaaal
b100 aaaam
b101010101100010110011011010001 aaaan

#38
b111010001000010011000101010 aaaaa
b11110100111111001101001101111 aaaab
b11010010 aaaac
b11010010 aaaad
b101011100100001101110100111011 aaaah
b101010101100010110011011010001 aaaaj
b111010001000010011000101010 aaaan
b11110100111111001101001101111 aaaao
b10011001010011100101010001111111 aaaap

#40
b1100100000110111110010110011011 aaaaa
b10000001 aaaac
b10000001 aaaad
b10100111100011111111110111110 aaaaf
b1010100000000011011011001111100 aaaai
b1101111 aaaak
b10000001 aaaal
b10 aaaam
b1100100000110111110010110011011 aaaan
b11010010 aaaap

#42
b10111100101111001111000000100010 aaaaa
b1011110000000000101010011011010 aaaab
b1010100000000011011011001111100 aaaac
b1010100000000011011011001111100 aaaad
b11 aaaam
b10111100101111001111000000100010 aaaan
b1011110000000000101010011011010 aaaao
b10000001 aaaap

#44
b11100010001110101101111111111111 aaaaa
b10010001101111110001000101010111 aaaac
b10010001101111110001000101010111 aaaad
b10010001101111110001000101010111 aaaaf
b1011110000000000101010011011010 aaaah
b10100100000010010100001110110011 aaaai
b10111100101111001111000000100010 aaaaj
b1001 aaaal
b11100010001110101101111111111111 aaaan
b1010100000000011011011001111100 aaaap

#46
b11110010111101000001001010011110 aaaaa
b10010101101011101001000001010010 aaaab
b10100100000010010100001110110011 aaaac
b10100100000010010100001110110011 aaaad
b1011110000000000101010011011010 aaaae
b11100010001110101101111111111111 aaaag
b11110010111101000001001010011110 aaaan
b10010101101011101001000001010010 aaaao
b10010001101111110001000101010111 aaaap

#48
b11101111100011000100001110010000 aaaaa
b110101100010110010001000111 aaaac
b110101100010110010001000111 aaaad
b1110111111010000000111111110101 aaaaf
b10010101101011101001000001010010 aaaah
b110101100010110010001000111 aaaai
b11110010111101000001001010011110 aaaaj
b10010110 aaaal
b11101111100011000100001110010000 aaaan
b10100100000010010100001110110011 aaaap

#50
b1000011011111001110001111000 aaaaa
b1111001111101110101000100000101 aaaab
b10010110 aaaac
b10010110 aaaad
b11101111100011000100001110010000 aaaaj
b1000011011111001110001111000 aaaan
b1111001111101110101000100000101 aaaao
b110101100010110010001000111 aaaap

#52
b11001111101101000011001110110 aaaaa
b1000111111101100110000010010110 aaaab
b101 aaaak
b0 aaaam
b11001111101101000011001110110 aaaan
b1000111111101100110000010010110 aaaao
b10010110 aaaap

#54
b11101101110101001000000001100011 aaaaa
b1010101000011011000100101001101 aaaab
b11101101110101001000000001100011 aaaan
b1010101000011011000100101001101 aaaao

#56
b1001001010100100111101010001100 aaaaa
b11001000 aaaac
b11001000 aaaad
b100010001001010100010101101 aaaaf
b1011000010000010110010101100001 aaaai
b1001101 aaaak
b11001000 aaaal
b11 aaaam
b1001001010100100111101010001100 aaaan

#58
b11101000110000010001010010100 aaaaa
b10100010000101111000001101101 aaaab
b1011000010000010110010101100001 aaaac
b1011000010000010110010101100001 aaaad
b100 aaaam
b11101000110000010001010010100 aaaan
b10100010000101111000001101101 aaaao
b11001000 aaaap

#60
b11100110110101010110011100010111 aaaaa
b10110111 aaaac
b10110111 aaaad
b11010010100010111001011101001101 aaaaf
b10100010000101111000001101101 aaaah
b11100100101000000100100110100000 aaaai
b11101000110000010001010010100 aaaaj
b10110111 aaaal
b11100110110101010110011100010111 aaaan
b1011000010000010110010101100001 aaaap

#62
b101110111001110010010000111101 aaaaa
b11111011 aaaac
b11111011 aaaad
b1111011100000100010100000110011 aaaaf
b11001011111100010100110111110110 aaaai
b1101101 aaaak
b11111011 aaaal
b111 aaaam
b101110111001110010010000111101 aaaan
b10110111 aaaap

#64
b10110010010110111111111100011011 aaaaa
b11111111011100011010110100010110 aaaac
b11111111011100011010110100010110 aaaad
b11111111011100011010110100010110 aaaaf
b1110110010001101110100010001110 aaaai
b101101 aaaal
b101 aaaam
b10110010010110111111111100011011 aaaan
b11111011 aaaap

#66
b10100011000111100000111101100 aaaaa
b10100001011011111000010110001100 aaaac
b10100001011011111000010110001100 aaaad
b10100010000101111000001101101 aaaae
b10100001011011111000010110001100 aaaaf
b10110010010110111111111100011011 aaaag
b1000010111110101101101011100110 aaaai
b11011111 aaaal
b10100011000111100000111101100 aaaan
b11111111011100011010110100010110 aaaap

#68
b10000101001011111010010111011000 aaaaa
b11101010110110110010100000010010 aaaac
b11101010110110110010100000010010 aaaad
b11101010110110110010100000010010 aaaaf
b10100011000111100000111101100 aaaag
b11111100111001011111111010011000 aaaai
b101110 aaaal
b10000101001011111010010111011000 aaaan
b10100001011011111000010110001100 aaaap

#70
b1010100010011010001001111001111 aaaaa
b11110000101001000010011101110 aaaab
b10000101001011111010010111011000 aaaag
b1010100010011010001001111001111 aaaan
b11110000101001000010011101110 aaaao
b11101010110110110010100000010010 aaaap

#72
b11011010111110101101101001110001 aaaaa
b11111010100111001000011110 aaaab
b101110 aaaac
b101110 aaaad
b11011010111110101101101001110001 aaaan
b11111010100111001000011110 aaaao

#74
b10111000000111110001001111100111 aaaaa
b1000011001000011100101111101110 aaaab
b11110 aaaak
b1 aaaam
b10111000000111110001001111100111 aaaan
b1000011001000011100101111101110 aaaao
b101110 aaaap

#76
b11110001010011010110010000101110 aaaaa
b10011001001010111100110010111111 aaaab
b11101110 aaaak
b111 aaaam
b11110001010011010110010000101110 aaaan
b10011001001010111100110010111111 aaaao

#78
b1111001100111110111101001001101 aaaaa
b10000110 aaaac
b10000110 aaaad
b11011011100100010101011100010100 aaaaf
b10000001000010011101000101100000 aaaai
b10111111 aaaak
b10000110 aaaal
b110 aaaam
b1111001100111110111101001001101 aaaan

#80
b1111101110001010111000010110001 aaaaa
b1111000111000110011001011011000 aaaac
b1111000111000110011001011011000 aaaad
b110111111111101010011110101011 aaaaf
b1111000111000110011001011011000 aaaai
b1011110 aaaal
b1111101110001010111000010110001 aaaan
b10000110 aaaap

#82
b10011101011011100001100001000110 aaaaa
b10001010011010010101011001001010 aaaab
b110111111111101010011110101011 aaaac
b110111111111101010011110101011 aaaad
b10011001001010111100110010111111 aaaah
b1111101110001010111000010110001 aaaaj
b10011101011011100001100001000110 aaaan
b10001010011010010101011001001010 aaaao
b1111000111000110011001011011000 aaaap

#84
b11001101011111111001011010010111 aaaaa
b11101000 aaaac
b11101000 aaaad
b10001010011010010101011001001010 aaaae
b100110010110011111110010001111 aaaaf
b10011101011011100001100001000110 aaaag
b11100011100110101100000011101 aaaai
b11101000 aaaal
b11001101011111111001011010010111 aaaan
b110111111111101010011110101011 aaaap

#86
b10010011000011111110100000111101 aaaaa
b10010100011011001110111110011001 aaaab
b11100011100110101100000011101 aaaac
b11100011100110101100000011101 aaaad
b1001010 aaaak
b111 aaaam
b10010011000011111110100000111101 aaaan
b10010100011011001110111110011001 aaaao
b11101000 aaaap

#88
b1110110011101111010010111010001 aaaaa
b10110110101010101001010001000011 aaaab
b11101000 aaaac
b11101000 aaaad
b10010100011011001110111110011001 aaaah
b10010011000011111110100000111101 aaaaj
b1110110011101111010010111010001 aaaan
b10110110101010101001010001000011 aaaao
b11100011100110101100000011101 aaaap

#90
b10011101101010000000101001011111 aaaaa
b11100101 aaaac
b11100101 aaaad
b110110010010000111011100001100 aaaaf
b1000100011001110111100011011000 aaaai
b1000011 aaaak
b11100101 aaaal
b1 aaaam
b10011101101010000000101001011111 aaaan
b11101000 aaaap

#92
b100100110000010010110110010000 aaaaa
b10010011011010110000010000001101 aaaac
b10010011011010110000010000001101 aaaad
b10010011011010110000010000001101 aaaaf
b10000101001101010110111111011101 aaaai
b1111000 aaaal
b100100110000010010110110010000 aaaan
b11100101 aaaap

#94
b11000010011010001010111101001011 aaaaa
b1111010000100011100100110011111 aaaab
b10110110101010101001010001000011 aaaae
b100100110000010010110110010000 aaaag
b11000010011010001010111101001011 aaaan
b1111010000100011100100110011111 aaaao
b10010011011010110000010000001101 aaaap

#96
b10011001100000000111111111000101 aaaaa
b11100000111111110111011010101011 aaaab
b10000101001101010110111111011101 aaaac
b10000101001101010110111111011101 aaaad
b1111010000100011100100110011111 aaaae
b11000010011010001010111101001011 aaaag
b10011001100000000111111111000101 aaaan
b11100000111111110111011010101011 aaaao

#98
b1010010010101100100010011111 aaaaa
b1011000100011011011101010010101 aaaab
b1111000 aaaac
b1111000 aaaad
b11100000111111110111011010101011 aaaah
b10011001100000000111111111000101 aaaaj
b1010010010101100100010011111 aaaan
b1011000100011011011101010010101 aaaao
b10000101001101010110111111011101 aaaap

#100
b1001110011001010110100010100110 aaaaa
b11000100111100011100111000101010 aaaab
b10010101 aaaak
b111 aaaam
b1001110011001010110100010100110 aaaan
b11000100111100011100111000101010 aaaao
b1111000 aaaap

#102
b1100010011010100011011001111101 aaaaa
b1001 aaaac
b1001 aaaad
b11110110000010001000000011010101 aaaaf
b11011100110011100111110101001111 aaaai
b101010 aaaak
b1001 aaaal
b110 aaaam
b1100010011010100011011001111101 aaaan

#104
b11001011110100111100111111111101 aaaaa
b11010001010111000010100110010111 aaaab
b101 aaaam
b11001011110100111100111111111101 aaaan
b11010001010111000010100110010111 aaaao
b1001 aaaap

#106
b1100110111110101010010100111011 aaaaa
b10011001010111001110000010010001 aaaac
b10011001010111001110000010010001 aaaad
b110101010001111001111111010111 aaaaf
b10011001010111001110000010010001 aaaai
b10010111 aaaak
b1110 aaaal
b1100110111110101010010100111011 aaaan

#108
b111000101100101100010000001111 aaaaa
b10000011 aaaac
b10000011 aaaad
b1010001101101111011111010011100 aaaaf
b11010001010111000010100110010111 aaaah
b10101001001100010011011010101111 aaaai
b1100110111110101010010100111011 aaaaj
b10000011 aaaal
b111000101100101100010000001111 aaaan
b10011001010111001110000010010001 aaaap

#110
b10001111100000010111101111101111 aaaaa
b10111011000001111101011110110110 aaaab
b10101001001100010011011010101111 aaaac
b10101001001100010011011010101111 aaaad
b111 aaaam
b10001111100000010111101111101111 aaaan
b10111011000001111101011110110110 aaaao
b10000011 aaaap

#112
b1110001001111010000001001111 aaaaa
b10110011 aaaac
b10110011 aaaad
b10100000101100100110110010111110 aaaaf
b10111011000001111101011110110110 aaaah
b11110101000100110110101100111 aaaai
b10001111100000010111101111101111 aaaaj
b10110011 aaaal
b1110001001111010000001001111 aaaan
b10101001001100010011011010101111 aaaap

#114
b111010011011101110100110000 aaaaa
b10001000111110111111100100001000 aaaab
b10110110 aaaak
b111010011011101110100110000 aaaan
b10001000111110111111100100001000 aaaao
b10110011 aaaap

#116
b10101011110001100001101011000 aaaaa
b11111110000000010111110001011100 aaaab
b10101011110001100001101011000 aaaan
b11111110000000010111110001011100 aaaao

#118
b1111010111011101000000001011111 aaaaa
b110111001000000110110100111100 aaaac
b110111001000000110110100111100 aaaad
b11110100000011011110111110101 aaaaf
b110111001000000110110100111100 aaaai
b1011100 aaaak
b11111 aaaal
b0 aaaam
b1111010111011101000000001011111 aaaan

#120
b1101011010101100111011011101111 aaaaa
b1101001011000010101011100010001 aaaac
b1101001011000010101011100010001 aaaad
b1101001011000010101011100010001 aaaaf
b11111110000000010111110001011100 aaaah
b1000010010000001001011001010011 aaaai
b1111010111011101000000001011111 aaaaj
b1010101 aaaal
b1101011010101100111011011101111 aaaan
b110111001000000110110100111100 aaaap

#122
b1100101000111111101110110100111 aaaaa
b11111001110001110011100111101 aaaab
b11111110000000010111110001011100 aaaae
b1101011010101100111011011101111 aaaag
b1100101000111111101110110100111 aaaan
b11111001110001110011100111101 aaaao
b1101001011000010101011100010001 aaaap

#124
b10011001100011010000110010010010 aaaaa
b11111001000101111010000101010100 aaaac
b11111001000101111010000101010100 aaaad
b11111001110001110011100111101 aaaae
b11111001000101111010000101010100 aaaaf
b1100101000111111101110110100111 aaaag
b10001111111001001110101100101110 aaaai
b1001101 aaaal
b10011001100011010000110010010010 aaaan

#126
b1011001010000011010100100011 aaaaa
b1000111 aaaac
b1000111 aaaad
b10101100000000000010110010111111 aaaaf
b10011001100011010000110010010010 aaaag
b10110011111010000010011000100101 aaaai
b1000111 aaaal
b1011001010000011010100100011 aaaan
b11111001000101111010000101010100 aaaap

#128
b10010010001010110101001110001 aaaaa
b11110000010010100110001111001000 aaaac
b11110000010010100110001111001000 aaaad
b1011011001101111011011101101110 aaaaf
b11110000010010100110001111001000 aaaai
b111101 aaaak
b111110 aaaal
b11 aaaam
b10010010001010110101001110001 aaaan
b1000111 aaaap

#130
b100111001100010011001111111011 aaaaa
b1100011001000010011001000011110 aaaac
b1100011001000010011001000011110 aaaad
b100010101000101010001001000100 aaaaf
b11111001110001110011100111101 aaaah
b1100011001000010011001000011110 aaaai
b10010010001010110101001110001 aaaaj
b11011101 aaaal
b100111001100010011001111111011 aaaan
b11110000010010100110001111001000 aaaap

#132
b10111000101100111101101000000001 aaaaa
b10100101110000100001111101110100 aaaac
b10100101110000100001111101110100 aaaad
b1110100100000101111010101000111 aaaaf
b10100101110000100001111101110100 aaaai
b100111001100010011001111111011 aaaaj
b1110 aaaal
b10111000101100111101101000000001 aaaan
b1100011001000010011001000011110 aaaap

#134
b11111110001011001111011001011011 aaaaa
b111000010011111110000001001110 aaaab
b1110 aaaac
b1110 aaaad
b10111000101100111101101000000001 aaaaj
b11111110001011001111011001011011 aaaan
b111000010011111110000001001110 aaaao
b10100101110000100001111101110100 aaaap

#136
b1011111001100010001100001000 aaaaa
b1110100 aaaac
b1110100 aaaad
b10110101111000101110001000100010 aaaaf
b10101000001011001010111000100101 aaaai
b1001110 aaaak
b1110100 aaaal
b1011111001100010001100001000 aaaan
b1110 aaaap

#138
b11011010001010100010000111011 aaaaa
b10010000111001000100000001111101 aaaab
b10101000001011001010111000100101 aaaac
b10101000001011001010111000100101 aaaad
b0 aaaam
b11011010001010100010000111011 aaaan
b10010000111001000100000001111101 aaaao
b1110100 aaaap

#140
b1111000011100111111101111111000 aaaaa
b11010101000100001001111010101001 aaaab
b10110101111000101110001000100010 aaaac
b10110101111000101110001000100010 aaaad
b10010000111001000100000001111101 aaaah
b11011010001010100010000111011 aaaaj
b1111000011100111111101111111000 aaaan
b11010101000100001001111010101001 aaaao
b10101000001011001010111000100101 aaaap

#142
b10010100011001011000000111101000 aaaaa
b10111100101111011101100010100001 aaaab
b1110100 aaaac
b1110100 aaaad
b11010101000100001001111010101001 aaaae
b1111000011100111111101111111000 aaaag
b10010100011001011000000111101000 aaaan
b10111100101111011101100010100001 aaaao
b10110101111000101110001000100010 aaaap

#144
b1111110001111100001010111001010 aaaaa
b10101111100001110111100100110110 aaaab
b10100001 aaaak
b1111110001111100001010111001010 aaaan
b10101111100001110111100100110110 aaaao
b1110100 aaaap

#146
b10111101000111011001001100000110 aaaaa
b101 aaaac
b101 aaaad
b1111011101011101101111001111110 aaaaf
b1110100011100101100000110110111 aaaai
b110110 aaaak
b101 aaaal
b10 aaaam
b10111101000111011001001100000110 aaaan

#148
b1110000101001001010010011110111 aaaaa
b1010011001100110110001000110110 aaaac
b1010011001100110110001000110110 aaaad
b1011110010110011110111000011111 aaaaf
b1010011001100110110001000110110 aaaai
b1010011 aaaal
b110 aaaam
b1110000101001001010010011110111 aaaan
b101 aaaap

#150
b1000011010011101000100101100100 aaaaa
b1011001101100010111001011001001 aaaab
b1010011 aaaac
b1010011 aaaad
b10101111100001110111100100110110 aaaah
b1110000101001001010010011110111 aaaaj
b1000011010011101000100101100100 aaaan
b1011001101100010111001011001001 aaaao
b1010011001100110110001000110110 aaaap

#152
b1100011110101110010100100011000 aaaaa
b1110111 aaaac
b1110111 aaaad
b1111011001110001010011001100101 aaaaf
b1000101100110000000011111101100 aaaai
b11001001 aaaak
b1110111 aaaal
b100 aaaam
b1100011110101110010100100011000 aaaan
b1010011 aaaap

#154
b1010010100011010011110011011111 aaaaa
b11100111 aaaac
b11100111 aaaad
b10101001000001001001010000010000 aaaaf
b10001101000011101010110110110110 aaaai
b11100111 aaaal
b0 aaaam
b1010010100011010011110011011111 aaaan
b1110111 aaaap

#156
b11101100111010001101101101000110 aaaaa
b1100011 aaaac
b1100011 aaaad
b10011100111001001000111100001 aaaaf
b10110101101001001000111100100111 aaaai
b1100011 aaaal
b111 aaaam
b11101100111010001101101101000110 aaaan
b11100111 aaaap

#158
b100011111001010101011010001111 aaaaa
b100100000010001001111110001110 aaaab
b10011100111001001000111100001 aaaac
b10011100111001001000111100001 aaaad
b110 aaaam
b100011111001010101011010001111 aaaan
b100100000010001001111110001110 aaaao
b1100011 aaaap

#160
b10011110011011000001001100111011 aaaaa
b11010100 aaaac
b11010100 aaaad
b100100000010001001111110001110 aaaae
b10001100101110011000001001000 aaaaf
b100011111001010101011010001111 aaaag
b10110000010010011010001111010 aaaai
b11010100 aaaal
b10011110011011000001001100111011 aaaan
b10011100111001001000111100001 aaaap

#162
b11101001011110001100001001001010 aaaaa
b10000001101100000101010000010100 aaaac
b10000001101100000101010000010100 aaaad
b10111000010101010111010011110010 aaaaf
b10000001101100000101010000010100 aaaai
b10001110 aaaak
b10011101 aaaal
b11 aaaam
b11101001011110001100001001001010 aaaan
b11010100 aaaap

#164
b111010000110100100111010110 aaaaa
b10111101000001110000110001010101 aaaab
b100100000010001001111110001110 aaaah
b11101001011110001100001001001010 aaaaj
b111010000110100100111010110 aaaan
b10111101000001110000110001010101 aaaao
b10000001101100000101010000010100 aaaap

#166
b1000110000010110100101000111011 aaaaa
b1011001101110000101101110101000 aaaab
b10011101 aaaac
b10011101 aaaad
b10111101000001110000110001010101 aaaah
b111010000110100100111010110 aaaaj
b1000110000010110100101000111011 aaaan
b1011001101110000101101110101000 aaaao

#168
b10010101111111101001010001100011 aaaaa
b11010100 aaaac
b11010100 aaaad
b1100100000110001101110111100101 aaaaf
b11000110111001110010100010111111 aaaai
b10101000 aaaak
b11010100 aaaal
b10010101111111101001010001100011 aaaan
b10011101 aaaap

#170
b11110101000000000001001110011010 aaaaa
b1011001 aaaac
b1011001 aaaad
b1001101110101010100100101101111 aaaaf
b101110101101100100000010 aaaai
b1011001 aaaal
b11110101000000000001001110011010 aaaan
b11010100 aaaap

#172
b1110101001010011101001110011000 aaaaa
b10001110 aaaac
b10001110 aaaad
b10100001011100100001101111001111 aaaaf
b11001010100001101101000011001 aaaai
b10001110 aaaal
b10 aaaam
b1110101001010011101001110011000 aaaan
b1011001 aaaap

#174
b10011011110110101010010001010010 aaaaa
b101000 aaaac
b101000 aaaad
b11111000101101001111001100110111 aaaaf
b100110000001111100000111111100 aaaai
b101000 aaaal
b0 aaaam
b10011011110110101010010001010010 aaaan
b10001110 aaaap

#176
b1011100110111000010101001000001 aaaaa
b100000001101001110111001111101 aaaab
b11111000101101001111001100110111 aaaac
b11111000101101001111001100110111 aaaad
b10 aaaam
b1011100110111000010101001000001 aaaan
b100000001101001110111001111101 aaaao
b101000 aaaap

#178
b11011010010111000011110100100010 aaaaa
b10010001 aaaac
b10010001 aaaad
b100000001101001110111001111101 aaaae
b1101001101000011011111001011000 aaaaf
b1011100110111000010101001000001 aaaag
b10110000100010110101111111111100 aaaai
b10010001 aaaal
b11011010010111000011110100100010 aaaan
b11111000101101001111001100110111 aaaap

#180
b101101001000110011000000111111 aaaaa
b1000100 aaaac
b1000100 aaaad
b10111110101010011010110111100111 aaaaf
b11000010001100000110110111100 aaaai
b1111101 aaaak
b1000100 aaaal
b101101001000110011000000111111 aaaan
b10010001 aaaap

#182
b10001011100011010110101111001101 aaaaa
b10001010111011110101011011110110 aaaab
b111 aaaam
b10001011100011010110101111001101 aaaan
b10001010111011110101011011110110 aaaao
b1000100 aaaap

#184
b11100011011001000010000001011011 aaaaa
b1101100 aaaac
b1101100 aaaad
b1111001101000110011010110111110 aaaaf
b1100001010111110000000010110111 aaaai
b11110110 aaaak
b1101100 aaaal
b101 aaaam
b11100011011001000010000001011011 aaaan

#186
b1010010111011011111000011111100 aaaaa
b1111000 aaaac
b1111000 aaaad
b11101011001111110101111001001100 aaaaf
b11010010010100110110100101101110 aaaai
b1111000 aaaal
b11 aaaam
b1010010111011011111000011111100 aaaan
b1101100 aaaap

#188
b10000110001101100000001101010001 aaaaa
b10010011000101111111000010101111 aaaab
b11010010010100110110100101101110 aaaac
b11010010010100110110100101101110 aaaad
b100 aaaam
b10000110001101100000001101010001 aaaan
b10010011000101111111000010101111 aaaao
b1111000 aaaap

#190
b10110011010011000110001101100101 aaaaa
b110011001100010010011011110100 aaaac
b110011001100010010011011110100 aaaad
b10110011001001011010100000010001 aaaaf
b10010011000101111111000010101111 aaaah
b110011001100010010011011110100 aaaai
b10000110001101100000001101010001 aaaaj
b1111111 aaaal
b10110011010011000110001101100101 aaaan
b11010010010100110110100101101110 aaaap

#192
b11101100000001100101110111111100 aaaaa
b11110100001111101001110011010 aaaab
b1111111 aaaac
b1111111 aaaad
b10110011010011000110001101100101 aaaaj
b11101100000001100101110111111100 aaaan
b11110100001111101001110011010 aaaao
b110011001100010010011011110100 aaaap

#194
b11000010011100111111001010100000 aaaaa
b1110111111100101011011001000110 aaaab
b10011010 aaaak
b11000010011100111111001010100000 aaaan
b1110111111100101011011001000110 aaaao
b1111111 aaaap

#196
b1101110100001010100000010110111 aaaaa
b10000001 aaaac
b10000001 aaaad
b11010111101101001110011101010101 aaaaf
b11000111010000000011011101000000 aaaai
b1000110 aaaak
b10000001 aaaal
b0 aaaam
b1101110100001010100000010110111 aaaan

#198
b11001100100101011001011000010110 aaaaa
b101011100011001011011000001100 aaaab
b11001100100101011001011000010110 aaaan
b101011100011001011011000001100 aaaao
b10000001 aaaap

#200
b1111100110010110000001010110001 aaaaa
b1111000110101111011110000111000 aaaab
b11010111101101001110011101010101 aaaac
b11010111101101001110011101010101 aaaad
b1100 aaaak
b110 aaaam
b1111100110010110000001010110001 aaaan
b1111000110101111011110000111000 aaaao

#202
b11001101100011000011101100000100 aaaaa
b1101110000111110110001110100010 aaaab
b11000111010000000011011101000000 aaaac
b11000111010000000011011101000000 aaaad
b1111000110101111011110000111000 aaaae
b1111100110010110000001010110001 aaaag
b11001101100011000011101100000100 aaaan
b1101110000111110110001110100010 aaaao
b11010111101101001110011101010101 aaaap

#204
b11000010101110111110101001010111 aaaaa
b10001011010010010100110110001 aaaac
b10001011010010010100110110001 aaaad
b10001011010010010100110110001 aaaaf
b1101110000111110110001110100010 aaaah
b111100101001010011100101100101 aaaai
b11001101100011000011101100000100 aaaaj
b1101100 aaaal
b11000010101110111110101001010111 aaaan
b11000111010000000011011101000000 aaaap

#206
b10011110100011111101011100111011 aaaaa
b1001010010100001000111100 aaaac
b1001010010100001000111100 aaaad
b1101110000111110110001110100010 aaaae
b1001010010100001000111100 aaaaf
b11000010101110111110101001010111 aaaag
b10111101000011010111100100000010 aaaai
b11111101 aaaal
b10011110100011111101011100111011 aaaan
b10001011010010010100110110001 aaaap

#208
b11100000001011011010001010110111 aaaaa
b10001011011110010100000100111110 aaaab
b11111101 aaaac
b11111101 aaaad
b11100000001011011010001010110111 aaaan
b10001011011110010100000100111110 aaaao
b1001010010100001000111100 aaaap

