mangrove_master/regression/jpeg_enc/jpeg_enc_bool.vcd
$date
     May 19, 2016       19:32:26
$end

$version
              SystemC 2.3.0-ASI --- Jan 21 2013 09:04:20
$end

$timescale
     100 ps
$end

$scope module SystemC $end
$var wire    1  aaa  jpeg_enc_qnt_val_X       $end
$var wire    1  aab  jpeg_enc_din_X       $end
$var wire    1  aac  jpeg_enc_fdct_doe       $end
$var wire    1  aad  jpeg_enc_qnr_doe       $end
$var wire    1  aae  jpeg_enc_dqnr_doe       $end
$var wire    1  aaf  jpeg_enc_dc_diff_doe       $end
$var wire    1  aag  jpeg_enc_dc_diff_doe_X       $end
$var wire    1  aah  jpeg_enc_bstart_open       $end
$var wire    1  aai  jpeg_enc.fdct_zigzag.doe       $end
$var wire    1  aaj  jpeg_enc.qnr.dcnt       $end
$var wire    1  aak  jpeg_enc.qnr.div0_open       $end
$var wire    1  aal  jpeg_enc.qnr.ovf_open       $end
$var wire    1  aam  jpeg_enc.rle.rle_den       $end
$var wire    1  aan  jpeg_enc.rle.rz1_den       $end
$var wire    1  aao  jpeg_enc.rle.rz2_den       $end
$var wire    1  aap  jpeg_enc.rle.rz3_den       $end
$var wire    1  aaq  jpeg_enc.rle.rz4_den       $end
$var wire    1  aar  jpeg_enc.rle.rle_dc       $end
$var wire    1  aas  jpeg_enc.rle.rz1_dc       $end
$var wire    1  aat  jpeg_enc.rle.rz2_dc       $end
$var wire    1  aau  jpeg_enc.rle.rz3_dc       $end
$var wire    1  aav  jpeg_enc.rle.rz4_dc       $end
$var wire    1  aaw  jpeg_enc.rle.ddstrb       $end
$var wire    1  aax  jpeg_enc.rle.ddstrb_X       $end
$var wire    1  aay  jpeg_enc.rle.bstart       $end
$var wire    1  aaz  jpeg_enc.rle.douten       $end
$var wire    1  aba  jpeg_enc.rle.dstrb_X       $end
$var wire    1  abb  jpeg_enc.rle.dstrb       $end
$var wire    1  abc  jpeg_enc.rle.ena       $end
$var wire    1  abd  jpeg_enc.rle.rst       $end
$var wire    1  abe  jpeg_enc.qnr.douten       $end
$var wire    1  abf  jpeg_enc.qnr.qnt_val_X       $end
$var wire    1  abg  jpeg_enc.qnr.dstrb       $end
$var wire    1  abh  jpeg_enc.qnr.rst       $end
$var wire    1  abi  jpeg_enc.qnr.ena       $end
$var wire    1  abj  jpeg_enc.fdct_zigzag.douten       $end
$var wire    1  abk  jpeg_enc.fdct_zigzag.din_X       $end
$var wire    1  abl  jpeg_enc.fdct_zigzag.dstrb       $end
$var wire    1  abm  jpeg_enc.fdct_zigzag.rst       $end
$var wire    1  abn  jpeg_enc.fdct_zigzag.ena       $end
$var wire    1  abo  jpeg_enc_douten       $end
$var wire    1  abp  jpeg_enc_dstrb       $end
$var wire    1  abq  jpeg_enc_rst       $end
$var wire    1  abr  jpeg_enc_ena       $end
$upscope $end
$enddefinitions  $end

$comment
All initial values are dumped below at time 0 sec = 0 timescale units.
$end

$dumpvars
1aaa
1aab
0aac
0aad
0aae
0aaf
0aag
0aah
0aai
0aaj
0aak
0aal
0aam
0aan
0aao
0aap
0aaq
0aar
0aas
0aat
0aau
0aav
0aaw
0aax
0aay
0aaz
0aba
0abb
1abc
0abd
0abe
1abf
0abg
0abh
1abi
0abj
1abk
0abl
0abm
1abn
0abo
0abp
0abq
1abr
$end

#60
0aaa
0abf

#120
1abd
1abh
1abm
1abq

#1320
1abl
1abp

#1380
0aab
0abk
0abl
0abp

#3900
1aaj

#3960
0aaj

#5280
1aai

#5340
1aac
0aai
1abg
1abj

#5400
0aac
0abg
0abj

#6300
1aad
1abe

#6360
0aad
1aae
1aaf
1abb
0abe

#6420
0aae
0aaf
1aaw
0abb

#6480
1aam
1aar
0aaw

#6540
0aam
0aar

#6600
1aan
1aas

#6660
0aan
0aas

#6720
1aao
1aat

#6780
0aao
0aat

#6840
1aap
1aau

#6900
1aam
0aap
0aau

#6960
1aah
0aam
1aaq
1aav
1aay
1aaz
1abo

#7020
0aah
1aan
0aaq
0aav
0aay
0aaz
0abo

#7080
0aan

#7140
1aao

#7200
0aao

#7260
1aap

#7320
0aap

#7380
1aam
1aaq
1aaz
1abo

#7440
0aaq
0aaz
0abo

#7500
1aan

#7560
0aam

#7620
1aao

#7680
1aam
0aan

#7740
0aam
1aap

#7800
1aan
0aao

#7860
1aam
0aan
1aaq
1aaz
1abo

#7920
1aao
0aap

#7980
0aam
1aan
0aao

#8040
1aap
0aaq
0aaz
0abo

#8100
0aan
1aao
0aap

#8160
1aaq
1aaz
1abo

#8220
0aao
1aap
0aaq
0aaz
0abo

#8340
1aam
0aap
1aaq
1aaz
1abo

#8400
0aam

#8460
1aan
0aaq
0aaz
0abo

#8520
0aan

#8580
1aao

#8640
0aao

#8700
1aap

#8760
1aam
0aap

#8820
0aam
1aaq
1aaz
1abo

#8880
1aan
0aaq
0aaz
0abo

#8940
1aam
0aan

#9000
0aam
1aao

#9060
1aan
0aao

#9120
0aan
1aap

#9180
1aaj
1aam
1aao
0aap

#9240
0aaj
0aam
0aao
1aaq
1aaz
1abo

#9300
1aan
1aap
0aaq
0aaz
0abo

#9360
0aan
0aap

#9420
1aao
1aaq
1aaz
1abo

#9480
1aam
0aao
0aaq
0aaz
0abo

#9540
0aam
1aap

#9600
1aan
0aap

#9660
0aan
1aaq
1aaz
1abo

#9720
1aao
0aaq
0aaz
0abo

#9780
0aao

#9840
1aap

#9900
0aap

#9960
1aaq
1aaz
1abo

#10020
0aaq
0aaz
0abo

#10260
1aam

#10320
0aam

#10380
1aan

#10440
0aan

#10500
1aao

#10560
0aao

#10620
1aap

#10680
0aap

#10740
1aaq
1aaz
1abo

#10800
0aaq
0aaz
0abo

#11160
1abl
1abp

#11220
0abl
0abp

#13020
1aaj

#13080
0aaj

#15120
1aai

#15180
1aac
0aai
1abg
1abj

#15240
0aac
0abg
0abj

#16140
1aad
1abe

#16200
0aad
1aae
1aaf
1abb
0abe

#16260
0aae
0aaf
1aaw
0abb

#16320
1aam
1aar
0aaw

#16380
0aam
0aar

#16440
1aan
1aas

#16500
0aan
0aas

#16560
1aao
1aat

#16620
0aao
0aat

#16680
1aap
1aau

#16740
0aap
0aau

#16800
1aah
1aaq
1aav
1aay
1aaz
1abo

#16860
0aah
0aaq
0aav
0aay
0aaz
0abo

#16980
1aam

#17040
0aam

#17100
1aan

#17160
0aan

#17220
1aam
1aao

#17280
0aam
0aao

#17340
1aan
1aap

#17400
0aan
0aap

#17460
1aao
1aaq
1aaz
1abo

#17520
0aao
0aaq
0aaz
0abo

#17580
1aap

#17640
0aap

#17700
1aaq
1aaz
1abo

#17760
0aaq
0aaz
0abo

#17820
1aam

#17880
0aam

#17940
1aan

#18000
0aan

#18060
1aao

#18120
0aao

#18180
1aap

#18240
0aap

#18300
1aaq
1aaz
1abo

#18360
0aaq
0aaz
0abo

#18600
1aam

#18660
0aam

#18720
1aan

#18780
0aan

#18840
1aao

#18900
0aao

#18960
1aap

#19020
1aaj
0aap

#19080
0aaj
1aaq
1aaz
1abo

#19140
0aaq
0aaz
0abo

#19320
1aam

#19380
0aam

#19440
1aam
1aan

#19500
0aan

#19560
0aam
1aan
1aao

#19620
0aao

#19680
0aan
1aao
1aap

#19740
0aap

#19800
0aao
1aap
1aaq
1aaz
1abo

#19860
0aaq
0aaz
0abo

#19920
0aap
1aaq
1aaz
1abo

#20040
0aaq
0aaz
0abo

#20100
1aam

#20160
0aam

#20220
1aan

#20280
0aan

#20340
1aao

#20400
0aao

#20460
1aap

#20520
0aap

#20580
1aaq
1aaz
1abo

#20640
0aaq
0aaz
0abo

#21000
1abl
1abp

#21060
0abl
0abp

#22860
1aaj

#22920
0aaj

#24960
1aai

#25020
1aac
0aai
1abg
1abj

#25080
0aac
0abg
0abj

#25980
1aad
1abe

#26040
0aad
1aae
1aaf
1abb
0abe

#26100
0aae
0aaf
1aaw
0abb

#26160
1aam
1aar
0aaw

#26220
0aar

#26280
0aam
1aan
1aas

#26340
0aan
0aas

#26400
1aao
1aat

#26460
0aao
0aat

#26520
1aap
1aau

#26580
0aap
0aau

#26640
1aah
1aam
1aaq
1aav
1aay
1aaz
1abo

#26700
0aah
0aam
1aan
0aaq
0aav
0aay
0aaz
0abo

#26820
0aan
1aao

#26940
0aao
1aap

#27060
0aap
1aaq
1aaz
1abo

#27180
0aaq
0aaz
0abo

#27600
1aam

#27720
1aan

#27840
0aam
1aao

#27960
0aan
1aap

#28080
0aao
1aaq
1aaz
1abo

#28200
0aap

#28260
1aam

#28320
0aam
0aaq
0aaz
0abo

#28380
1aan

#28440
0aan

#28500
1aao

#28560
0aao

#28620
1aap

#28680
0aap

#28740
1aaq
1aaz
1abo

#28800
1aam
0aaq
0aaz
0abo

#28860
1aaj

#28920
0aaj
0aam
1aan

#29040
0aan
1aao

#29160
0aao
1aap

#29220
1aam

#29280
0aam
0aap
1aaq
1aaz
1abo

#29340
1aan

#29400
0aan
0aaq
0aaz
0abo

#29460
1aao

#29520
0aao

#29580
1aam
1aap

#29640
0aam
0aap

#29700
1aan
1aaq
1aaz
1abo

#29760
0aan
0aaq
0aaz
0abo

#29820
1aam
1aao

#29880
0aam
0aao

#29940
1aam
1aan
1aap

#30000
0aam
0aan
0aap

#30060
1aan
1aao
1aaq
1aaz
1abo

#30120
0aan
0aao
0aaq
0aaz
0abo

#30180
1aao
1aap

#30240
0aao
0aap

#30300
1aap
1aaq
1aaz
1abo

#30360
0aap
0aaq
0aaz
0abo

#30420
1aaq
1aaz
1abo

#30480
0aaq
0aaz
0abo

#30840
1abl
1abp

#30900
0abl
0abp

#32700
1aaj

#32760
0aaj

#34800
1aai

#34860
1aac
0aai
1abg
1abj

#34920
0aac
0abg
0abj

#35820
1aad
1abe

#35880
0aad
1aae
1aaf
1abb
0abe

#35940
0aae
0aaf
1aaw
0abb

#36000
1aam
1aar
0aaw

#36060
0aam
0aar

#36120
1aan
1aas

#36180
1aam
0aan
0aas

#36240
0aam
1aao
1aat

#36300
1aam
1aan
0aao
0aat

#36360
0aam
0aan
1aap
1aau

#36420
1aan
1aao
0aap
0aau

#36480
1aah
0aan
0aao
1aaq
1aav
1aay
1aaz
1abo

#36540
0aah
1aao
1aap
0aaq
0aav
0aay
0aaz
0abo

#36600
0aao
0aap

#36660
1aap
1aaq
1aaz
1abo

#36720
0aap
0aaq
0aaz
0abo

#36780
1aaq
1aaz
1abo

#36840
0aaq
0aaz
0abo

#36900
1aam

#36960
0aam

#37020
1aam
1aan

#37080
0aam
0aan

#37140
1aan
1aao

#37200
1aam
0aan
0aao

#37260
1aao
1aap

#37320
0aam
1aan
0aao
0aap

#37380
1aap
1aaq
1aaz
1abo

#37440
0aan
1aao
0aap
0aaq
0aaz
0abo

#37500
1aaq
1aaz
1abo

#37560
1aam
0aao
1aap
0aaq
0aaz
0abo

#37620
0aam

#37680
1aan
0aap
1aaq
1aaz
1abo

#37740
0aan

#37800
1aao
0aaq
0aaz
0abo

#37860
0aao

#37920
1aap

#37980
0aap

#38040
1aaq
1aaz
1abo

#38100
1aam
0aaq
0aaz
0abo

#38220
0aam
1aan

#38340
0aan
1aao

#38460
0aao
1aap

#38520
1aam

#38580
0aam
0aap
1aaq
1aaz
1abo

#38640
1aan

#38700
1aaj
0aan
0aaq
0aaz
0abo

#38760
0aaj
1aao

#38820
0aao

#38880
1aap

#38940
0aap

#39000
1aam
1aaq
1aaz
1abo

#39060
0aam
0aaq
0aaz
0abo

#39120
1aan

#39180
0aan

#39240
1aam
1aao

#39300
0aam
0aao

#39360
1aan
1aap

#39420
0aan
0aap

#39480
1aao
1aaq
1aaz
1abo

#39540
0aao
0aaq
0aaz
0abo

#39600
1aap

#39660
0aap

#39720
1aaq
1aaz
1abo

#39780
1aam
0aaq
0aaz
0abo

#39840
0aam

#39900
1aan

#39960
0aan

#40020
1aao

#40080
0aao

#40140
1aap

#40200
0aap

#40260
1aaq
1aaz
1abo

#40320
0aaq
0aaz
0abo

#40680
1abl
1abp

#40740
0abl
0abp

#42540
1aaj

#42600
0aaj

#44640
1aai

#44700
1aac
0aai
1abg
1abj

#44760
0aac
0abg
0abj

#45660
1aad
1abe

#45720
0aad
1aae
1aaf
1abb
0abe

#45780
0aae
0aaf
1aaw
0abb

#45840
1aam
1aar
0aaw

#45900
0aam
0aar

#45960
1aan
1aas

#46020
0aan
0aas

#46080
1aao
1aat

#46140
0aao
0aat

#46200
1aap
1aau

#46260
0aap
0aau

#46320
1aah
1aaq
1aav
1aay
1aaz
1abo

#46380
0aah
0aaq
0aav
0aay
0aaz
0abo

#46560
1aam

#46620
0aam

#46680
1aam
1aan

#46740
0aam
0aan

#46800
1aam
1aan
1aao

#46860
0aan
0aao

#46920
0aam
1aan
1aao
1aap

#46980
0aao
0aap

#47040
0aan
1aao
1aap
1aaq
1aaz
1abo

#47100
1aam
0aap
0aaq
0aaz
0abo

#47160
0aao
1aap
1aaq
1aaz
1abo

#47220
0aam
1aan
0aaq
0aaz
0abo

#47280
0aap
1aaq
1aaz
1abo

#47340
0aan
1aao

#47400
0aaq
0aaz
0abo

#47460
0aao
1aap

#47580
0aap
1aaq
1aaz
1abo

#47700
0aaq
0aaz
0abo

#47940
1aam

#48000
0aam

#48060
1aan

#48120
0aan

#48180
1aao

#48240
0aao

#48300
1aap

#48360
1aam
0aap

#48420
0aam
1aaq
1aaz
1abo

#48480
1aan
0aaq
0aaz
0abo

#48540
1aaj
0aan

#48600
0aaj
1aao

#48660
0aao

#48720
1aam
1aap

#48780
0aam
0aap

#48840
1aan
1aaq
1aaz
1abo

#48900
0aan
0aaq
0aaz
0abo

#48960
1aao

#49020
1aam
0aao

#49080
0aam
1aap

#49140
1aan
0aap

#49200
0aan
1aaq
1aaz
1abo

#49260
1aao
0aaq
0aaz
0abo

#49320
1aam
0aao

#49380
0aam
1aap

#49440
1aan
0aap

#49500
0aan
1aaq
1aaz
1abo

#49560
1aao
0aaq
0aaz
0abo

#49620
1aam
0aao

#49680
0aam
1aap

#49740
1aan
0aap

#49800
0aan
1aaq
1aaz
1abo

#49860
1aao
0aaq
0aaz
0abo

#49920
0aao

#49980
1aap

#50040
0aap

#50100
1aaq
1aaz
1abo

#50160
0aaq
0aaz
0abo

#50520
1abl
1abp

#50580
0abl
0abp

#52380
1aaj

#52440
0aaj

#54480
1aai

#54540
1aac
0aai
1abg
1abj

#54600
0aac
0abg
0abj

#55500
1aad
1abe

#55560
0aad
1aae
1aaf
1abb
0abe

#55620
0aae
0aaf
1aaw
0abb

#55680
1aam
1aar
0aaw

#55740
0aam
0aar

#55800
1aan
1aas

#55860
0aan
0aas

#55920
1aam
1aao
1aat

#55980
0aam
0aao
0aat

#56040
1aam
1aan
1aap
1aau

#56100
0aam
0aan
0aap
0aau

#56160
1aah
1aam
1aan
1aao
1aaq
1aav
1aay
1aaz
1abo

#56220
0aah
0aam
0aan
0aao
0aaq
0aav
0aay
0aaz
0abo

#56280
1aan
1aao
1aap

#56340
1aam
0aan
0aao
0aap

#56400
1aao
1aap
1aaq
1aaz
1abo

#56460
0aam
1aan
0aao
0aap
0aaq
0aaz
0abo

#56520
1aap
1aaq
1aaz
1abo

#56580
0aan
1aao
0aap
0aaq
0aaz
0abo

#56640
1aaq
1aaz
1abo

#56700
0aao
1aap
0aaq
0aaz
0abo

#56820
0aap
1aaq
1aaz
1abo

#56940
0aaq
0aaz
0abo

#57360
1aam

#57420
0aam

#57540
1aam

#57600
1aan

#57660
0aam

#57720
1aao

#57780
0aan

#57840
1aap

#57900
0aao

#57960
1aaq
1aaz
1abo

#58020
0aap

#58140
1aam
0aaq
0aaz
0abo

#58200
0aam

#58260
1aan

#58320
0aan

#58380
1aaj
1aao

#58440
0aaj
1aam
0aao

#58500
0aam
1aap

#58560
1aan
0aap

#58620
0aan
1aaq
1aaz
1abo

#58680
1aao
0aaq
0aaz
0abo

#58740
1aam
0aao

#58800
0aam
1aap

#58860
1aan
0aap

#58920
0aan
1aaq
1aaz
1abo

#58980
1aam
1aao
0aaq
0aaz
0abo

#59040
0aam
0aao

#59100
1aan
1aap

#59160
0aan
0aap

#59220
1aam
1aao
1aaq
1aaz
1abo

#59280
0aao
0aaq
0aaz
0abo

#59340
0aam
1aan
1aap

#59400
0aap

#59460
1aam
0aan
1aao
1aaq
1aaz
1abo

#59520
0aam
0aaq
0aaz
0abo

#59580
1aan
0aao
1aap

#59640
0aan

#59700
1aao
0aap
1aaq
1aaz
1abo

#59760
0aao

#59820
1aap
0aaq
0aaz
0abo

#59880
0aap

#59940
1aaq
1aaz
1abo

#60000
0aaq
0aaz
0abo

#60360
1abl
1abp

#60420
0abl
0abp

#62220
1aaj

#62280
0aaj

#64320
1aai

#64380
1aac
0aai
1abg
1abj

#64440
0aac
0abg
0abj

#65340
1aad
1abe

#65400
0aad
1aae
1aaf
1abb
0abe

#65460
0aae
0aaf
1aaw
0abb

#65520
1aam
1aar
0aaw

#65580
0aam
0aar

#65640
1aan
1aas

#65700
1aam
0aan
0aas

#65760
0aam
1aao
1aat

#65820
1aan
0aao
0aat

#65880
0aan
1aap
1aau

#65940
1aao
0aap
0aau

#66000
1aah
0aao
1aaq
1aav
1aay
1aaz
1abo

#66060
0aah
1aap
0aaq
0aav
0aay
0aaz
0abo

#66120
0aap

#66180
1aaq
1aaz
1abo

#66240
0aaq
0aaz
0abo

#66420
1aam

#66480
0aam

#66540
1aam
1aan

#66600
0aan

#66660
0aam
1aan
1aao

#66720
0aao

#66780
0aan
1aao
1aap

#66840
1aam
0aap

#66900
0aam
0aao
1aap
1aaq
1aaz
1abo

#66960
1aam
1aan
0aaq
0aaz
0abo

#67020
0aan
0aap
1aaq
1aaz
1abo

#67080
0aam
1aan
1aao

#67140
0aao
0aaq
0aaz
0abo

#67200
0aan
1aao
1aap

#67260
0aap

#67320
1aam
0aao
1aap
1aaq
1aaz
1abo

#67380
0aam
0aaq
0aaz
0abo

#67440
1aan
0aap
1aaq
1aaz
1abo

#67500
1aam
0aan

#67560
0aam
1aao
0aaq
0aaz
0abo

#67620
1aan
0aao

#67680
1aam
0aan
1aap

#67740
0aam
1aao
0aap

#67800
1aam
1aan
0aao
1aaq
1aaz
1abo

#67860
0aam
0aan
1aap
0aaq
0aaz
0abo

#67920
1aan
1aao
0aap

#67980
1aam
0aan
0aao
1aaq
1aaz
1abo

#68040
0aam
1aao
1aap
0aaq
0aaz
0abo

#68100
1aan
0aao
0aap

#68160
0aan
1aap
1aaq
1aaz
1abo

#68220
1aaj
1aao
0aap
0aaq
0aaz
0abo

#68280
0aaj
0aao
1aaq
1aaz
1abo

#68340
1aap
0aaq
0aaz
0abo

#68400
0aap

#68460
1aaq
1aaz
1abo

#68520
0aaq
0aaz
0abo

#68760
1aam

#68820
0aam

#68880
1aam
1aan

#68940
0aam
0aan

#69000
1aam
1aan
1aao

#69060
0aan
0aao

#69120
0aam
1aan
1aao
1aap

#69180
0aao
0aap

#69240
0aan
1aao
1aap
1aaq
1aaz
1abo

#69300
1aam
0aap
0aaq
0aaz
0abo

#69360
0aam
0aao
1aap
1aaq
1aaz
1abo

#69420
1aan
0aaq
0aaz
0abo

#69480
0aan
0aap
1aaq
1aaz
1abo

#69540
1aao

#69600
0aao
0aaq
0aaz
0abo

#69660
1aap

#69720
0aap

#69780
1aaq
1aaz
1abo

#69840
0aaq
0aaz
0abo

#70200
1abl
1abp

#70260
0abl
0abp

#72060
1aaj

#72120
0aaj

#74160
1aai

#74220
1aac
0aai
1abg
1abj

#74280
0aac
0abg
0abj

#75180
1aad
1abe

#75240
0aad
1aae
1aaf
1abb
0abe

#75300
0aae
0aaf
1aaw
0abb

#75360
1aam
1aar
0aaw

#75420
0aar

#75480
0aam
1aan
1aas

#75540
0aas

#75600
1aam
0aan
1aao
1aat

#75660
0aam
0aat

#75720
1aan
0aao
1aap
1aau

#75780
1aam
0aan
0aau

#75840
1aah
0aam
1aao
0aap
1aaq
1aav
1aay
1aaz
1abo

#75900
0aah
1aan
0aao
0aav
0aay

#75960
0aan
1aap
0aaq
0aaz
0abo

#76020
1aao
0aap

#76080
0aao
1aaq
1aaz
1abo

#76140
1aap
0aaq
0aaz
0abo

#76200
1aam
0aap

#76260
0aam
1aaq
1aaz
1abo

#76320
1aan
0aaq
0aaz
0abo

#76380
0aan

#76440
1aao

#76500
1aam
0aao

#76560
0aam
1aap

#76620
1aam
1aan
0aap

#76680
0aam
0aan
1aaq
1aaz
1abo

#76740
1aan
1aao
0aaq
0aaz
0abo

#76800
0aan
0aao

#76860
1aao
1aap

#76920
0aao
0aap

#76980
1aap
1aaq
1aaz
1abo

#77040
0aap
0aaq
0aaz
0abo

#77100
1aaq
1aaz
1abo

#77160
0aaq
0aaz
0abo

#77520
1aam

#77580
0aam

#77640
1aan

#77700
0aan

#77760
1aao

#77820
0aao

#77880
1aap

#77940
0aap

#78000
1aaq
1aaz
1abo

#78060
1aaj
1aam
0aaq
0aaz
0abo

#78120
0aaj
0aam

#78180
1aan

#78240
0aan

#78300
1aao

#78360
0aao

#78420
1aap

#78480
1aam
0aap

#78540
0aam
1aaq
1aaz
1abo

#78600
1aan
0aaq
0aaz
0abo

#78660
0aan

#78720
1aao

#78780
0aao

#78840
1aap

#78900
0aap

#78960
1aaq
1aaz
1abo

#79020
0aaq
0aaz
0abo

#79080
1aam

#79200
0aam
1aan

#79320
0aan
1aao

#79440
0aao
1aap

#79560
0aap
1aaq
1aaz
1abo

#79680
0aaq
0aaz
0abo

#80040
1abl
1abp

#80100
0abl
0abp

#81900
1aaj

#81960
0aaj

#84000
1aai

#84060
1aac
0aai
1abg
1abj

#84120
0aac
0abg
0abj

#85020
1aad
1abe

#85080
0aad
1aae
1aaf
1abb
0abe

#85140
0aae
0aaf
1aaw
0abb

#85200
1aam
1aar
0aaw

#85260
0aam
0aar

#85320
1aan
1aas

#85380
0aan
0aas

#85440
1aao
1aat

#85500
0aao
0aat

#85560
1aap
1aau

#85620
1aam
0aap
0aau

#85680
1aah
0aam
1aaq
1aav
1aay
1aaz
1abo

#85740
0aah
1aan
0aaq
0aav
0aay
0aaz
0abo

#85800
0aan

#85860
1aao

#85920
0aao

#85980
1aam
1aap

#86040
0aap

#86100
0aam
1aan
1aaq
1aaz
1abo

#86160
0aaq
0aaz
0abo

#86220
0aan
1aao

#86340
0aao
1aap

#86460
0aap
1aaq
1aaz
1abo

#86520
1aam

#86580
0aaq
0aaz
0abo

#86640
0aam
1aan

#86760
1aam
0aan
1aao

#86820
0aam

#86880
1aan
0aao
1aap

#86940
0aan

#87000
1aao
0aap
1aaq
1aaz
1abo

#87060
1aam
0aao

#87120
0aam
1aap
0aaq
0aaz
0abo

#87180
1aam
1aan
0aap

#87240
0aam
0aan
1aaq
1aaz
1abo

#87300
1aan
1aao
0aaq
0aaz
0abo

#87360
0aan
0aao

#87420
1aam
1aao
1aap

#87480
0aam
0aao
0aap

#87540
1aan
1aap
1aaq
1aaz
1abo

#87600
0aan
0aap
0aaq
0aaz
0abo

#87660
1aam
1aao
1aaq
1aaz
1abo

#87720
0aam
0aao
0aaq
0aaz
0abo

#87780
1aan
1aap

#87840
0aan
0aap

#87900
1aaj
1aao
1aaq
1aaz
1abo

#87960
0aaj
0aao
0aaq
0aaz
0abo

#88020
1aap

#88080
0aap

#88140
1aaq
1aaz
1abo

#88200
0aaq
0aaz
0abo

#88380
1aam

#88500
1aan

#88560
0aam

#88620
1aao

#88680
0aan

#88740
1aap

#88800
0aao

#88860
1aaq
1aaz
1abo

#88920
1aam
0aap

#89040
0aam
1aan
0aaq
0aaz
0abo

#89160
0aan
1aao

#89280
0aao
1aap

#89400
0aap
1aaq
1aaz
1abo

#89520
0aaq
0aaz
0abo

#89880
1abl
1abp

#89940
0abl
0abp

#91740
1aaj

#91800
0aaj

#93840
1aai

#93900
1aac
0aai
1abg
1abj

#93960
0aac
0abg
0abj

#94860
1aad
1abe

#94920
0aad
1aae
1aaf
1abb
0abe

#94980
0aae
0aaf
1aaw
0abb

#95040
1aam
1aar
0aaw

#95100
0aam
0aar

#95160
1aam
1aan
1aas

#95220
0aam
0aan
0aas

#95280
1aan
1aao
1aat

#95340
0aan
0aao
0aat

#95400
1aao
1aap
1aau

#95460
0aao
0aap
0aau

#95520
1aah
1aap
1aaq
1aav
1aay
1aaz
1abo

#95580
0aah
0aap
0aaq
0aav
0aay
0aaz
0abo

#95640
1aaq
1aaz
1abo

#95700
1aam
0aaq
0aaz
0abo

#95760
0aam

#95820
1aan

#95880
0aan

#95940
1aao

#96000
0aao

#96060
1aap

#96120
1aam
0aap

#96180
0aam
1aaq
1aaz
1abo

#96240
1aan
0aaq
0aaz
0abo

#96300
0aan

#96360
1aao

#96420
0aao

#96480
1aam
1aap

#96540
0aap

#96600
1aan
1aaq
1aaz
1abo

#96660
0aam
0aaq
0aaz
0abo

#96720
1aao

#96780
0aan

#96840
1aap

#96900
0aao

#96960
1aaq
1aaz
1abo

#97020
0aap

#97080
1aam

#97140
0aam
0aaq
0aaz
0abo

#97200
1aam
1aan

#97260
0aam
0aan

#97320
1aan
1aao

#97380
0aan
0aao

#97440
1aao
1aap

#97500
0aao
0aap

#97560
1aap
1aaq
1aaz
1abo

#97620
0aap
0aaq
0aaz
0abo

#97680
1aaq
1aaz
1abo

#97740
1aaj
1aam
0aaq
0aaz
0abo

#97800
0aaj

#97860
0aam
1aan

#97980
1aam
0aan
1aao

#98040
0aam

#98100
1aan
0aao
1aap

#98160
0aan

#98220
1aao
0aap
1aaq
1aaz
1abo

#98280
0aao

#98340
1aap
0aaq
0aaz
0abo

#98400
0aap

#98460
1aaq
1aaz
1abo

#98520
0aaq
0aaz
0abo

#98820
1aam

#98880
0aam

#98940
1aan

#99000
0aan

#99060
1aao

#99120
0aao

#99180
1aap

#99240
0aap

#99300
1aaq
1aaz
1abo

#99360
0aaq
0aaz
0abo

#99720
1abl
1abp

#99780
0abl
0abp

#101580
1aaj

#101640
0aaj

#103680
1aai

#103740
1aac
0aai
1abg
1abj

#103800
0aac
0abg
0abj

#104700
1aad
1abe

#104760
0aad
1aae
1aaf
1abb
0abe

#104820
0aae
0aaf
1aaw
0abb

#104880
1aam
1aar
0aaw

#104940
0aam
0aar

#105000
1aan
1aas

#105060
1aam
0aan
0aas

#105120
0aam
1aao
1aat

#105180
1aam
1aan
0aao
0aat

#105240
0aan
1aap
1aau

#105300
0aam
1aan
1aao
0aap
0aau

#105360
1aah
0aao
1aaq
1aav
1aay
1aaz
1abo

#105420
0aah
0aan
1aao
1aap
0aaq
0aav
0aay
0aaz
0abo

#105480
0aap

#105540
0aao
1aap
1aaq
1aaz
1abo

#105600
0aaq
0aaz
0abo

#105660
1aam
0aap
1aaq
1aaz
1abo

#105720
0aam

#105780
1aam
1aan
0aaq
0aaz
0abo

#105840
0aam
0aan

#105900
1aan
1aao

#105960
0aan
0aao

#106020
1aao
1aap

#106080
1aam
0aao
0aap

#106140
0aam
1aap
1aaq
1aaz
1abo

#106200
1aan
0aap
0aaq
0aaz
0abo

#106260
1aam
0aan
1aaq
1aaz
1abo

#106320
0aam
1aao
0aaq
0aaz
0abo

#106380
1aan
0aao

#106440
0aan
1aap

#106500
1aao
0aap

#106560
0aao
1aaq
1aaz
1abo

#106620
1aam
1aap
0aaq
0aaz
0abo

#106680
0aap

#106740
0aam
1aan
1aaq
1aaz
1abo

#106800
0aaq
0aaz
0abo

#106860
0aan
1aao

#106980
1aam
0aao
1aap

#107040
0aam

#107100
1aam
1aan
0aap
1aaq
1aaz
1abo

#107160
0aam
0aan

#107220
1aan
1aao
0aaq
0aaz
0abo

#107280
0aan
0aao

#107340
1aam
1aao
1aap

#107400
0aam
0aao
0aap

#107460
1aan
1aap
1aaq
1aaz
1abo

#107520
1aam
0aan
0aap
0aaq
0aaz
0abo

#107580
1aaj
0aam
1aao
1aaq
1aaz
1abo

#107640
0aaj
1aan
0aao
0aaq
0aaz
0abo

#107700
0aan
1aap

#107760
1aam
1aao
0aap

#107820
0aam
0aao
1aaq
1aaz
1abo

#107880
1aam
1aan
1aap
0aaq
0aaz
0abo

#107940
0aam
0aan
0aap

#108000
1aan
1aao
1aaq
1aaz
1abo

#108060
0aan
0aao
0aaq
0aaz
0abo

#108120
1aam
1aao
1aap

#108180
0aam
0aao
0aap

#108240
1aan
1aap
1aaq
1aaz
1abo

#108300
0aan
0aap
0aaq
0aaz
0abo

#108360
1aao
1aaq
1aaz
1abo

#108420
0aao
0aaq
0aaz
0abo

#108480
1aap

#108540
1aam
0aap

#108600
0aam
1aaq
1aaz
1abo

#108660
1aam
1aan
0aaq
0aaz
0abo

#108720
0aam
0aan

#108780
1aan
1aao

#108840
0aan
0aao

#108900
1aao
1aap

#108960
0aao
0aap

#109020
1aap
1aaq
1aaz
1abo

#109080
0aap
0aaq
0aaz
0abo

#109140
1aaq
1aaz
1abo

#109200
0aaq
0aaz
0abo

#109560
1abl
1abp

#109620
0abl
0abp

#111420
1aaj

#111480
0aaj

#113520
1aai

#113580
1aac
0aai
1abg
1abj

#113640
0aac
0abg
0abj

#114540
1aad
1abe

#114600
0aad
1aae
1aaf
1abb
0abe

#114660
0aae
0aaf
1aaw
0abb

#114720
1aam
1aar
0aaw

#114780
0aam
0aar

#114840
1aan
1aas

#114900
0aan
0aas

#114960
1aao
1aat

#115020
1aam
0aao
0aat

#115080
1aap
1aau

#115140
0aam
1aan
0aap
0aau

#115200
1aah
1aaq
1aav
1aay
1aaz
1abo

#115260
0aah
0aan
1aao
0aaq
0aav
0aay
0aaz
0abo

#115380
1aam
0aao
1aap

#115500
0aam
1aan
0aap
1aaq
1aaz
1abo

#115620
0aan
1aao
0aaq
0aaz
0abo

#115740
1aam
0aao
1aap

#115800
0aam

#115860
1aan
0aap
1aaq
1aaz
1abo

#115920
1aam
0aan

