mangrove_master/regression/fpmul/fpmul_bool.vcd
$date
     May 19, 2016       17:52:11
$end

$version
 SystemC 2.3.1-Accellera --- Jul 30 2015 08:59:58
$end

$scope module SystemC $end
$var wire    1  aaaaa  fpmul.exp_neg       $end
$var wire    1  aaaab  fpmul.exp_neg_stage2       $end
$var wire    1  aaaac  fpmul.exp_pos       $end
$var wire    1  aaaad  fpmul.exp_pos_stage2       $end
$var wire    1  aaaae  fpmul.sign_out       $end
$var wire    1  aaaaf  fpmul.sign_out_stage1       $end
$var wire    1  aaaag  fpmul.sign_out_stage2       $end
$var wire    1  aaaah  fpmul.isinf_stage1       $end
$var wire    1  aaaai  fpmul.isinf_stage2       $end
$var wire    1  aaaaj  fpmul.isinf_tab       $end
$var wire    1  aaaak  fpmul.isnan       $end
$var wire    1  aaaal  fpmul.isnan_stage1       $end
$var wire    1  aaaam  fpmul.isnan_stage2       $end
$var wire    1  aaaan  fpmul.isz_tab       $end
$var wire    1  aaaao  fpmul.isz_tab_stage1       $end
$var wire    1  aaaap  fpmul.isz_tab_stage2       $end
$var wire    1  aaaaq  i1.i0.expz       $end
$var wire    1  aaaar  i1.i0.expff       $end
$var wire    1  aaaas  i1.i0.sigz       $end
$var wire    1  aaaat  i1.i1.expz       $end
$var wire    1  aaaau  i1.i1.expff       $end
$var wire    1  aaaav  i1.i1.sigz       $end
$var wire    1  aaaaw  i4.i3.isz       $end
$var wire    1  aaaax  i4.i3.isinf       $end
$var wire    1  aaaay  i4.i3.isnan       $end
$var wire    1  aaaaz  i4.i3.sign       $end
$var wire    1  aaaba  i1.i1.isdn       $end
$var wire    1  aaabb  i1.i1.isz       $end
$var wire    1  aaabc  i1.i1.isinf       $end
$var wire    1  aaabd  i1.i1.isnan       $end
$var wire    1  aaabe  i1.i1.sign       $end
$var wire    1  aaabf  i1.i0.isdn       $end
$var wire    1  aaabg  i1.i0.isz       $end
$var wire    1  aaabh  i1.i0.isinf       $end
$var wire    1  aaabi  i1.i0.isnan       $end
$var wire    1  aaabj  i1.i0.sign       $end
$upscope $end
$enddefinitions  $end

$comment
All initial values are dumped below at time 0 sec = 0 timescale units.
$end

$dumpvars
xaaaaa
xaaaab
xaaaac
xaaaad
xaaaae
xaaaaf
xaaaag
xaaaah
xaaaai
xaaaaj
xaaaak
xaaaal
xaaaam
xaaaan
xaaaao
xaaaap
0aaaaq
0aaaar
0aaaas
0aaaat
0aaaau
0aaaav
xaaaaw
0aaaax
xaaaay
xaaaaz
0aaaba
0aaabb
0aaabc
0aaabd
0aaabe
0aaabf
0aaabg
0aaabh
0aaabi
1aaabj
$end

#1
1aaabe

#2
0aaaab
0aaaaf
0aaaah
0aaaal
0aaaao
0aaabj

#3
0aaabe
1aaabj

#4
0aaaaa
0aaaad
1aaaaf
0aaaag
0aaaai
0aaaam
0aaaap
1aaabe
0aaabj

#5
0aaabe
1aaabj

#6
0aaaac
0aaaae
1aaaag
0aaaaj
0aaaak
0aaaan
0aaaaw
0aaaay
0aaaaz
1aaabe
0aaabj

#7
0aaabe
1aaabj

#8
1aaaae
1aaaaz
1aaabe

#9
0aaabj

#10
0aaabe

#12
0aaaaf
1aaabe
1aaabj

#13
0aaabj

#14
1aaaaf
0aaaag
1aaabj

#15
0aaabj

#16
0aaaae
1aaaag
0aaaaz
1aaabj

#18
1aaaae
0aaaaf
1aaaaz
0aaabe

#19
1aaabe
0aaabj

#20
1aaaaf
0aaaag
0aaabe
1aaabj

#21
0aaabj

#22
0aaaae
0aaaaf
1aaaag
0aaaaz
1aaabe

#23
0aaabe

#24
1aaaad
1aaaae
0aaaag
1aaaaz
1aaabe

#25
0aaabe
1aaabj

#26
1aaaab
1aaaac
0aaaad
0aaaae
1aaaaf
0aaaaz
0aaabj

#27
1aaabe

#28
1aaaaa
0aaaab
0aaaac
1aaaag

#29
1aaabj

#30
0aaaaa
1aaaab
1aaaae
0aaaaf
1aaaaz
0aaabj

#31
0aaabe
1aaabj

#32
1aaaaa
1aaaaf
0aaaag

#33
1aaabe

#34
0aaaab
0aaaae
0aaaaf
1aaaag
0aaaaz
0aaabj

#35
0aaabe

#36
0aaaaa
1aaaab
1aaaae
0aaaag
1aaaaz
1aaabe
1aaabj

#37
0aaabe
0aaabj

#38
1aaaaa
0aaaab
0aaaae
1aaaaw
0aaaaz
1aaabe
1aaabj

#40
0aaaaa
0aaaaw
0aaabe

#42
1aaaaf
1aaabe

#43
0aaabe
0aaabj

#44
0aaaaf
1aaaag

#45
1aaabe
1aaabj

#46
1aaaae
0aaaag
1aaaaz

#47
0aaabe

#48
1aaaab
0aaaae
1aaaaf
0aaaaz

#49
1aaabe

#50
1aaaaa
0aaaab
1aaaad
0aaaaf
1aaaag
1aaaaw
0aaabj

#52
0aaaaa
1aaaac
0aaaad
1aaaae
1aaaaf
0aaaag
0aaaaw
1aaaax
1aaaaz

#53
1aaabj

#54
1aaaab
0aaaac
0aaaae
0aaaaf
1aaaag
0aaaax
0aaaaz

#55
0aaabe
0aaabj

#56
1aaaaa
0aaaab
1aaaad
1aaaae
0aaaag
1aaaaz
1aaabj

#57
0aaabj

#58
0aaaaa
1aaaac
0aaaae
1aaaax
0aaaaz

#59
1aaabe

#60
1aaaab
0aaaad
1aaaaf
1aaabj

#62
1aaaaa
0aaaab
0aaaac
1aaaad
0aaaaf
1aaaag
1aaaaw
0aaaax
0aaabe

#63
1aaabe

#64
0aaaaa
1aaaac
0aaaad
1aaaae
0aaaag
0aaaaw
1aaaax
1aaaaz

#65
0aaabe

#66
0aaaac
0aaaae
1aaaaf
0aaaax
0aaaaz
0aaabj

#67
1aaabj

#68
1aaaab
1aaaag

#69
1aaabe

#70
1aaaaa
0aaaab
1aaaae
0aaaaf
1aaaaz

#71
0aaabj

#72
0aaaaa
1aaaad
1aaaaf
0aaaag

#73
1aaabj

#74
1aaaac
0aaaad
0aaaae
0aaaaf
1aaaag
0aaaaz
0aaabe

#75
1aaabe
0aaabj

#76
1aaaab
0aaaac
1aaaae
1aaaaf
0aaaag
1aaaaz
0aaabe
1aaabj

#77
1aaabe

#78
1aaaaa
0aaaab
1aaaad
0aaaae
0aaaaf
1aaaag
1aaaaw
0aaaaz
0aaabe
0aaabj

#79
1aaabe
1aaabj

#80
0aaaaa
1aaaab
1aaaac
0aaaad
1aaaae
0aaaag
0aaaaw
1aaaax
1aaaaz
0aaabj

#82
1aaaaa
0aaaab
0aaaac
1aaaad
0aaaae
1aaaaf
0aaaax
0aaaaz
1aaabj

#83
0aaabj

#84
0aaaaa
1aaaab
1aaaac
0aaaad
1aaaag
1aaaax
0aaabe
1aaabj

#85
1aaabe
0aaabj

#86
1aaaaa
0aaaab
0aaaac
1aaaae
1aaaaw
0aaaax
1aaaaz
0aaabe

#88
0aaaaa
1aaaab
0aaaaf
0aaaaw
1aaabe
1aaabj

#89
0aaabe

#90
1aaaaa
1aaaaf
0aaaag
1aaabe

#91
0aaabe

#92
0aaaae
1aaaag
1aaaaw
0aaaaz
1aaabe

#93
0aaabe

#94
0aaaab
1aaaae
0aaaaw
1aaaaz

#95
0aaabj

#96
0aaaaa
1aaaad
0aaaaf
1aaabj

#97
1aaabe

#98
1aaaab
1aaaac
0aaaad
0aaaag
0aaabe
0aaabj

#99
1aaabj

#100
1aaaaa
0aaaab
0aaaac
0aaaae
1aaaaf
1aaaaw
0aaaaz
1aaabe
0aaabj

#102
0aaaaa
1aaaag
0aaaaw
0aaabe
1aaabj

#103
1aaabe
0aaabj

#104
1aaaae
1aaaaz

#105
1aaabj

#106
1aaaad
0aaaaf
0aaabe
0aaabj

#108
1aaaab
1aaaac
0aaaad
0aaaag

#109
1aaabj

#110
1aaaaa
0aaaab
0aaaac
1aaaad
0aaaae
1aaaaf
0aaaaz
1aaabe
0aaabj

#112
0aaaaa
1aaaac
0aaaad
1aaaag
0aaabe
1aaabj

#113
1aaabe

#114
0aaaac
1aaaad
1aaaae
0aaaaf
1aaaaz
0aaabj

#115
0aaabe
1aaabj

#116
1aaaac
0aaaad
1aaaaf
0aaaag
1aaaax

#118
0aaaac
1aaaad
0aaaae
1aaaag
0aaaax
0aaaaz
1aaabe
0aaabj

#119
1aaabj

#120
1aaaab
1aaaac
0aaaad
1aaaae
0aaaaf
1aaaax
1aaaaz
0aaabe

#121
1aaabe

#122
1aaaaa
0aaaab
0aaaac
1aaaad
0aaaag
0aaaax
0aaabe
0aaabj

#123
1aaabj

#124
0aaaaa
1aaaac
0aaaad
0aaaae
1aaaaf
1aaaax
0aaaaz
1aaabe

#125
0aaabe
0aaabj

#126
0aaaac
1aaaad
0aaaaf
1aaaag
0aaaax
1aaabe

#127
0aaabe
1aaabj

#128
1aaaac
0aaaad
1aaaae
1aaaaf
0aaaag
1aaaaz
1aaabe

#129
0aaabe
0aaabj

#130
0aaaac
0aaaae
0aaaaf
1aaaag
0aaaaz
1aaabe
1aaabj

#131
0aaabe

#132
1aaaae
1aaaaf
0aaaag
1aaaaz

#133
1aaabe

#134
1aaaab
0aaaae
0aaaaf
1aaaag
0aaaaz

#136
1aaaaa
0aaaab
1aaaad
1aaaae
0aaaag
1aaaaw
1aaaaz
0aaabe
0aaabj

#137
1aaabj

#138
0aaaaa
1aaaab
1aaaac
0aaaad
0aaaae
1aaaaf
0aaaaw
0aaaaz
1aaabe
0aaabj

#139
0aaabe
1aaabj

#140
1aaaaa
0aaaab
0aaaac
1aaaag
1aaabe
0aaabj

#141
0aaabe

#142
0aaaaa
1aaaad
1aaaae
0aaaaf
1aaaaz
1aaabj

#143
1aaabe
0aaabj

#144
1aaaac
0aaaad
1aaaaf
0aaaag
1aaaax
0aaabe

#145
1aaabe

#146
0aaaac
1aaaad
0aaaae
1aaaag
0aaaax
0aaaaz
0aaabe

#147
1aaabe
1aaabj

#148
1aaaac
0aaaad
1aaaae
0aaaaf
1aaaar
1aaaaz
0aaabe
1aaabi

#149
0aaaar
0aaabi

#150
0aaaac
1aaaaf
0aaaag
1aaabe

#151
0aaabj

#152
1aaaad
0aaaae
1aaaag
0aaaaz
0aaabe

#153
1aaabe
1aaabj

#154
1aaaac
0aaaad
1aaaae
0aaaaf
1aaaax
1aaaaz
0aaabj

#155
1aaabj

#156
0aaaac
0aaaag
0aaaax
0aaabj

#157
1aaabj

#158
1aaaab
0aaaae
0aaaaz
0aaabe

#160
1aaaaa
0aaaab
1aaaaf
1aaabe
0aaabj

#162
0aaaaa
1aaaag
0aaabe
1aaabj

#163
1aaabe
0aaabj

#164
1aaaab
1aaaae
1aaaaz

#165
0aaabe

#166
1aaaaa
0aaaab
1aaaad
0aaaaf

#167
1aaabe
1aaabj

#168
0aaaaa
1aaaab
1aaaac
0aaaad
0aaaag
1aaaax
0aaabe

#169
1aaabe
0aaabj

#170
1aaaaa
0aaaab
0aaaac
0aaaae
1aaaaf
0aaaax
0aaaaz
1aaabj

#172
0aaaaa
0aaaaf
1aaaag
0aaabe

#173
1aaaaq
1aaabf
0aaabj

#174
1aaaae
0aaaag
0aaaaq
1aaaaz
0aaabf
1aaabj

#175
1aaabe

#176
1aaaab
0aaaae
0aaaaz
0aaabe
0aaabj

#178
1aaaaa
0aaaab
1aaaad
1aaaaw
1aaabe

#180
0aaaaa
1aaaac
0aaaad
1aaaaf
0aaaaw
1aaaax
0aaabe
1aaabj

#181
0aaabj

#182
1aaaab
0aaaac
0aaaaf
1aaaag
0aaaax
1aaabe
1aaabj

#183
0aaabe
0aaabj

#184
1aaaaa
0aaaab
1aaaae
0aaaag
1aaaaw
1aaaaz

#186
0aaaaa
0aaaae
0aaaaw
0aaaaz

#188
1aaabe

#189
1aaabj

#190
1aaaad

#191
0aaabe

#192
1aaaab
1aaaac
0aaaad
1aaaaf
1aaabe
0aaabj

#193
1aaabj

#194
1aaaaa
0aaaab
0aaaac
0aaaaf
1aaaag
1aaaaw
0aaabe

#196
0aaaaa
1aaaad
1aaaae
1aaaaf
0aaaag
0aaaaw
1aaaaz
0aaabj

#197
1aaabe

#198
1aaaab
1aaaac
0aaaad
0aaaae
1aaaag
1aaaax
0aaaaz
0aaabe
1aaabj

#199
1aaabe
0aaabj

#200
1aaaaa
0aaaab
0aaaac
1aaaae
0aaaax
1aaaaz

#201
0aaabe
1aaabj

#202
0aaaaa
1aaaad
1aaabe

#203
0aaabe

#204
1aaaac
0aaaad

#206
0aaaac
1aaaad

#208
1aaaac
0aaaad
0aaabj

#209
1aaabj

#210
0aaaac
1aaabe

#211
0aaabe
0aaabj

#212
1aaaab
0aaaaf

#213
1aaabe

#214
1aaaaa
0aaaab
1aaaad
1aaaaf
0aaaag
0aaabe
1aaabj

#215
1aaabe
0aaabj

#216
0aaaaa
1aaaac
0aaaad
0aaaae
1aaaag
1aaaax
0aaaaz

#218
0aaaac
1aaaae
0aaaax
1aaaaz
1aaabj

#219
0aaabj

#220
1aaabj

#222
1aaaab
0aaaaf

#224
1aaaaa
0aaaab
0aaaag

#225
0aaabe
0aaabj

#226
0aaaaa
1aaaad
0aaaae
0aaaaz
1aaabe

#227
0aaabe

#228
1aaaac
0aaaad

#229
1aaabj

#230
0aaaac
1aaaaf

#231
0aaabj

#232
0aaaaf
1aaaag
1aaabe

#233
1aaabj

#234
1aaaae
0aaaag
1aaaaz
0aaabe
0aaabj

#235
1aaabe

#236
0aaaae
1aaaaf
0aaaaz
1aaabj

#237
0aaabj

#238
1aaaad
1aaaag
1aaabj

#239
0aaabj

#240
1aaaab
1aaaac
0aaaad
1aaaae
1aaaax
1aaaaz
1aaabj

#241
0aaabe

#242
1aaaaa
0aaaab
0aaaac
1aaaaw
0aaaax

#243
1aaabe
0aaabj

#244
0aaaaa
0aaaaw
0aaabe
1aaabj

#245
1aaabe

#246
0aaaaf
0aaabj

#248
1aaaad
1aaaaf
0aaaag
0aaabe
1aaabj

#249
1aaabe
0aaabj

#250
1aaaac
0aaaad
0aaaae
1aaaag
0aaaaz
0aaabe
1aaabj

#252
0aaaac
1aaaae
1aaaaz
1aaabe

#253
0aaabe
0aaabj

#254
0aaaaf
1aaabe

#256
1aaaad
1aaaaf
0aaaag

#258
1aaaac
0aaaad
0aaaae
1aaaag
0aaaaz
0aaabe
1aaabj

#259
0aaabj

#260
0aaaac
1aaaae
0aaaaf
1aaaaz

#261
1aaabj

#262
1aaaad
1aaaaf
0aaaag
0aaabj

#263
1aaabj

#264
1aaaac
0aaaad
0aaaae
1aaaag
0aaaaz
1aaabe

#265
0aaabj

#266
1aaaab
0aaaac
1aaaae
1aaaaz

#267
0aaabe
1aaabj

#268
1aaaaa
1aaaaw
0aaabj

#269
1aaabe
1aaabj

#270
0aaaaf
0aaaaw
0aaabe

#271
1aaabe

#272
0aaaab
0aaaag
1aaaaw
0aaabe
0aaabj

#273
1aaabe
1aaabj

#274
0aaaaa
1aaaab
0aaaae
0aaaaw
0aaaaz
0aaabe
0aaabj

#275
1aaabe
1aaabj

#276
1aaaaa
1aaaaw
0aaabj

#278
0aaaab
1aaaad
1aaaaf

#280
0aaaaa
1aaaac
0aaaad
1aaaag
0aaaaw
1aaaax
0aaabe

#282
0aaaac
1aaaad
1aaaae
0aaaaf
0aaaax
1aaaaz
1aaabj

#283
1aaabe

#284
1aaaab
1aaaac
0aaaad
0aaaag
1aaaax
0aaabe
0aaabj

#286
1aaaaa
0aaaab
0aaaac
1aaaad
0aaaae
1aaaaw
0aaaax
0aaaaz
1aaabj

#288
0aaaaa
1aaaac
0aaaad
1aaaaf
1aaaar
0aaaaw
1aaabe
1aaabi

#289
0aaaar
0aaabe
0aaabi

#290
0aaaac
1aaaad
1aaaag
1aaaaq
1aaabe
1aaabf
0aaabj

#291
0aaaaq
0aaabf

#292
1aaaac
0aaaad
1aaaae
1aaaaz
0aaabe

#294
0aaaac
1aaaad
0aaaaf
1aaabe
1aaabj

#295
0aaabe

#296
1aaaac
1aaaaf
0aaaag
1aaaax
1aaabe
0aaabj

#297
0aaabe

#298
0aaaad
0aaaae
0aaaaf
1aaaag
0aaaax
0aaaaz
1aaabe

#299
1aaabj

#300
0aaaac
1aaaae
0aaaag
1aaaaz

#302
0aaaae
0aaaaz
0aaabe

#303
1aaabe

#304
1aaaab
0aaabe
0aaabj

#305
1aaabe
1aaabj

#306
1aaaaa
0aaaab
1aaaaw
0aaabj

#307
0aaabe

#308
0aaaaa
1aaaab
0aaaaw
1aaabe
1aaabj

#309
0aaabj

#310
1aaaaa
0aaaab
1aaaad
1aaaaf
0aaabe
1aaabj

#311
0aaabj

#312
0aaaaa
1aaaac
0aaaaf
1aaaag
1aaaar
1aaaax
1aaabe
1aaabi
1aaabj

#313
0aaaar
0aaabi

#314
1aaaab
0aaaad
1aaaae
0aaaag
1aaaaz
0aaabe
0aaabj

#315
1aaabe
1aaabj

#316
1aaaaa
0aaaab
0aaaac
0aaaae
0aaaax
0aaaaz

#317
0aaabe

#318
0aaaaa
1aaaaf

#319
0aaabj

#320
1aaaad
0aaaaf
1aaaag
1aaabj

#321
1aaabe

#322
1aaaab
1aaaac
0aaaad
1aaaae
0aaaag
1aaaaz
0aaabe
0aaabj

#323
1aaabe

#324
1aaaaa
0aaaab
0aaaac
0aaaae
1aaaaf
0aaaaz
0aaabe

#325
1aaabe

#326
0aaaaa
1aaaab
1aaaag
0aaabe
1aaabj

#327
1aaabe

#328
1aaaaa
1aaaae
0aaaaf
1aaaaz
0aaabe
0aaabj

#329
1aaabe

#330
1aaaaf
0aaaag
1aaaaw

#331
1aaabj

#332
0aaaab
0aaaae
0aaaaf
1aaaag
0aaaaz
0aaabe

#334
0aaaaa
1aaaab
1aaaae
1aaaaf
0aaaag
0aaaaw
1aaaaz
1aaabe

#335
0aaabe

#336
1aaaaa
0aaaab
0aaaae
1aaaag
0aaaaz
0aaabj

#337
1aaabj

#338
0aaaaa
1aaaab
1aaaae
1aaaaz
1aaabe
0aaabj

#339
0aaabe

#340
1aaaaa
0aaaab
0aaaaf
1aaaaw
1aaabe

#341
0aaabe

#342
0aaaaa
0aaaag
0aaaaw

#343
1aaabe

#344
1aaaab
0aaaae
1aaaaf
0aaaaz
0aaabe
1aaabj

#346
1aaaaa
0aaaab
1aaaag
1aaaaw
0aaabj

#347
1aaabe
1aaabj

#348
0aaaaa
1aaaab
1aaaae
0aaaaf
0aaaaw
1aaaaz
0aaabe

#349
1aaabe
0aaabj

#350
1aaaaa
1aaaaf
0aaaag
1aaaaw
0aaabe
1aaabj

#351
1aaabe
0aaabj

#352
0aaaab
1aaaad
0aaaae
1aaaag
0aaaaw
0aaaaz

#353
0aaabe
1aaabj

#354
0aaaaa
1aaaac
1aaaae
1aaaaz
0aaabj

#356
0aaaaf
1aaaax
1aaabe
1aaabj

#357
0aaabe
0aaabj

#358
0aaaad
0aaaag

#359
1aaabe

#360
0aaaac
0aaaae
1aaaaf
0aaaax
0aaaaz
0aaabe

#361
1aaabe

#362
1aaaag

#363
1aaabj

#364
1aaaae
0aaaaf
1aaaaz
0aaabe
0aaabj

#366
1aaaab
0aaaag
1aaabe

#367
0aaabe
1aaabj

#368
1aaaaa
0aaaab
0aaaae
1aaaaf
1aaaaw
0aaaaz
1aaabe
0aaabj

#370
0aaaaa
1aaaab
1aaaag
0aaaaw
0aaabe

#371
1aaabe

#372
1aaaaa
0aaaab
1aaaae
1aaaaw
1aaaaz

#373
1aaaat
1aaaba
0aaabe
1aaabj

#374
0aaaaa
1aaaad
0aaaat
0aaaaw
0aaaba

#375
0aaabj

#376
1aaaab
1aaaac
0aaaad
0aaaaf
1aaaax
1aaabj

#377
1aaabe

#378
1aaaaa
0aaaab
0aaaac
1aaaad
0aaaag
1aaaaw
0aaaax

#380
0aaaaa
1aaaac
0aaaad
0aaaae
0aaaaw
0aaaaz
0aaabj

#381
0aaabe

#382
0aaaac
1aaabj

#383
1aaabe
0aaabj

#384
1aaaab
1aaaaf
1aaabj

#385
0aaabe

#386
1aaaaa
0aaaab
1aaaag
1aaaaw
0aaabj

#387
1aaabj

#388
0aaaaa
1aaaae
0aaaaw
1aaaaz
1aaabe
0aaabj

#389
0aaabe

#390
0aaaaf
1aaabj

#391
1aaabe
0aaabj

#392
1aaaaf
0aaaag
1aaabj

#393
0aaabe
0aaabj

#394
0aaaae
0aaaaf
1aaaag
0aaaaz

#396
1aaaae
0aaaag
1aaaaz

#397
1aaabj

#398
0aaaae
1aaaaf
0aaaaz
1aaabe
0aaabj

#399
0aaabe

#400
0aaaaf
1aaaag
1aaabe
1aaabj

#401
0aaabe

#402
1aaaae
1aaaaf
0aaaag
1aaaaz
0aaabj

#404
1aaaab
0aaaae
0aaaaf
1aaaag
0aaaaz

#405
1aaabj

#406
1aaaaa
0aaaab
1aaaae
1aaaaf
0aaaag
1aaaaz
1aaabe
0aaabj

#407
0aaabe
1aaabj

#408
0aaaaa
1aaaad
0aaaae
1aaaag
0aaaaz
0aaabj

#409
1aaabe
1aaabj

#410
1aaaac
0aaaad
1aaaae
0aaaaf
1aaaax
1aaaaz
0aaabe

#411
0aaabj

#412
1aaaab
0aaaac
0aaaag
0aaaax

#413
1aaabe
1aaabj

#414
1aaaaa
0aaaab
1aaaad
0aaaae
1aaaaw
0aaaaz

#415
0aaabe
0aaabj

#416
0aaaaa
1aaaac
0aaaad
0aaaaw
1aaabe

#418
0aaaac
1aaaaf

#420
1aaaab
1aaaag
0aaabe

#421
1aaabe
1aaabj

#422
1aaaaa
1aaaae
0aaaaf
1aaaaw
1aaaaz
0aaabe
0aaabj

#424
0aaaab
0aaaag
1aaabe

#426
0aaaaa
0aaaae
1aaaaf
0aaaaw
0aaaaz

#427
0aaabe
1aaabj

#428
1aaaag
0aaabj

#429
1aaabe
1aaabj

#430
1aaaab
1aaaae
0aaaaf
1aaaaz
0aaabe

#431
1aaabe

#432
1aaaaa
0aaaag

#433
1aaaar
0aaabe
1aaabi

#434
0aaaae
1aaaaf
1aaaal
0aaaar
0aaaaz
1aaabe
0aaabi

#436
0aaaab
1aaaad
0aaaaf
1aaaag
0aaaal
1aaaam
1aaaaw
0aaabe
0aaabj

#437
1aaabe
1aaabj

#438
0aaaaa
1aaaac
0aaaad
1aaaae
0aaaag
1aaaak
0aaaam
0aaaaw
1aaaax
1aaaay
1aaaaz

#439
0aaabe

#440
0aaaac
0aaaae
1aaaaf
0aaaak
0aaaax
0aaaay
0aaaaz
0aaabj

#441
1aaabe
1aaabj

#442
1aaaab
0aaaaf
1aaaag
0aaabe
0aaabj

#443
1aaabe

#444
1aaaaa
0aaaab
1aaaae
1aaaaf
0aaaag
1aaaaw
1aaaaz
0aaabe
1aaabj

#445
1aaabe

#446
0aaaaa
1aaaad
0aaaae
0aaaaf
1aaaag
0aaaaw
0aaaaz

#447
0aaabj

#448
1aaaac
0aaaad
1aaaae
1aaaaf
0aaaag
1aaaaz
0aaabe
1aaabj

#450
0aaaac
0aaaae
1aaaag
0aaaaz
0aaabj

#451
1aaabe

#452
1aaaab
1aaaae
1aaaaz

#454
1aaaaa
0aaaab
1aaaad

#456
0aaaaa
1aaaac
0aaaad
1aaaax

#457
0aaabe

#458
0aaaac
0aaaaf
0aaaax
1aaabe
1aaabj

#460
1aaaab
0aaaag

#461
0aaabe
0aaabj

#462
1aaaaa
0aaaab
1aaaad
0aaaae
0aaaaz
1aaabj

#463
1aaabe

#464
0aaaaa
1aaaab
1aaaac
0aaaad
0aaabj

#465
0aaabe
1aaabj

#466
1aaaaa
0aaaab
0aaaac
1aaaaf
1aaaaw

#468
0aaaaa
1aaaag
0aaaaw
1aaabe
0aaabj

#469
0aaabe

#470
1aaaab
1aaaae
0aaaaf
1aaaaz
1aaabe
1aaabj

#471
0aaabj

#472
1aaaaa
1aaaaf
0aaaag
1aaaaw
0aaabe
1aaabj

#474
0aaaae
1aaaag
0aaaaw
0aaaaz
1aaabe
0aaabj

#476
0aaaab
1aaaae
1aaaaz
0aaabe
1aaabj

#478
0aaaaa
1aaaab
1aaabe

#480
1aaaaa
0aaaab
0aaaaf
1aaaaw
0aaabe
0aaabj

#481
1aaabj

#482
0aaaaa
1aaaab
1aaaaf
0aaaag
0aaaaw
1aaabe

#483
0aaabe

#484
1aaaaa
0aaaab
0aaaae
1aaaag
1aaaaw
0aaaaz

#486
0aaaaa
1aaaae
0aaaaw
1aaaaz
0aaabj

#488
0aaaaf
1aaabe
1aaabj

#489
0aaabe
0aaabj

#490
0aaaag
1aaabe
1aaabj

#491
0aaabe

#492
0aaaae
1aaaaf
1aaaar
0aaaaz
1aaabi
0aaabj

#493
0aaaar
1aaabe
0aaabi
1aaabj

#494
0aaaaf
1aaaag

#495
1aaaat
1aaaba
0aaabj

#496
1aaaae
1aaaaf
0aaaag
0aaaat
1aaaaz
0aaaba

#498
1aaaab
0aaaae
1aaaag
0aaaaz
1aaabj

#499
0aaabe

#500
1aaaaa
0aaaab
1aaaae
1aaaaw
1aaaaz

#501
1aaabe
0aaabj

#502
0aaaaa
1aaaab
0aaaaw

#503
0aaabe
1aaabj

#504
1aaaaa
1aaaau
1aaabd
0aaabj

#505
0aaaau
0aaabd
1aaabe

#506
0aaaab
0aaabe

#508
0aaaaa
0aaaaf
1aaabe

#510
1aaaad
1aaaaf
0aaaag
1aaabj

#511
0aaabe
0aaabj

#512
1aaaab
1aaaac
0aaaad
0aaaae
0aaaaf
1aaaag
0aaaaz

#513
1aaabe

#514
1aaaaa
0aaaab
0aaaac
1aaaad
1aaaae
1aaaaf
0aaaag
1aaaaw
1aaaaz

#515
1aaabj

#516
0aaaaa
1aaaac
0aaaad
0aaaae
0aaaaf
1aaaag
0aaaaw
0aaaaz
0aaabe

#517
0aaabj

#518
0aaaac
1aaaae
0aaaag
1aaaaz
1aaabe
1aaabj

#519
0aaabj

#520
1aaaab
0aaaae
1aaaaf
0aaaaz

#521
0aaabe

#522
1aaaaa
0aaaaf
1aaaag
1aaaaw
1aaabj

#523
1aaabe

#524
0aaaab
1aaaad
1aaaae
0aaaag
1aaaaz
0aaabj

#525
1aaabj

#526
0aaaaa
1aaaac
0aaaad
0aaaae
0aaaaw
1aaaax
0aaaaz
0aaabe
0aaabj

#527
1aaabj

#528
0aaaac
1aaaaf
0aaaax

#530
1aaaad
1aaaag
1aaabe
0aaabj

#531
0aaabe
1aaabj

#532
1aaaac
1aaaae
1aaaaz

#533
0aaabj

#534
0aaaaf

#535
1aaabe

#536
1aaaab
0aaaad
1aaaaf
0aaaag

#537
1aaabj

#538
1aaaaa
0aaaab
0aaaac
1aaaad
0aaaae
0aaaaf
1aaaag
0aaaaz
0aaabe
0aaabj

#539
1aaabe

#540
0aaaaa
1aaaac
1aaaae
1aaaaf
0aaaag
1aaaaz
0aaabe
1aaabj

#542
0aaaad
0aaaae
1aaaag
1aaaax
0aaaaz
0aaabj

#543
1aaabj

#544
0aaaac
1aaaae
0aaaax
1aaaaz

#546
1aaabe
0aaabj

#547
0aaabe

#548
1aaaab
0aaaaf
1aaabe

#549
0aaabe
1aaabj

#550
1aaaaa
0aaaab
1aaaad
1aaaaf
0aaaag
1aaabe
0aaabj

#551
0aaabe

#552
0aaaaa
1aaaab
1aaaac
0aaaad
0aaaae
0aaaaf
1aaaag
1aaaax
0aaaaz

#553
1aaabe

#554
1aaaaa
0aaaab
0aaaac
1aaaad
1aaaae
1aaaaf
0aaaag
0aaaax
1aaaaz

#555
0aaabe

#556
0aaaaa
1aaaab
1aaaac
0aaaad
0aaaae
0aaaaf
1aaaag
0aaaaz

#558
1aaaaa
0aaaab
0aaaac
1aaaae
0aaaag
1aaaaz
1aaabe
1aaabj

#559
0aaabe

#560
0aaaaa
1aaaad
0aaaae
1aaaaf
0aaaaz

#561
1aaabe
0aaabj

#562
1aaaab
1aaaac
0aaaad
1aaaag
1aaaax
0aaabe
1aaabj

#563
0aaabj

#564
1aaaaa
0aaaab
0aaaac
1aaaad
1aaaae
0aaaaf
1aaaaw
0aaaax
1aaaaz
1aaabe

#565
1aaabj

#566
0aaaaa
1aaaac
0aaaad
0aaaag
0aaaaw
1aaaax
0aaabe

#568
1aaaab
0aaaac
0aaaae
1aaaaf
0aaaax
0aaaaz

#569
0aaabj

#570
1aaaaa
0aaaab
0aaaaf
1aaaag
1aaaaw

#572
0aaaaa
1aaaae
0aaaag
0aaaaw
1aaaaz
1aaabe

#573
1aaabj

#574
1aaaad
0aaaae
0aaaaz
0aaabj

#576
1aaaac
0aaaad
1aaaaf
0aaabe
1aaabj

#577
1aaaar
1aaabi
0aaabj

#578
0aaaac
1aaaad
0aaaaf
1aaaag
1aaaal
0aaaar
0aaabi
1aaabj

#580
1aaaac
1aaaae
1aaaaf
0aaaag
0aaaal
1aaaam
1aaaaz
1aaabe
0aaabj

#582
1aaaab
0aaaad
0aaaae
1aaaag
1aaaak
0aaaam
1aaaax
1aaaay
0aaaaz
1aaabj

#584
1aaaaa
0aaaab
0aaaac
1aaaad
1aaaae
0aaaaf
0aaaak
1aaaaw
0aaaax
0aaaay
1aaaaz
0aaabe
0aaabj

#586
0aaaaa
1aaaac
0aaaad
0aaaag
0aaaaw
1aaaax
1aaabe

#587
0aaabe

#588
0aaaac
0aaaae
0aaaax
0aaaaz

#589
1aaabe

#590
1aaaaf
0aaabe
1aaabj

#591
1aaabe
0aaabj

#592
1aaaag
0aaabe
1aaabj

#593
0aaabj

#594
1aaaae
0aaaaf
1aaaaz

#595
1aaabj

#596
1aaaaf
0aaaag
1aaabe
0aaabj

#598
1aaaab
0aaaae
1aaaag
0aaaaz
0aaabe

#599
1aaabe
1aaabj

#600
1aaaaa
1aaaae
0aaaaf
1aaaaw
1aaaaz
0aaabe
0aaabj

#601
1aaabj

#602
0aaaab
1aaaad
1aaaaf
0aaaag
1aaabe

#603
0aaabe

#604
0aaaaa
1aaaac
0aaaad
0aaaae
1aaaag
0aaaaw
1aaaax
0aaaaz
0aaabj

