mangrove_master/regression/fpadd/fpadd_bool.vcd
$date
     May 19, 2016       17:47:28
$end

$version
 SystemC 2.3.1-Accellera --- Jul 30 2015 08:59:58
$end

$scope module SystemC $end
$var wire    1  aaaaa  add_sub_out       $end
$var wire    1  aaaab  a_sign       $end
$var wire    1  aaaac  a_sign_stage2       $end
$var wire    1  aaaad  a_sign_stage3       $end
$var wire    1  aaaae  a_isinf       $end
$var wire    1  aaaaf  a_isnan       $end
$var wire    1  aaaag  a_isz       $end
$var wire    1  aaaah  b_xsign       $end
$var wire    1  aaaai  b_xsign_stage2       $end
$var wire    1  aaaaj  b_xsign_stage3       $end
$var wire    1  aaaak  b_isinf       $end
$var wire    1  aaaal  b_isnan       $end
$var wire    1  aaaam  b_isz       $end
$var wire    1  aaaan  ov       $end
$var wire    1  aaaao  ov_stage4       $end
$var wire    1  aaaap  z_sign       $end
$var wire    1  aaaaq  z_sign_stage4       $end
$var wire    1  aaaar  cin       $end
$var wire    1  aaaas  cin_sub       $end
$var wire    1  aaaat  invert_a       $end
$var wire    1  aaaau  invert_b       $end
$var wire    1  aaaav  isinf_tab       $end
$var wire    1  aaaaw  isinf_tab_stage2       $end
$var wire    1  aaaax  isinf_tab_stage3       $end
$var wire    1  aaaay  isinf_tab_stage4       $end
$var wire    1  aaaaz  isnan       $end
$var wire    1  aaaba  isnan_stage2       $end
$var wire    1  aaabb  isnan_stage3       $end
$var wire    1  aaabc  isnan_stage4       $end
$var wire    1  aaabd  isz_tab       $end
$var wire    1  aaabe  isz_tab_stage2       $end
$var wire    1  aaabf  isz_tab_stage3       $end
$var wire    1  aaabg  isz_tab_stage4       $end
$var wire    1  aaabh  zero       $end
$var wire    1  aaabi  zero_stage4       $end
$var wire    1  aaabj  i1.i1.expz       $end
$var wire    1  aaabk  i1.i1.expff       $end
$var wire    1  aaabl  i1.i1.sigz       $end
$var wire    1  aaabm  i1.i3.expz       $end
$var wire    1  aaabn  i1.i3.expff       $end
$var wire    1  aaabo  i1.i3.sigz       $end
$var wire    1  aaabp  i6.i2.isz       $end
$var wire    1  aaabq  i6.i2.isinf       $end
$var wire    1  aaabr  i6.i2.isnan       $end
$var wire    1  aaabs  i6.i2.sign       $end
$var wire    1  aaabt  i3.i14.invert_b       $end
$var wire    1  aaabu  i3.i14.invert_a       $end
$var wire    1  aaabv  i2.i3.swap_ab       $end
$var wire    1  aaabw  i1.i4.sigz       $end
$var wire    1  aaabx  i1.i3.isdn       $end
$var wire    1  aaaby  i1.i3.isz       $end
$var wire    1  aaabz  i1.i3.isinf       $end
$var wire    1  aaaca  i1.i3.isnan       $end
$var wire    1  aaacb  i1.i3.sign       $end
$var wire    1  aaacc  i1.i1.isdn       $end
$var wire    1  aaacd  i1.i1.isz       $end
$var wire    1  aaace  i1.i1.isinf       $end
$var wire    1  aaacf  i1.i1.isnan       $end
$var wire    1  aaacg  i1.i1.sign       $end
$var wire    1  aaach  add_sub       $end
$upscope $end
$enddefinitions  $end

$comment
All initial values are dumped below at time 0 sec = 0 timescale units.
$end

$dumpvars
xaaaaa
xaaaab
xaaaac
xaaaad
xaaaae
xaaaaf
xaaaag
xaaaah
xaaaai
xaaaaj
xaaaak
xaaaal
xaaaam
xaaaan
xaaaao
xaaaap
xaaaaq
xaaaar
xaaaas
xaaaat
xaaaau
xaaaav
xaaaaw
xaaaax
xaaaay
xaaaaz
xaaaba
xaaabb
xaaabc
xaaabd
xaaabe
xaaabf
xaaabg
xaaabh
xaaabi
0aaabj
0aaabk
0aaabl
0aaabm
0aaabn
0aaabo
xaaabp
xaaabq
xaaabr
xaaabs
xaaabt
xaaabu
xaaabv
xaaabw
0aaabx
0aaaby
0aaabz
0aaaca
1aaacb
0aaacc
0aaacd
0aaace
0aaacf
1aaacg
0aaach
$end

#1
0aaacb
1aaach

#2
1aaaaa
1aaaab
0aaaae
0aaaaf
0aaaag
0aaaah
0aaaak
0aaaal
0aaaam
0aaaao
0aaaaq
0aaaar
0aaaas
0aaaat
0aaaau
0aaaaw
0aaaba
0aaabe
0aaabi
0aaabt
0aaabu
0aaabv
0aaabw
1aaacb
0aaach

#3
0aaacb
0aaacg

#4
0aaaaa
0aaaab
1aaaac
1aaaah
0aaaai
0aaaan
0aaaap
1aaaar
1aaaat
0aaaax
0aaabb
0aaabf
0aaabh
0aaabs
1aaabu
1aaabv
1aaacb
1aaacg

#5
0aaacg
1aaach

#6
1aaaaa
0aaaac
1aaaad
1aaaai
0aaaaj
0aaaay
0aaabc
0aaabg
0aaabv
0aaacb
1aaacg
0aaach

#7
1aaacb
1aaach

#8
1aaaab
0aaaad
1aaaaj
1aaaaq
0aaaat
1aaaau
0aaaav
0aaaaz
0aaabd
0aaabp
0aaabq
0aaabr
1aaabt
0aaabu

#10
1aaaac
1aaaap
0aaaar
0aaaau
1aaabs
0aaabt
1aaabv
0aaacg
0aaach

#12
0aaaaa
0aaaab
1aaaad
0aaaah
0aaaaq
0aaabv
1aaacg

#13
0aaacb

#14
1aaaab
0aaaac
1aaaah
0aaaai
0aaaap
1aaaaq
0aaabs
1aaacb

#15
0aaacb
0aaacg

#16
0aaaab
1aaaac
0aaaad
1aaaai
0aaaaj
1aaaap
1aaabs

#17
1aaacb
1aaach

#18
1aaaaa
0aaaac
1aaaad
1aaaaj
0aaaaq
1aaaar
1aaaau
1aaabt
1aaabv
0aaacb

#19
1aaacb
1aaacg

#20
1aaaab
0aaaad
0aaaap
1aaaaq
1aaaat
0aaaau
0aaabs
0aaabt
1aaabu
0aaabv
0aaacb
0aaach

#21
0aaacg
1aaach

#22
0aaaab
1aaaac
0aaaah
1aaaap
0aaaaq
0aaaar
0aaaat
1aaabs
0aaabu
1aaabv
1aaacg

#23
1aaacb

#24
1aaaab
0aaaac
1aaaad
1aaaah
0aaaai
0aaaap
1aaaaq
0aaabs
0aaabv
0aaacb
0aaacg

#25
1aaacb
0aaach

#26
0aaaaa
0aaaab
1aaaac
0aaaad
0aaaah
1aaaai
0aaaaj
1aaaap
1aaabs
0aaacb
1aaacg

#27
1aaacb
0aaacg

#28
0aaaac
1aaaad
0aaaai
1aaaaj
0aaaaq
1aaabv
0aaacb

#29
1aaacg
1aaach

#30
1aaaaa
1aaaab
0aaaad
0aaaaj
0aaaap
1aaaaq
0aaabs
0aaabv
1aaacb
0aaacg
0aaach

#31
1aaacg

#32
0aaaaa
1aaaac
1aaaap
0aaaaq
1aaaar
1aaaat
1aaabs
1aaabu
1aaabv
0aaacb
1aaach

#33
0aaacg
0aaach

#34
0aaaab
1aaaad
1aaaah
0aaaap
0aaaat
1aaaau
0aaabs
1aaabt
0aaabu
1aaacb
1aaacg

#35
0aaacb

#36
1aaaab
0aaaac
1aaaai
1aaaaq
1aaaat
0aaaau
0aaabt
1aaabu
0aaabv
1aaacb
0aaacg

#37
0aaacb
1aaacg
1aaach

#38
1aaaaa
1aaaac
0aaaad
0aaaah
1aaaaj
1aaaap
0aaaaq
0aaaar
0aaaat
1aaabs
0aaabu
1aaabv
0aaacg

#39
1aaacb

#40
0aaaab
1aaaad
1aaaah
0aaaai
0aaaap
1aaaaq
1aaaar
1aaaau
0aaabs
1aaabt
0aaabv
0aaacb
0aaach

#41
1aaacg
1aaach

#42
1aaaab
0aaaac
0aaaah
1aaaai
0aaaaj
1aaaap
1aaabs
1aaacb
0aaacg
0aaach

#43
0aaacb
1aaacg
1aaach

#44
1aaaac
0aaaad
0aaaai
1aaaaj
0aaaaq
1aaaat
0aaaau
0aaabt
1aaabu
1aaabv

#45
1aaabj
1aaacc

#46
1aaaad
0aaaaj
0aaaap
1aaaas
0aaaat
1aaaau
0aaabj
0aaabs
1aaabt
0aaabu
1aaabw
1aaacb
0aaacc
0aaacg
0aaach

#47
1aaach

#48
0aaaab
1aaaah
1aaaaq
0aaaas
0aaabv
0aaabw
1aaacg

#49
0aaacg

#50
0aaaac
1aaaai
1aaaap
0aaaaq
1aaabs
1aaabv
0aaacb
0aaach

#51
1aaacg

#52
0aaaaa
1aaaab
0aaaad
1aaaaj
0aaaap
1aaaat
0aaaau
0aaabs
0aaabt
1aaabu
0aaabv
1aaacb

#53
0aaacb
0aaacg

#54
0aaaab
1aaaac
0aaaar
0aaaat
0aaabu
1aaacb
1aaacg
1aaach

#55
0aaach

#56
1aaaab
0aaaac
1aaaad
0aaaah
1aaaaq
1aaaar
1aaaau
1aaabt
0aaacb
0aaacg
1aaach

#57
1aaacb
1aaacg

#58
1aaaaa
1aaaac
0aaaad
1aaaah
0aaaai
1aaaap
1aaaat
0aaaau
1aaabs
0aaabt
1aaabu
1aaabv
0aaacb
0aaacg
0aaach

#60
0aaaaa
0aaaab
1aaaad
1aaaai
0aaaaj
0aaaaq
0aaaar
0aaaat
0aaabu
0aaabv
1aaacg

#61
1aaacb

#62
1aaaab
0aaaac
0aaaah
1aaaaj
0aaaap
1aaaaq
1aaaar
1aaaau
0aaabs
1aaabt
1aaabv
1aaach

#63
0aaacb
0aaacg
0aaach

#64
0aaaab
1aaaac
0aaaad
1aaaah
0aaaai
1aaaap
1aaabs
1aaacb
1aaach

#65
0aaacb

#66
1aaaaa
0aaaac
1aaaad
0aaaah
1aaaai
0aaaaj
0aaaaq
1aaaat
0aaaau
0aaabt
1aaabu
0aaabv
0aaach

#67
1aaacb
1aaacg
1aaach

#68
1aaaab
0aaaad
1aaaah
0aaaai
1aaaaj
0aaaap
0aaaar
0aaaat
0aaabs
0aaabu
1aaabv
0aaacb
0aaacg
0aaach

#69
1aaacb
1aaacg
1aaach

#70
1aaaac
1aaaai
0aaaaj
1aaaaq

#71
0aaacg
0aaach

#72
0aaaaa
0aaaab
1aaaad
0aaaah
1aaaaj
1aaaap
0aaaaq
1aaabs
0aaacb
1aaacg
1aaach

#73
1aaacb
0aaacg
0aaach

#74
0aaaac
0aaaai
0aaaap
1aaaaq
0aaabs
1aaacg
1aaach

#75
0aaach

#76
1aaaab
0aaaad
0aaaaj
1aaaap
1aaabs
1aaach

#77
0aaacb
0aaacg

#78
1aaaaa
0aaaab
1aaaac
0aaaaq
1aaaar
1aaaau
1aaabt
0aaabv
1aaacb
1aaacg
0aaach

#79
0aaacb

#80
0aaaaa
1aaaab
0aaaac
1aaaad
1aaaah
0aaaap
0aaaar
0aaaau
0aaabs
0aaabt
1aaabv
1aaacb
0aaacg

#81
1aaacg

#82
1aaaac
0aaaad
0aaaah
1aaaai
0aaabv

#83
0aaacg

#84
0aaaab
1aaaad
0aaaai
1aaaaj
1aaaar
1aaaat
1aaabu
0aaacb

#85
1aaacg
1aaach

#86
1aaaaa
1aaaab
0aaaac
0aaaaj
1aaaaq
0aaaar
0aaaat
0aaabu
1aaacb
0aaach

#87
0aaacb
0aaacg

#88
0aaaaa
0aaaab
1aaaac
0aaaad
1aaaah
1aaaap
1aaaar
1aaaat
1aaabs
1aaabu
1aaabv
1aaacb
1aaach

#89
0aaacb
0aaach

#90
0aaaac
1aaaad
1aaaai
0aaaaq
1aaacb
1aaacg
1aaach

#91
0aaacg

#92
1aaaaa
0aaaad
1aaaaj
0aaaap
1aaaaq
0aaabs
0aaacb
1aaacg

#94
1aaaab
0aaaah
1aaaap
1aaabs
0aaabv
0aaacg

#95
0aaach

#96
0aaaaa
0aaaab
1aaaac
1aaaah
0aaaai
1aaabv
1aaacb
1aaacg

#97
0aaacb
0aaacg

#98
0aaaac
1aaaad
1aaaai
0aaaaj
1aaacg

#99
1aaacb
0aaacg
1aaach

#100
1aaaaa
0aaaad
1aaaaj
0aaabv
0aaacb

#101
1aaacb
1aaacg

#102
1aaaab
0aaaat
1aaaau
1aaabt
0aaabu
1aaabv
0aaacb
0aaach

#103
1aaacb

#104
0aaaaa
1aaaac
0aaaah
0aaaar
0aaaau
0aaabt
0aaacg

#105
1aaabn
1aaaca
0aaacb

#106
0aaaab
1aaaad
1aaaah
0aaaai
1aaaal
0aaaaq
1aaaar
1aaaau
0aaabn
1aaabt
0aaaca
1aaacb
1aaacg
1aaach

#107
0aaach

#108
1aaaab
0aaaac
0aaaah
1aaaai
0aaaaj
0aaaal
0aaaap
1aaaaq
1aaaat
0aaaau
1aaaba
0aaabs
0aaabt
1aaabu
0aaabv
0aaacb
0aaacg
1aaach

#109
1aaacb

#110
1aaaaa
0aaaab
1aaaac
0aaaad
1aaaah
0aaaai
1aaaaj
1aaaap
0aaaaq
0aaaba
1aaabb
1aaabs
1aaabv
1aaacg
0aaach

#111
0aaacg
1aaach

#112
0aaaac
1aaaad
1aaaai
0aaaaj
0aaaap
1aaaaq
0aaabb
1aaabc
0aaabs
0aaabv

#113
1aaacg

#114
1aaaab
0aaaad
1aaaaj
1aaaap
0aaaat
1aaaau
1aaaaz
0aaabc
1aaabq
1aaabr
1aaabs
1aaabt
0aaabu
0aaacb

#115
0aaach

#116
0aaaaa
1aaaac
0aaaar
0aaaau
0aaaaz
0aaabq
0aaabr
0aaabt
1aaabv
0aaacg

#117
1aaacg
1aaach

#118
1aaaaa
1aaaad
0aaaah
0aaaaq
1aaacb

#119
0aaacb
0aaacg

#120
0aaaab
0aaaai
0aaaap
1aaaaq
1aaaar
1aaaau
0aaabs
1aaabt
0aaabv
1aaacb
0aaach

#121
1aaacg

#122
0aaaaa
1aaaab
0aaaac
0aaaaj
1aaaap
0aaaar
0aaaau
1aaabs
0aaabt
1aaabv
0aaacb
0aaacg
1aaach

#124
1aaaaa
0aaaab
1aaaac
0aaaad
0aaaaq
1aaaar
1aaaau
1aaabt
0aaabv
1aaacb
1aaacg

#126
1aaaab
0aaaac
1aaaad
1aaaah
0aaaap
0aaaar
0aaaau
0aaabs
0aaabt
1aaabv
0aaacb
0aaach

#127
1aaacb
0aaacg

#128
0aaaaa
0aaaab
1aaaac
0aaaad
0aaaah
1aaaai
1aaacg

#129
0aaacb
0aaacg

#130
0aaaac
1aaaad
1aaaah
0aaaai
1aaaaj
1aaacb
1aaach

#131
0aaacb
1aaacg
0aaach

#132
1aaaab
0aaaad
1aaaai
0aaaaj
1aaaaq
1aaaar
1aaaat
1aaabu
0aaabv
1aaach

#133
1aaacb
0aaach

#134
1aaaac
0aaaah
1aaaaj
1aaaap
0aaaaq
0aaaar
0aaaat
1aaabs
0aaabu
1aaabv
0aaacg
1aaach

#135
0aaach

#136
0aaaab
1aaaad
0aaaai
0aaaap
1aaaaq
1aaaar
1aaaau
0aaabs
1aaabt
1aaacg
1aaach

#137
0aaacb
0aaach

#138
1aaaab
0aaaac
1aaaah
0aaaaj
1aaaap
0aaaar
0aaaau
1aaabs
0aaabt
0aaabv
1aaach

#139
0aaacg
0aaach

#140
0aaaab
1aaaac
0aaaad
1aaaai
0aaaaq
1aaacg

#142
1aaaab
0aaaac
1aaaad
1aaaaj
0aaaap
1aaaar
1aaaau
0aaabs
1aaabt
1aaacb
0aaacg

#143
0aaacb
1aaacg
1aaach

#144
1aaaaa
1aaaac
0aaaad
0aaaah
1aaaaq
0aaaar
0aaaau
0aaabt
1aaabv
0aaacg

#145
1aaacg
0aaach

#146
0aaaaa
1aaaad
1aaaah
0aaaai
1aaaap
0aaaaq
1aaaar
1aaaau
1aaabs
1aaabt
0aaabv
1aaach

#147
1aaacb
0aaacg
0aaach

#148
0aaaab
0aaaah
1aaaai
0aaaaj
0aaaap
1aaaaq
0aaaar
0aaaau
0aaabs
0aaabt
1aaabv
0aaacb
1aaacg
1aaach

#149
0aaach

#150
1aaaab
0aaaac
1aaaah
0aaaai
1aaaaj
1aaaap
0aaaaq
1aaabs
0aaabv
1aaacb
0aaacg
1aaach

#151
0aaacb
1aaacg
0aaach

#152
1aaaac
0aaaad
1aaaai
0aaaaj
0aaaap
1aaaaq
0aaabs
1aaabv
0aaacg

#154
0aaaab
1aaaad
1aaaaj
1aaaap
0aaaaq
1aaabs
1aaacb
1aaach

#155
1aaacg

#156
1aaaaa
1aaaab
0aaaac
0aaaap
1aaaaq
1aaaar
1aaaat
0aaabs
1aaabu
0aaacg
0aaach

#158
0aaaaa
0aaaab
1aaaac
0aaaad
0aaaah
1aaaap
0aaaar
0aaaat
1aaabs
0aaabu
0aaabv
1aaach

#159
0aaach

#160
0aaaac
1aaaad
0aaaai
1aaabv
1aaacg

#161
0aaacg

#162
0aaaad
0aaaaj
0aaabv
0aaacb
1aaacg

#163
1aaacb
0aaacg

#164
0aaaaq
1aaach

#166
1aaaaa
1aaaah
0aaaap
0aaabs
1aaabv
0aaacb

#167
1aaacg
0aaach

#168
0aaaaa
1aaaab
1aaaai
1aaaar
1aaaat
1aaabu
0aaabv
0aaacg
1aaach

#169
1aaacb
0aaach

#170
0aaaab
1aaaac
0aaaah
1aaaaj
0aaaar
0aaaat
0aaabu
1aaabv
0aaacb

#172
0aaaac
1aaaad
1aaaah
0aaaai
1aaaaq
0aaabv
1aaacb
1aaacg

#173
0aaacg

#174
0aaaad
0aaaah
1aaaai
0aaaaj
1aaaap
1aaaar
1aaaau
1aaabs
1aaabt
1aaabv
0aaacb
1aaach

#176
1aaaaa
0aaaai
1aaaaj
0aaaaq
0aaaar
0aaaau
0aaabt
0aaabv
1aaacb
1aaacg
0aaach

#177
0aaacb
1aaach

#178
1aaaab
0aaaaj
0aaaap
0aaabs
1aaabv
1aaacb
0aaach

#180
0aaaaa
1aaaac
1aaaar
1aaaau
1aaabt
0aaacb
0aaacg
1aaach

#181
1aaacb
1aaacg

#182
1aaaaa
1aaaad
1aaaah
0aaacb
0aaach

#183
1aaacb

#184
0aaaaa
0aaaah
1aaaai
0aaaar
0aaaau
0aaabt

#185
0aaacb
1aaach

#186
1aaaaa
0aaaai
1aaaaj
1aaaar
1aaaau
1aaabt
1aaacb
0aaacg

#187
1aaacg
0aaach

#188
0aaaaa
0aaaaj
1aaaaq
0aaacb
0aaacg
1aaach

#189
1aaacg
0aaach

#190
1aaaah
1aaaap
0aaaaq
1aaabs
1aaach

#192
1aaaaa
0aaaah
1aaaai
0aaaap
0aaaar
0aaaau
0aaabs
0aaabt
0aaacg

#193
1aaacg
0aaach

#194
0aaaaa
1aaaah
0aaaai
1aaaaj
1aaaar
1aaaau
1aaabt
0aaabv
1aaach

#195
1aaacb
0aaach

#196
0aaaah
1aaaai
0aaaaj
1aaaaq
0aaaar
0aaaau
0aaabt
1aaabv
0aaacg
1aaach

#197
1aaacg

#198
1aaaaa
1aaaah
0aaaai
1aaaaj
1aaaap
0aaaaq
1aaaar
1aaaau
1aaabs
1aaabt
0aaabv

#199
0aaacb
0aaach

#200
0aaaaa
1aaaai
0aaaaj
0aaaap
1aaaaq
0aaaar
0aaaau
0aaabs
0aaabt
1aaabv
1aaacb
0aaacg

#201
0aaacb
1aaach

#202
1aaaaa
0aaaab
0aaaah
1aaaaj
1aaaap
0aaaaq
1aaabs
0aaach

#204
0aaaaa
0aaaac
1aaaah
0aaaai
0aaaap
1aaaaq
0aaabs
1aaacb
1aaacg
1aaach

#205
0aaacb

#206
1aaaaa
1aaaab
0aaaad
0aaaah
1aaaai
0aaaaj
1aaaap
1aaaar
1aaaat
1aaabs
1aaabu
1aaacb
0aaacg
0aaach

#207
0aaacb
1aaach

#208
0aaaab
1aaaac
0aaaai
1aaaaj
0aaaaq
0aaaat
1aaaau
1aaabt
0aaabu
1aaacb
0aaach

#209
0aaacb
1aaacg
1aaach

#210
1aaaab
0aaaac
1aaaad
0aaaaj
0aaaap
1aaaaq
0aaaar
0aaaau
0aaabs
0aaabt
0aaabv
0aaach

#211
1aaacb
0aaacg
1aaach

#212
0aaaab
1aaaac
0aaaad
1aaaah
1aaaap
0aaaaq
1aaaar
1aaaat
1aaabs
1aaabu
1aaabv
0aaacb

#213
1aaacb
1aaacg

#214
1aaaab
0aaaac
1aaaad
1aaaai
0aaaap
0aaabs
0aaacb

#215
1aaacb
0aaach

#216
0aaaaa
1aaaac
0aaaad
0aaaah
1aaaaj
1aaaaq
0aaaar
0aaaat
0aaabu
0aaacg

#217
0aaacb
1aaacg
1aaach

#218
1aaaaa
1aaaad
0aaaai
1aaaap
1aaaar
1aaaau
1aaabs
1aaabt
0aaach

#219
1aaacb
1aaach

#220
1aaaah
0aaaaj
0aaabv
0aaacb
0aaacg
0aaach

#221
1aaach

#222
0aaaab
0aaaah
1aaaai
0aaaaq
0aaaar
0aaaau
0aaabt
1aaacg
0aaach

#223
1aaach

#224
1aaaab
0aaaac
0aaaai
1aaaaj
0aaaap
0aaabs
1aaabv

#225
1aaacb
0aaacg

#226
0aaaab
1aaaac
0aaaad
1aaaah
0aaaaj
1aaaaq
1aaaar
1aaaau
1aaabt
0aaacb
1aaacg
0aaach

#227
1aaach

#228
1aaaab
0aaaac
1aaaad
0aaaah
1aaaai
1aaaap
0aaaaq
1aaaat
0aaaau
1aaabs
0aaabt
1aaabu
0aaabv
1aaacb

#229
0aaach

#230
0aaaaa
1aaaac
0aaaad
0aaaai
1aaaaj
0aaaap
0aaabs
1aaabv
0aaacb
0aaacg
1aaach

#232
1aaaaa
0aaaab
1aaaad
0aaaaj
1aaaaq
0aaaat
1aaaau
1aaabt
0aaabu
0aaach

#234
0aaaaa
0aaaac
1aaaah
1aaaap
0aaaar
0aaaau
1aaabs
0aaabt
1aaacb

#235
1aaacg
1aaach

#236
1aaaaa
1aaaab
0aaaad
1aaaai
0aaaaq
1aaaar
1aaaat
1aaabu
0aaacb
0aaach

#237
1aaacb
0aaacg
1aaach

#238
0aaaab
1aaaac
1aaaaj
0aaaap
0aaaar
0aaaat
0aaabs
0aaabu
0aaabv
0aaacb
0aaach

#239
1aaacg

#240
0aaaaa
1aaaab
0aaaac
1aaaad
1aaaaq
1aaaar
1aaaau
1aaabt
1aaabv
1aaach

#241
1aaacb
0aaach

#242
1aaaac
0aaaad
0aaaah
1aaaap
0aaaar
0aaaau
1aaabs
0aaabt
0aaacg
1aaach

#243
0aaach

#244
0aaaab
1aaaad
0aaaai
0aaaaq
1aaaar
1aaaau
1aaabt
0aaabv
1aaacg

#245
0aaacg

#246
0aaaac
0aaaaj
0aaaap
1aaaaq
0aaaar
0aaaau
0aaabs
0aaabt
1aaabv
1aaach

#248
1aaaaa
0aaaad
1aaaah
1aaaap
0aaaaq
1aaabs
0aaacb
0aaach

#250
0aaaaa
1aaaai
0aaaap
1aaaar
1aaaat
0aaabs
1aaabu
1aaacb
1aaach

#251
0aaacb
1aaacg

#252
1aaaaa
1aaaab
0aaaah
1aaaaj
0aaabv

#253
0aaacg
0aaach

#254
0aaaaa
0aaaab
1aaaac
1aaaah
0aaaai
1aaaaq
1aaabv
1aaacg
1aaach

#255
0aaacg

#256
1aaaaa
0aaaac
1aaaad
0aaaah
1aaaai
0aaaaj
1aaaap
1aaabs
0aaach

#258
0aaaaa
0aaaad
1aaaah
0aaaai
1aaaaj
0aaaar
0aaaat
0aaabu
0aaabv
1aaacg
1aaach

#259
0aaacg
0aaach

#260
1aaaai
0aaaaj
1aaaar
1aaaau
1aaabt
1aaabv

#261
1aaacb

#262
0aaaah
1aaaaj
0aaaaq
1aaaat
0aaaau
0aaabt
1aaabu
0aaabv
0aaacb
1aaacg
1aaach

#263
1aaabj
1aaacb
1aaacc
0aaacg

#264
1aaaaa
1aaaah
0aaaai
0aaaap
0aaaar
1aaaas
0aaaat
0aaabj
0aaabs
0aaabu
1aaabv
1aaabw
0aaacc
0aaach

#265
1aaacg

#266
0aaaaa
1aaaab
0aaaah
1aaaai
0aaaaj
1aaaaq
1aaaar
0aaaas
1aaaat
1aaabu
0aaabv
0aaabw

#267
0aaacb
1aaach

#268
1aaaaa
1aaaac
0aaaai
1aaaaj
1aaaap
0aaaaq
1aaabs
1aaabv

#269
1aaacb
0aaach

#270
0aaaaa
1aaaad
0aaaaj
0aaaap
1aaaaq
0aaaat
1aaaau
0aaabs
1aaabt
0aaabu
0aaabv
0aaacb
0aaacg

#271
1aaacb

#272
0aaaab
1aaaap
1aaaat
0aaaau
1aaabs
0aaabt
1aaabu
1aaabv
0aaacb

#273
1aaacb
1aaach

#274
1aaaaa
0aaaac
1aaaah
0aaaaq
0aaaar
0aaaat
0aaabu
0aaacb
1aaacg

#275
1aaacb
0aaacg
0aaach

#276
0aaaaa
0aaaad
0aaaah
1aaaai
0aaaap
1aaaaq
1aaaar
1aaaat
0aaabs
1aaabu
0aaabv
1aaacg

#278
1aaaab
0aaaai
1aaaaj
1aaaap
0aaaaq
0aaaar
0aaaat
1aaabs
0aaabu
1aaach

#279
0aaacg

#280
1aaaaa
0aaaab
1aaaac
1aaaah
0aaaaj
0aaaap
1aaaaq
1aaaar
1aaaat
0aaabs
1aaabu
1aaabv
0aaacb

#282
0aaaac
1aaaad
0aaaah
1aaaai
1aaaap
0aaaaq
1aaabs
1aaacb

#283
0aaach

#284
0aaaaa
0aaaad
0aaaai
1aaaaj
0aaaap
1aaaaq
0aaaar
0aaaat
0aaabs
0aaabu
1aaacg
1aaach

#285
0aaacg
0aaach

#286
0aaaaj
1aaaap
1aaabs
0aaacb

#288
1aaaah
0aaaaq
0aaabv
1aaacb
1aaacg
1aaach

#289
0aaacb
0aaach

#290
1aaaab
1aaaai
0aaaap
1aaaar
1aaaau
0aaabs
1aaabt
1aaacb
0aaacg
1aaach

#291
1aaacg

#292
1aaaaa
1aaaac
1aaaaj
0aaaar
0aaaau
0aaabt
0aaach

#293
1aaach

#294
1aaaad
0aaach

#295
0aaacb
0aaacg
1aaach

#296
0aaaab
0aaaah
1aaaaq

#297
1aaacb
1aaacg
0aaach

#298
0aaaaa
1aaaab
0aaaac
0aaaai
1aaaap
1aaabs
1aaabv
0aaacb
0aaacg

#299
1aaacg

#300
1aaaac
0aaaad
1aaaah
0aaaaj
1aaaar
1aaaau
1aaabt
0aaabv

#301
1aaach

#302
1aaaaa
1aaaad
0aaaah
1aaaai
0aaaaq
0aaaar
0aaaau
0aaabt
1aaabv
1aaacb
0aaacg
0aaach

#303
0aaacb
1aaacg
1aaach

#304
0aaaai
1aaaaj
0aaaap
1aaaar
1aaaau
0aaabs
1aaabt
0aaabv
1aaacb
0aaach

#306
0aaaaa
0aaaaj
1aaaaq
1aaaat
0aaaau
0aaabt
1aaabu
1aaabv
0aaacg

#307
1aaacg

#308
1aaaap
0aaaaq
0aaaat
1aaaau
1aaabs
1aaabt
0aaabu
0aaabv
0aaacb
1aaach

#309
1aaacb

#310
1aaaaa
1aaaah
0aaaap
1aaaaq
1aaaat
0aaaau
0aaabs
0aaabt
1aaabu
1aaabv
0aaacg
0aaach

#311
1aaach

#312
0aaaab
1aaaai
1aaaap
0aaaar
0aaaat
1aaabs
0aaabu
0aaabv

#313
1aaacg

#314
1aaaab
0aaaac
1aaaaj
1aaaar
1aaaau
1aaabt
1aaabv
0aaacb
0aaacg

#315
1aaacg
0aaach

#316
0aaaaa
1aaaac
0aaaad
0aaaar
0aaaau
0aaabt
0aaabv
1aaacb
0aaacg
1aaach

#317
1aaacg
0aaach

#318
1aaaad
0aaaah
0aaaaq
0aaacb
0aaacg
1aaach

#319
0aaach

#320
0aaaab
1aaaah
0aaaai
0aaaap
1aaaaq
1aaaar
1aaaat
0aaabs
1aaabu
1aaabv
1aaacb
1aaacg

#321
0aaacg
1aaach

#322
1aaaaa
0aaaac
1aaaai
0aaaaj
1aaaap
1aaabs
0aaabv
1aaacg
0aaach

#323
0aaacb

#324
0aaaaa
1aaaab
0aaaad
1aaaaj
0aaaat
1aaaau
1aaabt
0aaabu
1aaabv
1aaacb
0aaacg

#325
0aaacb

#326
0aaaab
1aaaac
0aaaar
0aaaau
0aaabt
0aaabv
1aaacg

#327
1aaacb
0aaacg

#328
0aaaac
1aaaad
0aaaah
0aaaaq
1aaaar
1aaaau
1aaabt
1aaabv
0aaacb

#329
1aaacb
1aaacg

#330
1aaaab
0aaaad
0aaaai
0aaaap
1aaaaq
0aaaar
0aaaau
0aaabs
0aaabt
0aaacb

#332
1aaaac
1aaaah
0aaaaj
1aaaap
0aaaaq
1aaaar
1aaaau
1aaabs
1aaabt
0aaabv
1aaacb
0aaacg
1aaach

#333
0aaacb
1aaacg

#334
1aaaaa
1aaaad
0aaaah
1aaaai
0aaaap
0aaaar
0aaaau
0aaabs
0aaabt
0aaach

#335
0aaacg

#336
0aaaaa
0aaaab
1aaaah
0aaaai
1aaaaj
1aaaar
1aaaat
1aaabu
1aaabv

#337
1aaacb
1aaach

#338
1aaaaa
0aaaac
1aaaai
0aaaaj
1aaaaq
0aaabv
0aaacb
1aaacg
0aaach

#339
1aaacb
0aaacg
1aaach

#340
0aaaad
1aaaaj
1aaaap
0aaaat
1aaaau
1aaabs
1aaabt
0aaabu
0aaacb

#341
0aaach

#342
0aaaaa
1aaabv
1aaacg

#343
0aaacg
1aaach

#344
1aaaaa
0aaaah
0aaaaq
1aaaat
0aaaau
0aaabt
1aaabu
1aaacb
0aaach

#345
1aaabk
1aaacf
1aaacg

#346
0aaaaa
1aaaab
1aaaaf
0aaaai
0aaaap
0aaaar
0aaaat
0aaabk
0aaabs
0aaabu
0aaabv
0aaacf
0aaacg

#347
0aaacb
1aaacg

#348
1aaaac
0aaaaf
1aaaah
0aaaaj
1aaaaq
1aaaar
1aaaat
1aaaba
1aaabu

#349
1aaacb

#350
1aaaad
0aaaah
1aaaai
1aaaap
0aaaaq
0aaaar
0aaaat
0aaaba
1aaabb
1aaabs
0aaabu
0aaacb
0aaacg

#351
1aaacb
1aaach

#352
1aaaaa
0aaaab
1aaaah
0aaaai
1aaaaj
0aaaap
1aaaaq
1aaaar
1aaaat
0aaabb
1aaabc
0aaabs
1aaabu
1aaabv
0aaacb
1aaacg

#353
0aaach

#354
0aaaaa
1aaaab
0aaaac
1aaaai
0aaaaj
1aaaap
1aaaaz
0aaabc
1aaabq
1aaabr
1aaabs
1aaach

#355
1aaacb
0aaacg
0aaach

